%!PS-Adobe-3.0 EPSF-3.0
%%BoundingBox: (atend)
%%LanguageLevel: 2
%%Creator: Grace-5.1.24
%%CreationDate: Tue Nov 29 05:30:35 2016
%%DocumentData: Clean8Bit
%%Orientation: Portrait
%%Title: /home/juanchoflo/Escritorio/UNAL2016-2/HerramientasComputacionales/ProyectoFinal/simulacion/ModeloIsing/Datos/Correlacion/CorrelacionT23Ajuste.agr
%%For: juanchoflo
%%DocumentNeededResources: (atend)
%%EndComments
%%BeginProlog
/m {moveto} def
/l {lineto} def
/s {stroke} def
/n {newpath} def
/c {closepath} def
/RL {rlineto} def
/SLW {setlinewidth} def
/GS {gsave} def
/GR {grestore} def
/SC {setcolor} def
/SGRY {setgray} def
/SRGB {setrgbcolor} def
/SD {setdash} def
/SLC {setlinecap} def
/SLJ {setlinejoin} def
/SCS {setcolorspace} def
/FFSF {findfont setfont} def
/CC {concat} def
/PXL {n m 0 0 RL s} def
/Color0 {1.0000 1.0000 1.0000} def
/Color1 {0.0000 0.0000 0.0000} def
/Color2 {1.0000 0.0000 0.0000} def
/Color3 {0.0000 1.0000 0.0000} def
/Color4 {0.0000 0.0000 1.0000} def
/Color5 {1.0000 1.0000 0.0000} def
/Color6 {0.7373 0.5608 0.5608} def
/Color7 {0.8627 0.8627 0.8627} def
/Color8 {0.5804 0.0000 0.8275} def
/Color9 {0.0000 1.0000 1.0000} def
/Color10 {1.0000 0.0000 1.0000} def
/Color11 {1.0000 0.6471 0.0000} def
/Color12 {0.4471 0.1294 0.7373} def
/Color13 {0.4039 0.0275 0.2824} def
/Color14 {0.2510 0.8784 0.8157} def
/Color15 {0.0000 0.5451 0.0000} def
/Color16 {0.7529 0.7529 0.7529} def
/Color17 {0.5059 0.5059 0.5059} def
/Color18 {0.2588 0.2588 0.2588} def
/PTRN {
 /pat_bits exch def 
 <<
  /PaintType 2
  /PatternType 1 /TilingType 1
  /BBox[0 0 16 16]
  /XStep 16 /YStep 16
  /PaintProc {
   pop
   16 16 true [-1 0 0 -1 16 16] pat_bits imagemask
  }
 >>
 [0.0016 0 0 0.0016 0 0]
 makepattern
} def
/Pattern0 {<0000000000000000000000000000000000000000000000000000000000000000> PTRN} bind def
/Pattern1 {<ffffffffffffffffffffffffffffffffffffffffffffffffffffffffffffffff> PTRN} bind def
/Pattern2 {<eeeeffffbbbbffffeeeeffffbbbbffffeeeeffffbbbbffffeeeeffffbbbbffff> PTRN} bind def
/Pattern3 {<eeeebbbbeeeebbbbeeeebbbbeeeebbbbeeeebbbbeeeebbbbeeeebbbbeeeebbbb> PTRN} bind def
/Pattern4 {<5555aaaa5555aaaa5555aaaa5555aaaa5555aaaa5555aaaa5555aaaa5555aaaa> PTRN} bind def
/Pattern5 {<1111444411114444111144441111444411114444111144441111444411114444> PTRN} bind def
/Pattern6 {<1111000044440000111100004444000011110000444400001111000044440000> PTRN} bind def
/Pattern7 {<1010000000000000010100000000000010100000000000000101000000000000> PTRN} bind def
/Pattern8 {<0000000000000000000000000000000000000000000000000000000000000000> PTRN} bind def
/Pattern9 {<1e1e0f0f8787c3c3e1e1f0f078783c3c1e1e0f0f8787c3c3e1e1f0f078783c3c> PTRN} bind def
/Pattern10 {<7878f0f0e1e1c3c387870f0f1e1e3c3c7878f0f0e1e1c3c387870f0f1e1e3c3c> PTRN} bind def
/Pattern11 {<3333333333333333333333333333333333333333333333333333333333333333> PTRN} bind def
/Pattern12 {<ffffffff00000000ffffffff00000000ffffffff00000000ffffffff00000000> PTRN} bind def
/Pattern13 {<8181424224241818181824244242818181814242242418181818242442428181> PTRN} bind def
/Pattern14 {<8080404020201010080804040202010180804040202010100808040402020101> PTRN} bind def
/Pattern15 {<0101020204040808101020204040808001010202040408081010202040408080> PTRN} bind def
/Pattern16 {<2222222222222222222222222222222222222222222222222222222222222222> PTRN} bind def
/Pattern17 {<0000ffff000000000000ffff000000000000ffff000000000000ffff00000000> PTRN} bind def
/Pattern18 {<2222ffff222222222222ffff222222222222ffff222222222222ffff22222222> PTRN} bind def
/Pattern19 {<ffffffff33333333ffffffff33333333ffffffff33333333ffffffff33333333> PTRN} bind def
/Pattern20 {<0f0f0f0f0f0f0f0ff0f0f0f0f0f0f0f00f0f0f0f0f0f0f0ff0f0f0f0f0f0f0f0> PTRN} bind def
/Pattern21 {<ff00ff00ff00ff00ff00ff00ff00ff0000ff00ff00ff00ff00ff00ff00ff00ff> PTRN} bind def
/Pattern22 {<8001800180018001800180018001ffffffff8001800180018001800180018001> PTRN} bind def
/Pattern23 {<c003c003c003c003c003c003ffffffffffffffffc003c003c003c003c003c003> PTRN} bind def
/Pattern24 {<040404040404ffff404040404040ffff040404040404ffff404040404040ffff> PTRN} bind def
/Pattern25 {<180018001800180018001800ffffffff001800180018001800180018ffffffff> PTRN} bind def
/Pattern26 {<1111b8b87c7c3a3a1111a3a3c7c78b8b1111b8b87c7c3a3a1111a3a3c7c78b8b> PTRN} bind def
/Pattern27 {<101010102828c7c70101010182827c7c101010102828c7c70101010182827c7c> PTRN} bind def
/Pattern28 {<1c1c121211112121c1c12121111112121c1c121211112121c1c1212111111212> PTRN} bind def
/Pattern29 {<3e3e414180808080e3e31414080808083e3e414180808080e3e3141408080808> PTRN} bind def
/Pattern30 {<4848888884848383848488884848383848488888848483838484888848483838> PTRN} bind def
/Pattern31 {<03030404080808080c0c12122121c0c003030404080808080c0c12122121c0c0> PTRN} bind def
/ellipsedict 8 dict def
ellipsedict /mtrx matrix put
/EARC {
 ellipsedict begin
  /endangle exch def
  /startangle exch def
  /yrad exch def
  /xrad exch def
  /y exch def
  /x exch def
  /savematrix mtrx currentmatrix def
  x y translate
  xrad yrad scale
  0 0 1 startangle endangle arc
  savematrix setmatrix
 end
} def
/TL {
  /kcomp exch def
  /linewidth exch def
  /offset exch def
  GS
  0 offset rmoveto
  linewidth SLW
  dup stringwidth exch kcomp add exch RL s
  GR
} def
/KINIT
{
 /kvector exch def
 /kid 0 def
} def
/KPROC
{
 pop pop
 kvector kid get
 0 rmoveto
 /kid 1 kid add def
} def
/DefEncoding [
 /.notdef
 /.notdef
 /.notdef
 /.notdef
 /.notdef
 /.notdef
 /.notdef
 /.notdef
 /.notdef
 /.notdef
 /.notdef
 /.notdef
 /.notdef
 /.notdef
 /.notdef
 /.notdef
 /.notdef
 /.notdef
 /.notdef
 /.notdef
 /.notdef
 /.notdef
 /.notdef
 /.notdef
 /.notdef
 /.notdef
 /.notdef
 /.notdef
 /.notdef
 /.notdef
 /.notdef
 /.notdef
 /space
 /exclam
 /quotedbl
 /numbersign
 /dollar
 /percent
 /ampersand
 /quoteright
 /parenleft
 /parenright
 /asterisk
 /plus
 /comma
 /hyphen
 /period
 /slash
 /zero
 /one
 /two
 /three
 /four
 /five
 /six
 /seven
 /eight
 /nine
 /colon
 /semicolon
 /less
 /equal
 /greater
 /question
 /at
 /A
 /B
 /C
 /D
 /E
 /F
 /G
 /H
 /I
 /J
 /K
 /L
 /M
 /N
 /O
 /P
 /Q
 /R
 /S
 /T
 /U
 /V
 /W
 /X
 /Y
 /Z
 /bracketleft
 /backslash
 /bracketright
 /asciicircum
 /underscore
 /grave
 /a
 /b
 /c
 /d
 /e
 /f
 /g
 /h
 /i
 /j
 /k
 /l
 /m
 /n
 /o
 /p
 /q
 /r
 /s
 /t
 /u
 /v
 /w
 /x
 /y
 /z
 /braceleft
 /bar
 /braceright
 /asciitilde
 /.notdef
 /.notdef
 /.notdef
 /.notdef
 /.notdef
 /.notdef
 /.notdef
 /.notdef
 /.notdef
 /.notdef
 /.notdef
 /.notdef
 /.notdef
 /.notdef
 /.notdef
 /.notdef
 /.notdef
 /.notdef
 /.notdef
 /.notdef
 /.notdef
 /.notdef
 /.notdef
 /.notdef
 /.notdef
 /.notdef
 /.notdef
 /.notdef
 /.notdef
 /.notdef
 /.notdef
 /.notdef
 /.notdef
 /space
 /exclamdown
 /cent
 /sterling
 /currency
 /yen
 /brokenbar
 /section
 /dieresis
 /copyright
 /ordfeminine
 /guillemotleft
 /logicalnot
 /hyphen
 /registered
 /macron
 /degree
 /plusminus
 /twosuperior
 /threesuperior
 /acute
 /mu
 /paragraph
 /periodcentered
 /cedilla
 /onesuperior
 /ordmasculine
 /guillemotright
 /onequarter
 /onehalf
 /threequarters
 /questiondown
 /Agrave
 /Aacute
 /Acircumflex
 /Atilde
 /Adieresis
 /Aring
 /AE
 /Ccedilla
 /Egrave
 /Eacute
 /Ecircumflex
 /Edieresis
 /Igrave
 /Iacute
 /Icircumflex
 /Idieresis
 /Eth
 /Ntilde
 /Ograve
 /Oacute
 /Ocircumflex
 /Otilde
 /Odieresis
 /multiply
 /Oslash
 /Ugrave
 /Uacute
 /Ucircumflex
 /Udieresis
 /Yacute
 /Thorn
 /germandbls
 /agrave
 /aacute
 /acircumflex
 /atilde
 /adieresis
 /aring
 /ae
 /ccedilla
 /egrave
 /eacute
 /ecircumflex
 /edieresis
 /igrave
 /iacute
 /icircumflex
 /idieresis
 /eth
 /ntilde
 /ograve
 /oacute
 /ocircumflex
 /otilde
 /odieresis
 /divide
 /oslash
 /ugrave
 /uacute
 /ucircumflex
 /udieresis
 /yacute
 /thorn
 /ydieresis
] def
%%EndProlog
%%BeginSetup
%%EndSetup
612.00 612.00 scale
n
0.0000 0.0000 m
0.0000 1.0000 l
1.2941 1.0000 l
1.2941 0.0000 l
c
[/DeviceRGB] SCS
Color0 SC
fill
[/DeviceRGB] SCS
Color1 SC
[] 0 SD
0.0030 SLW
0 SLC
0 SLJ
n
0.1500 0.8392 m
0.1600 0.8293 l
0.1700 0.8200 l
0.1800 0.8111 l
0.1900 0.8025 l
0.2000 0.7940 l
0.2100 0.7857 l
0.2200 0.7774 l
0.2300 0.7692 l
0.2400 0.7610 l
0.2500 0.7529 l
0.2600 0.7448 l
0.2700 0.7368 l
0.2800 0.7288 l
0.2900 0.7208 l
0.3000 0.7129 l
0.3100 0.7050 l
0.3200 0.6972 l
0.3300 0.6894 l
0.3400 0.6816 l
0.3500 0.6737 l
0.3600 0.6657 l
0.3700 0.6578 l
0.3800 0.6498 l
0.3900 0.6417 l
0.4000 0.6333 l
0.4100 0.6253 l
0.4200 0.6172 l
0.4300 0.6092 l
0.4400 0.6010 l
0.4500 0.5927 l
0.4600 0.5840 l
0.4700 0.5754 l
0.4800 0.5669 l
0.4900 0.5584 l
0.5000 0.5497 l
0.5100 0.5412 l
0.5200 0.5329 l
0.5300 0.5248 l
0.5400 0.5168 l
0.5500 0.5096 l
0.5600 0.5022 l
0.5700 0.4950 l
0.5800 0.4882 l
0.5900 0.4818 l
0.6000 0.4756 l
0.6100 0.4699 l
0.6200 0.4641 l
0.6300 0.4586 l
0.6400 0.4529 l
0.6500 0.4467 l
0.6600 0.4406 l
0.6700 0.4341 l
0.6800 0.4276 l
0.6900 0.4211 l
0.7000 0.4135 l
0.7100 0.4053 l
0.7200 0.3974 l
0.7300 0.3895 l
0.7400 0.3809 l
0.7500 0.3723 l
0.7600 0.3632 l
0.7700 0.3544 l
0.7800 0.3462 l
0.7900 0.3385 l
0.8000 0.3287 l
0.8100 0.3182 l
0.8200 0.3094 l
0.8300 0.2992 l
0.8400 0.2867 l
0.8500 0.2760 l
0.8600 0.2668 l
0.8700 0.2583 l
0.8800 0.2516 l
0.8900 0.2413 l
0.9000 0.2307 l
0.9100 0.2199 l
0.9200 0.2108 l
0.9300 0.2024 l
0.9400 0.1914 l
0.9500 0.1814 l
0.9600 0.1775 l
0.9700 0.1739 l
0.9800 0.1740 l
0.9900 0.1743 l
1.0000 0.1753 l
1.0100 0.1745 l
1.0200 0.1769 l
1.0300 0.1730 l
1.0400 0.1729 l
1.0500 0.1705 l
1.0600 0.1569 l
1.0700 0.1562 l
1.0800 0.1579 l
1.0900 0.1657 l
1.1000 0.1715 l
1.1100 0.1728 l
1.1200 0.1748 l
1.1300 0.1779 l
1.1400 0.1836 l
1.1500 0.1864 l
1.1501 0.1864 l
s
n
0.1479 0.8371 m
0.1479 0.8413 l
0.1521 0.8413 l
0.1521 0.8371 l
c
fill
[] 0 SD
0.0015 SLW
n
0.1479 0.8371 m
0.1479 0.8413 l
0.1521 0.8413 l
0.1521 0.8371 l
0.1479 0.8371 l
c
s
n
0.1579 0.8272 m
0.1579 0.8314 l
0.1621 0.8314 l
0.1621 0.8272 l
c
fill
n
0.1579 0.8272 m
0.1579 0.8314 l
0.1621 0.8314 l
0.1621 0.8272 l
0.1579 0.8272 l
c
s
n
0.1679 0.8179 m
0.1679 0.8221 l
0.1721 0.8221 l
0.1721 0.8179 l
c
fill
n
0.1679 0.8179 m
0.1679 0.8221 l
0.1721 0.8221 l
0.1721 0.8179 l
0.1679 0.8179 l
c
s
n
0.1779 0.8090 m
0.1779 0.8133 l
0.1821 0.8133 l
0.1821 0.8090 l
c
fill
n
0.1779 0.8090 m
0.1779 0.8133 l
0.1821 0.8133 l
0.1821 0.8090 l
0.1779 0.8090 l
c
s
n
0.1879 0.8004 m
0.1879 0.8046 l
0.1921 0.8046 l
0.1921 0.8004 l
c
fill
n
0.1879 0.8004 m
0.1879 0.8046 l
0.1921 0.8046 l
0.1921 0.8004 l
0.1879 0.8004 l
c
s
n
0.1979 0.7919 m
0.1979 0.7961 l
0.2021 0.7961 l
0.2021 0.7919 l
c
fill
n
0.1979 0.7919 m
0.1979 0.7961 l
0.2021 0.7961 l
0.2021 0.7919 l
0.1979 0.7919 l
c
s
n
0.2079 0.7836 m
0.2079 0.7878 l
0.2121 0.7878 l
0.2121 0.7836 l
c
fill
n
0.2079 0.7836 m
0.2079 0.7878 l
0.2121 0.7878 l
0.2121 0.7836 l
0.2079 0.7836 l
c
s
n
0.2179 0.7753 m
0.2179 0.7795 l
0.2221 0.7795 l
0.2221 0.7753 l
c
fill
n
0.2179 0.7753 m
0.2179 0.7795 l
0.2221 0.7795 l
0.2221 0.7753 l
0.2179 0.7753 l
c
s
n
0.2279 0.7671 m
0.2279 0.7713 l
0.2321 0.7713 l
0.2321 0.7671 l
c
fill
n
0.2279 0.7671 m
0.2279 0.7713 l
0.2321 0.7713 l
0.2321 0.7671 l
0.2279 0.7671 l
c
s
n
0.2379 0.7589 m
0.2379 0.7632 l
0.2421 0.7632 l
0.2421 0.7589 l
c
fill
n
0.2379 0.7589 m
0.2379 0.7632 l
0.2421 0.7632 l
0.2421 0.7589 l
0.2379 0.7589 l
c
s
n
0.2479 0.7508 m
0.2479 0.7550 l
0.2521 0.7550 l
0.2521 0.7508 l
c
fill
n
0.2479 0.7508 m
0.2479 0.7550 l
0.2521 0.7550 l
0.2521 0.7508 l
0.2479 0.7508 l
c
s
n
0.2579 0.7427 m
0.2579 0.7469 l
0.2621 0.7469 l
0.2621 0.7427 l
c
fill
n
0.2579 0.7427 m
0.2579 0.7469 l
0.2621 0.7469 l
0.2621 0.7427 l
0.2579 0.7427 l
c
s
n
0.2679 0.7347 m
0.2679 0.7389 l
0.2721 0.7389 l
0.2721 0.7347 l
c
fill
n
0.2679 0.7347 m
0.2679 0.7389 l
0.2721 0.7389 l
0.2721 0.7347 l
0.2679 0.7347 l
c
s
n
0.2779 0.7267 m
0.2779 0.7309 l
0.2821 0.7309 l
0.2821 0.7267 l
c
fill
n
0.2779 0.7267 m
0.2779 0.7309 l
0.2821 0.7309 l
0.2821 0.7267 l
0.2779 0.7267 l
c
s
n
0.2879 0.7187 m
0.2879 0.7229 l
0.2921 0.7229 l
0.2921 0.7187 l
c
fill
n
0.2879 0.7187 m
0.2879 0.7229 l
0.2921 0.7229 l
0.2921 0.7187 l
0.2879 0.7187 l
c
s
n
0.2979 0.7108 m
0.2979 0.7150 l
0.3021 0.7150 l
0.3021 0.7108 l
c
fill
n
0.2979 0.7108 m
0.2979 0.7150 l
0.3021 0.7150 l
0.3021 0.7108 l
0.2979 0.7108 l
c
s
n
0.3079 0.7029 m
0.3079 0.7071 l
0.3121 0.7071 l
0.3121 0.7029 l
c
fill
n
0.3079 0.7029 m
0.3079 0.7071 l
0.3121 0.7071 l
0.3121 0.7029 l
0.3079 0.7029 l
c
s
n
0.3179 0.6951 m
0.3179 0.6994 l
0.3221 0.6994 l
0.3221 0.6951 l
c
fill
n
0.3179 0.6951 m
0.3179 0.6994 l
0.3221 0.6994 l
0.3221 0.6951 l
0.3179 0.6951 l
c
s
n
0.3279 0.6873 m
0.3279 0.6915 l
0.3321 0.6915 l
0.3321 0.6873 l
c
fill
n
0.3279 0.6873 m
0.3279 0.6915 l
0.3321 0.6915 l
0.3321 0.6873 l
0.3279 0.6873 l
c
s
n
0.3379 0.6794 m
0.3379 0.6837 l
0.3421 0.6837 l
0.3421 0.6794 l
c
fill
n
0.3379 0.6794 m
0.3379 0.6837 l
0.3421 0.6837 l
0.3421 0.6794 l
0.3379 0.6794 l
c
s
n
0.3479 0.6716 m
0.3479 0.6759 l
0.3521 0.6759 l
0.3521 0.6716 l
c
fill
n
0.3479 0.6716 m
0.3479 0.6759 l
0.3521 0.6759 l
0.3521 0.6716 l
0.3479 0.6716 l
c
s
n
0.3579 0.6636 m
0.3579 0.6678 l
0.3621 0.6678 l
0.3621 0.6636 l
c
fill
n
0.3579 0.6636 m
0.3579 0.6678 l
0.3621 0.6678 l
0.3621 0.6636 l
0.3579 0.6636 l
c
s
n
0.3679 0.6557 m
0.3679 0.6600 l
0.3721 0.6600 l
0.3721 0.6557 l
c
fill
n
0.3679 0.6557 m
0.3679 0.6600 l
0.3721 0.6600 l
0.3721 0.6557 l
0.3679 0.6557 l
c
s
n
0.3779 0.6477 m
0.3779 0.6519 l
0.3821 0.6519 l
0.3821 0.6477 l
c
fill
n
0.3779 0.6477 m
0.3779 0.6519 l
0.3821 0.6519 l
0.3821 0.6477 l
0.3779 0.6477 l
c
s
n
0.3879 0.6395 m
0.3879 0.6438 l
0.3921 0.6438 l
0.3921 0.6395 l
c
fill
n
0.3879 0.6395 m
0.3879 0.6438 l
0.3921 0.6438 l
0.3921 0.6395 l
0.3879 0.6395 l
c
s
n
0.3979 0.6312 m
0.3979 0.6355 l
0.4021 0.6355 l
0.4021 0.6312 l
c
fill
n
0.3979 0.6312 m
0.3979 0.6355 l
0.4021 0.6355 l
0.4021 0.6312 l
0.3979 0.6312 l
c
s
n
0.4079 0.6232 m
0.4079 0.6274 l
0.4121 0.6274 l
0.4121 0.6232 l
c
fill
n
0.4079 0.6232 m
0.4079 0.6274 l
0.4121 0.6274 l
0.4121 0.6232 l
0.4079 0.6232 l
c
s
n
0.4179 0.6151 m
0.4179 0.6193 l
0.4221 0.6193 l
0.4221 0.6151 l
c
fill
n
0.4179 0.6151 m
0.4179 0.6193 l
0.4221 0.6193 l
0.4221 0.6151 l
0.4179 0.6151 l
c
s
n
0.4279 0.6070 m
0.4279 0.6113 l
0.4321 0.6113 l
0.4321 0.6070 l
c
fill
n
0.4279 0.6070 m
0.4279 0.6113 l
0.4321 0.6113 l
0.4321 0.6070 l
0.4279 0.6070 l
c
s
n
0.4379 0.5989 m
0.4379 0.6031 l
0.4421 0.6031 l
0.4421 0.5989 l
c
fill
n
0.4379 0.5989 m
0.4379 0.6031 l
0.4421 0.6031 l
0.4421 0.5989 l
0.4379 0.5989 l
c
s
n
0.4479 0.5906 m
0.4479 0.5948 l
0.4521 0.5948 l
0.4521 0.5906 l
c
fill
n
0.4479 0.5906 m
0.4479 0.5948 l
0.4521 0.5948 l
0.4521 0.5906 l
0.4479 0.5906 l
c
s
n
0.4579 0.5819 m
0.4579 0.5862 l
0.4621 0.5862 l
0.4621 0.5819 l
c
fill
n
0.4579 0.5819 m
0.4579 0.5862 l
0.4621 0.5862 l
0.4621 0.5819 l
0.4579 0.5819 l
c
s
n
0.4679 0.5733 m
0.4679 0.5775 l
0.4721 0.5775 l
0.4721 0.5733 l
c
fill
n
0.4679 0.5733 m
0.4679 0.5775 l
0.4721 0.5775 l
0.4721 0.5733 l
0.4679 0.5733 l
c
s
n
0.4779 0.5647 m
0.4779 0.5690 l
0.4821 0.5690 l
0.4821 0.5647 l
c
fill
n
0.4779 0.5647 m
0.4779 0.5690 l
0.4821 0.5690 l
0.4821 0.5647 l
0.4779 0.5647 l
c
s
n
0.4879 0.5563 m
0.4879 0.5606 l
0.4921 0.5606 l
0.4921 0.5563 l
c
fill
n
0.4879 0.5563 m
0.4879 0.5606 l
0.4921 0.5606 l
0.4921 0.5563 l
0.4879 0.5563 l
c
s
n
0.4979 0.5476 m
0.4979 0.5518 l
0.5021 0.5518 l
0.5021 0.5476 l
c
fill
n
0.4979 0.5476 m
0.4979 0.5518 l
0.5021 0.5518 l
0.5021 0.5476 l
0.4979 0.5476 l
c
s
n
0.5079 0.5391 m
0.5079 0.5434 l
0.5121 0.5434 l
0.5121 0.5391 l
c
fill
n
0.5079 0.5391 m
0.5079 0.5434 l
0.5121 0.5434 l
0.5121 0.5391 l
0.5079 0.5391 l
c
s
n
0.5179 0.5307 m
0.5179 0.5350 l
0.5221 0.5350 l
0.5221 0.5307 l
c
fill
n
0.5179 0.5307 m
0.5179 0.5350 l
0.5221 0.5350 l
0.5221 0.5307 l
0.5179 0.5307 l
c
s
n
0.5279 0.5226 m
0.5279 0.5269 l
0.5321 0.5269 l
0.5321 0.5226 l
c
fill
n
0.5279 0.5226 m
0.5279 0.5269 l
0.5321 0.5269 l
0.5321 0.5226 l
0.5279 0.5226 l
c
s
n
0.5379 0.5147 m
0.5379 0.5190 l
0.5421 0.5190 l
0.5421 0.5147 l
c
fill
n
0.5379 0.5147 m
0.5379 0.5190 l
0.5421 0.5190 l
0.5421 0.5147 l
0.5379 0.5147 l
c
s
n
0.5479 0.5074 m
0.5479 0.5117 l
0.5521 0.5117 l
0.5521 0.5074 l
c
fill
n
0.5479 0.5074 m
0.5479 0.5117 l
0.5521 0.5117 l
0.5521 0.5074 l
0.5479 0.5074 l
c
s
n
0.5579 0.5001 m
0.5579 0.5044 l
0.5621 0.5044 l
0.5621 0.5001 l
c
fill
n
0.5579 0.5001 m
0.5579 0.5044 l
0.5621 0.5044 l
0.5621 0.5001 l
0.5579 0.5001 l
c
s
n
0.5679 0.4928 m
0.5679 0.4971 l
0.5721 0.4971 l
0.5721 0.4928 l
c
fill
n
0.5679 0.4928 m
0.5679 0.4971 l
0.5721 0.4971 l
0.5721 0.4928 l
0.5679 0.4928 l
c
s
n
0.5779 0.4861 m
0.5779 0.4904 l
0.5821 0.4904 l
0.5821 0.4861 l
c
fill
n
0.5779 0.4861 m
0.5779 0.4904 l
0.5821 0.4904 l
0.5821 0.4861 l
0.5779 0.4861 l
c
s
n
0.5879 0.4796 m
0.5879 0.4839 l
0.5921 0.4839 l
0.5921 0.4796 l
c
fill
n
0.5879 0.4796 m
0.5879 0.4839 l
0.5921 0.4839 l
0.5921 0.4796 l
0.5879 0.4796 l
c
s
n
0.5979 0.4735 m
0.5979 0.4777 l
0.6021 0.4777 l
0.6021 0.4735 l
c
fill
n
0.5979 0.4735 m
0.5979 0.4777 l
0.6021 0.4777 l
0.6021 0.4735 l
0.5979 0.4735 l
c
s
n
0.6079 0.4678 m
0.6079 0.4720 l
0.6121 0.4720 l
0.6121 0.4678 l
c
fill
n
0.6079 0.4678 m
0.6079 0.4720 l
0.6121 0.4720 l
0.6121 0.4678 l
0.6079 0.4678 l
c
s
n
0.6179 0.4620 m
0.6179 0.4663 l
0.6221 0.4663 l
0.6221 0.4620 l
c
fill
n
0.6179 0.4620 m
0.6179 0.4663 l
0.6221 0.4663 l
0.6221 0.4620 l
0.6179 0.4620 l
c
s
n
0.6279 0.4565 m
0.6279 0.4608 l
0.6321 0.4608 l
0.6321 0.4565 l
c
fill
n
0.6279 0.4565 m
0.6279 0.4608 l
0.6321 0.4608 l
0.6321 0.4565 l
0.6279 0.4565 l
c
s
n
0.6379 0.4507 m
0.6379 0.4550 l
0.6421 0.4550 l
0.6421 0.4507 l
c
fill
n
0.6379 0.4507 m
0.6379 0.4550 l
0.6421 0.4550 l
0.6421 0.4507 l
0.6379 0.4507 l
c
s
n
0.6479 0.4446 m
0.6479 0.4489 l
0.6521 0.4489 l
0.6521 0.4446 l
c
fill
n
0.6479 0.4446 m
0.6479 0.4489 l
0.6521 0.4489 l
0.6521 0.4446 l
0.6479 0.4446 l
c
s
n
0.6579 0.4385 m
0.6579 0.4428 l
0.6621 0.4428 l
0.6621 0.4385 l
c
fill
n
0.6579 0.4385 m
0.6579 0.4428 l
0.6621 0.4428 l
0.6621 0.4385 l
0.6579 0.4385 l
c
s
n
0.6679 0.4320 m
0.6679 0.4363 l
0.6721 0.4363 l
0.6721 0.4320 l
c
fill
n
0.6679 0.4320 m
0.6679 0.4363 l
0.6721 0.4363 l
0.6721 0.4320 l
0.6679 0.4320 l
c
s
n
0.6779 0.4254 m
0.6779 0.4297 l
0.6821 0.4297 l
0.6821 0.4254 l
c
fill
n
0.6779 0.4254 m
0.6779 0.4297 l
0.6821 0.4297 l
0.6821 0.4254 l
0.6779 0.4254 l
c
s
n
0.6879 0.4190 m
0.6879 0.4232 l
0.6921 0.4232 l
0.6921 0.4190 l
c
fill
n
0.6879 0.4190 m
0.6879 0.4232 l
0.6921 0.4232 l
0.6921 0.4190 l
0.6879 0.4190 l
c
s
n
0.6979 0.4113 m
0.6979 0.4156 l
0.7021 0.4156 l
0.7021 0.4113 l
c
fill
n
0.6979 0.4113 m
0.6979 0.4156 l
0.7021 0.4156 l
0.7021 0.4113 l
0.6979 0.4113 l
c
s
n
0.7079 0.4031 m
0.7079 0.4074 l
0.7121 0.4074 l
0.7121 0.4031 l
c
fill
n
0.7079 0.4031 m
0.7079 0.4074 l
0.7121 0.4074 l
0.7121 0.4031 l
0.7079 0.4031 l
c
s
n
0.7179 0.3953 m
0.7179 0.3996 l
0.7221 0.3996 l
0.7221 0.3953 l
c
fill
n
0.7179 0.3953 m
0.7179 0.3996 l
0.7221 0.3996 l
0.7221 0.3953 l
0.7179 0.3953 l
c
s
n
0.7279 0.3874 m
0.7279 0.3916 l
0.7321 0.3916 l
0.7321 0.3874 l
c
fill
n
0.7279 0.3874 m
0.7279 0.3916 l
0.7321 0.3916 l
0.7321 0.3874 l
0.7279 0.3874 l
c
s
n
0.7379 0.3788 m
0.7379 0.3831 l
0.7421 0.3831 l
0.7421 0.3788 l
c
fill
n
0.7379 0.3788 m
0.7379 0.3831 l
0.7421 0.3831 l
0.7421 0.3788 l
0.7379 0.3788 l
c
s
n
0.7479 0.3702 m
0.7479 0.3744 l
0.7521 0.3744 l
0.7521 0.3702 l
c
fill
n
0.7479 0.3702 m
0.7479 0.3744 l
0.7521 0.3744 l
0.7521 0.3702 l
0.7479 0.3702 l
c
s
n
0.7579 0.3611 m
0.7579 0.3654 l
0.7621 0.3654 l
0.7621 0.3611 l
c
fill
n
0.7579 0.3611 m
0.7579 0.3654 l
0.7621 0.3654 l
0.7621 0.3611 l
0.7579 0.3611 l
c
s
n
0.7679 0.3523 m
0.7679 0.3566 l
0.7721 0.3566 l
0.7721 0.3523 l
c
fill
n
0.7679 0.3523 m
0.7679 0.3566 l
0.7721 0.3566 l
0.7721 0.3523 l
0.7679 0.3523 l
c
s
n
0.7779 0.3441 m
0.7779 0.3483 l
0.7821 0.3483 l
0.7821 0.3441 l
c
fill
n
0.7779 0.3441 m
0.7779 0.3483 l
0.7821 0.3483 l
0.7821 0.3441 l
0.7779 0.3441 l
c
s
n
0.7879 0.3363 m
0.7879 0.3406 l
0.7921 0.3406 l
0.7921 0.3363 l
c
fill
n
0.7879 0.3363 m
0.7879 0.3406 l
0.7921 0.3406 l
0.7921 0.3363 l
0.7879 0.3363 l
c
s
n
0.7979 0.3266 m
0.7979 0.3309 l
0.8021 0.3309 l
0.8021 0.3266 l
c
fill
n
0.7979 0.3266 m
0.7979 0.3309 l
0.8021 0.3309 l
0.8021 0.3266 l
0.7979 0.3266 l
c
s
n
0.8079 0.3161 m
0.8079 0.3204 l
0.8121 0.3204 l
0.8121 0.3161 l
c
fill
n
0.8079 0.3161 m
0.8079 0.3204 l
0.8121 0.3204 l
0.8121 0.3161 l
0.8079 0.3161 l
c
s
n
0.8179 0.3073 m
0.8179 0.3115 l
0.8221 0.3115 l
0.8221 0.3073 l
c
fill
n
0.8179 0.3073 m
0.8179 0.3115 l
0.8221 0.3115 l
0.8221 0.3073 l
0.8179 0.3073 l
c
s
n
0.8279 0.2970 m
0.8279 0.3013 l
0.8321 0.3013 l
0.8321 0.2970 l
c
fill
n
0.8279 0.2970 m
0.8279 0.3013 l
0.8321 0.3013 l
0.8321 0.2970 l
0.8279 0.2970 l
c
s
n
0.8379 0.2846 m
0.8379 0.2888 l
0.8421 0.2888 l
0.8421 0.2846 l
c
fill
n
0.8379 0.2846 m
0.8379 0.2888 l
0.8421 0.2888 l
0.8421 0.2846 l
0.8379 0.2846 l
c
s
n
0.8479 0.2739 m
0.8479 0.2781 l
0.8521 0.2781 l
0.8521 0.2739 l
c
fill
n
0.8479 0.2739 m
0.8479 0.2781 l
0.8521 0.2781 l
0.8521 0.2739 l
0.8479 0.2739 l
c
s
n
0.8579 0.2647 m
0.8579 0.2690 l
0.8621 0.2690 l
0.8621 0.2647 l
c
fill
n
0.8579 0.2647 m
0.8579 0.2690 l
0.8621 0.2690 l
0.8621 0.2647 l
0.8579 0.2647 l
c
s
n
0.8679 0.2562 m
0.8679 0.2605 l
0.8721 0.2605 l
0.8721 0.2562 l
c
fill
n
0.8679 0.2562 m
0.8679 0.2605 l
0.8721 0.2605 l
0.8721 0.2562 l
0.8679 0.2562 l
c
s
n
0.8779 0.2495 m
0.8779 0.2537 l
0.8821 0.2537 l
0.8821 0.2495 l
c
fill
n
0.8779 0.2495 m
0.8779 0.2537 l
0.8821 0.2537 l
0.8821 0.2495 l
0.8779 0.2495 l
c
s
n
0.8879 0.2392 m
0.8879 0.2434 l
0.8921 0.2434 l
0.8921 0.2392 l
c
fill
n
0.8879 0.2392 m
0.8879 0.2434 l
0.8921 0.2434 l
0.8921 0.2392 l
0.8879 0.2392 l
c
s
n
0.8979 0.2286 m
0.8979 0.2328 l
0.9021 0.2328 l
0.9021 0.2286 l
c
fill
n
0.8979 0.2286 m
0.8979 0.2328 l
0.9021 0.2328 l
0.9021 0.2286 l
0.8979 0.2286 l
c
s
n
0.9079 0.2178 m
0.9079 0.2220 l
0.9121 0.2220 l
0.9121 0.2178 l
c
fill
n
0.9079 0.2178 m
0.9079 0.2220 l
0.9121 0.2220 l
0.9121 0.2178 l
0.9079 0.2178 l
c
s
n
0.9179 0.2087 m
0.9179 0.2129 l
0.9221 0.2129 l
0.9221 0.2087 l
c
fill
n
0.9179 0.2087 m
0.9179 0.2129 l
0.9221 0.2129 l
0.9221 0.2087 l
0.9179 0.2087 l
c
s
n
0.9279 0.2003 m
0.9279 0.2046 l
0.9321 0.2046 l
0.9321 0.2003 l
c
fill
n
0.9279 0.2003 m
0.9279 0.2046 l
0.9321 0.2046 l
0.9321 0.2003 l
0.9279 0.2003 l
c
s
n
0.9379 0.1893 m
0.9379 0.1935 l
0.9421 0.1935 l
0.9421 0.1893 l
c
fill
n
0.9379 0.1893 m
0.9379 0.1935 l
0.9421 0.1935 l
0.9421 0.1893 l
0.9379 0.1893 l
c
s
n
0.9479 0.1793 m
0.9479 0.1836 l
0.9521 0.1836 l
0.9521 0.1793 l
c
fill
n
0.9479 0.1793 m
0.9479 0.1836 l
0.9521 0.1836 l
0.9521 0.1793 l
0.9479 0.1793 l
c
s
n
0.9579 0.1754 m
0.9579 0.1796 l
0.9621 0.1796 l
0.9621 0.1754 l
c
fill
n
0.9579 0.1754 m
0.9579 0.1796 l
0.9621 0.1796 l
0.9621 0.1754 l
0.9579 0.1754 l
c
s
n
0.9679 0.1718 m
0.9679 0.1761 l
0.9721 0.1761 l
0.9721 0.1718 l
c
fill
n
0.9679 0.1718 m
0.9679 0.1761 l
0.9721 0.1761 l
0.9721 0.1718 l
0.9679 0.1718 l
c
s
n
0.9779 0.1719 m
0.9779 0.1761 l
0.9821 0.1761 l
0.9821 0.1719 l
c
fill
n
0.9779 0.1719 m
0.9779 0.1761 l
0.9821 0.1761 l
0.9821 0.1719 l
0.9779 0.1719 l
c
s
n
0.9879 0.1722 m
0.9879 0.1764 l
0.9921 0.1764 l
0.9921 0.1722 l
c
fill
n
0.9879 0.1722 m
0.9879 0.1764 l
0.9921 0.1764 l
0.9921 0.1722 l
0.9879 0.1722 l
c
s
n
0.9979 0.1732 m
0.9979 0.1774 l
1.0021 0.1774 l
1.0021 0.1732 l
c
fill
n
0.9979 0.1732 m
0.9979 0.1774 l
1.0021 0.1774 l
1.0021 0.1732 l
0.9979 0.1732 l
c
s
n
1.0079 0.1723 m
1.0079 0.1766 l
1.0121 0.1766 l
1.0121 0.1723 l
c
fill
n
1.0079 0.1723 m
1.0079 0.1766 l
1.0121 0.1766 l
1.0121 0.1723 l
1.0079 0.1723 l
c
s
n
1.0179 0.1748 m
1.0179 0.1790 l
1.0221 0.1790 l
1.0221 0.1748 l
c
fill
n
1.0179 0.1748 m
1.0179 0.1790 l
1.0221 0.1790 l
1.0221 0.1748 l
1.0179 0.1748 l
c
s
n
1.0279 0.1709 m
1.0279 0.1751 l
1.0321 0.1751 l
1.0321 0.1709 l
c
fill
n
1.0279 0.1709 m
1.0279 0.1751 l
1.0321 0.1751 l
1.0321 0.1709 l
1.0279 0.1709 l
c
s
n
1.0379 0.1708 m
1.0379 0.1751 l
1.0421 0.1751 l
1.0421 0.1708 l
c
fill
n
1.0379 0.1708 m
1.0379 0.1751 l
1.0421 0.1751 l
1.0421 0.1708 l
1.0379 0.1708 l
c
s
n
1.0479 0.1684 m
1.0479 0.1727 l
1.0521 0.1727 l
1.0521 0.1684 l
c
fill
n
1.0479 0.1684 m
1.0479 0.1727 l
1.0521 0.1727 l
1.0521 0.1684 l
1.0479 0.1684 l
c
s
n
1.0579 0.1548 m
1.0579 0.1591 l
1.0621 0.1591 l
1.0621 0.1548 l
c
fill
n
1.0579 0.1548 m
1.0579 0.1591 l
1.0621 0.1591 l
1.0621 0.1548 l
1.0579 0.1548 l
c
s
n
1.0679 0.1541 m
1.0679 0.1584 l
1.0721 0.1584 l
1.0721 0.1541 l
c
fill
n
1.0679 0.1541 m
1.0679 0.1584 l
1.0721 0.1584 l
1.0721 0.1541 l
1.0679 0.1541 l
c
s
n
1.0779 0.1558 m
1.0779 0.1601 l
1.0821 0.1601 l
1.0821 0.1558 l
c
fill
n
1.0779 0.1558 m
1.0779 0.1601 l
1.0821 0.1601 l
1.0821 0.1558 l
1.0779 0.1558 l
c
s
n
1.0879 0.1636 m
1.0879 0.1678 l
1.0921 0.1678 l
1.0921 0.1636 l
c
fill
n
1.0879 0.1636 m
1.0879 0.1678 l
1.0921 0.1678 l
1.0921 0.1636 l
1.0879 0.1636 l
c
s
n
1.0979 0.1693 m
1.0979 0.1736 l
1.1021 0.1736 l
1.1021 0.1693 l
c
fill
n
1.0979 0.1693 m
1.0979 0.1736 l
1.1021 0.1736 l
1.1021 0.1693 l
1.0979 0.1693 l
c
s
n
1.1079 0.1707 m
1.1079 0.1749 l
1.1121 0.1749 l
1.1121 0.1707 l
c
fill
n
1.1079 0.1707 m
1.1079 0.1749 l
1.1121 0.1749 l
1.1121 0.1707 l
1.1079 0.1707 l
c
s
n
1.1179 0.1727 m
1.1179 0.1770 l
1.1221 0.1770 l
1.1221 0.1727 l
c
fill
n
1.1179 0.1727 m
1.1179 0.1770 l
1.1221 0.1770 l
1.1221 0.1727 l
1.1179 0.1727 l
c
s
n
1.1279 0.1758 m
1.1279 0.1801 l
1.1321 0.1801 l
1.1321 0.1758 l
c
fill
n
1.1279 0.1758 m
1.1279 0.1801 l
1.1321 0.1801 l
1.1321 0.1758 l
1.1279 0.1758 l
c
s
n
1.1379 0.1815 m
1.1379 0.1858 l
1.1421 0.1858 l
1.1421 0.1815 l
c
fill
n
1.1379 0.1815 m
1.1379 0.1858 l
1.1421 0.1858 l
1.1421 0.1815 l
1.1379 0.1815 l
c
s
n
1.1479 0.1843 m
1.1479 0.1885 l
1.1521 0.1885 l
1.1521 0.1843 l
c
fill
n
1.1479 0.1843 m
1.1479 0.1885 l
1.1521 0.1885 l
1.1521 0.1843 l
1.1479 0.1843 l
c
s
[/DeviceRGB] SCS
Color2 SC
[] 0 SD
0.0030 SLW
n
0.1500 0.8288 m
0.1600 0.8211 l
0.1700 0.8134 l
0.1800 0.8056 l
0.1900 0.7979 l
0.2000 0.7902 l
0.2100 0.7824 l
0.2200 0.7747 l
0.2300 0.7669 l
0.2400 0.7592 l
0.2500 0.7515 l
0.2600 0.7437 l
0.2700 0.7360 l
0.2800 0.7283 l
0.2900 0.7205 l
0.3000 0.7128 l
0.3100 0.7051 l
0.3200 0.6973 l
0.3300 0.6896 l
0.3400 0.6819 l
0.3500 0.6741 l
0.3600 0.6664 l
0.3700 0.6587 l
0.3800 0.6509 l
0.3900 0.6432 l
0.4000 0.6355 l
0.4100 0.6277 l
0.4200 0.6200 l
0.4300 0.6123 l
0.4400 0.6045 l
0.4500 0.5968 l
0.4600 0.5891 l
0.4700 0.5813 l
0.4800 0.5736 l
0.4900 0.5659 l
0.5000 0.5581 l
0.5100 0.5504 l
0.5200 0.5426 l
0.5300 0.5349 l
0.5400 0.5272 l
0.5500 0.5194 l
0.5600 0.5117 l
0.5700 0.5040 l
0.5800 0.4962 l
0.5900 0.4885 l
0.6000 0.4808 l
0.6100 0.4730 l
0.6200 0.4653 l
0.6300 0.4576 l
0.6400 0.4498 l
0.6500 0.4421 l
0.6600 0.4344 l
0.6700 0.4266 l
0.6800 0.4189 l
0.6900 0.4112 l
0.7000 0.4034 l
0.7100 0.3957 l
0.7200 0.3880 l
0.7300 0.3802 l
0.7400 0.3725 l
0.7500 0.3648 l
s
[/DeviceRGB] SCS
Color1 SC
[] 0 SD
0.0015 SLW
n
0.1500 0.1500 m
1.1500 0.1500 l
s
n
0.1833 0.1500 m
0.1833 0.1600 l
s
n
0.2167 0.1500 m
0.2167 0.1600 l
s
n
0.2500 0.1500 m
0.2500 0.1600 l
s
n
0.2833 0.1500 m
0.2833 0.1600 l
s
n
0.3167 0.1500 m
0.3167 0.1600 l
s
n
0.3833 0.1500 m
0.3833 0.1600 l
s
n
0.4167 0.1500 m
0.4167 0.1600 l
s
n
0.4500 0.1500 m
0.4500 0.1600 l
s
n
0.4833 0.1500 m
0.4833 0.1600 l
s
n
0.5167 0.1500 m
0.5167 0.1600 l
s
n
0.5833 0.1500 m
0.5833 0.1600 l
s
n
0.6167 0.1500 m
0.6167 0.1600 l
s
n
0.6500 0.1500 m
0.6500 0.1600 l
s
n
0.6833 0.1500 m
0.6833 0.1600 l
s
n
0.7167 0.1500 m
0.7167 0.1600 l
s
n
0.7833 0.1500 m
0.7833 0.1600 l
s
n
0.8167 0.1500 m
0.8167 0.1600 l
s
n
0.8500 0.1500 m
0.8500 0.1600 l
s
n
0.8833 0.1500 m
0.8833 0.1600 l
s
n
0.9167 0.1500 m
0.9167 0.1600 l
s
n
0.9833 0.1500 m
0.9833 0.1600 l
s
n
1.0167 0.1500 m
1.0167 0.1600 l
s
n
1.0500 0.1500 m
1.0500 0.1600 l
s
n
1.0833 0.1500 m
1.0833 0.1600 l
s
n
1.1167 0.1500 m
1.1167 0.1600 l
s
n
0.1500 0.1500 m
0.1500 0.1700 l
s
n
0.3500 0.1500 m
0.3500 0.1700 l
s
n
0.5500 0.1500 m
0.5500 0.1700 l
s
n
0.7500 0.1500 m
0.7500 0.1700 l
s
n
0.9500 0.1500 m
0.9500 0.1700 l
s
n
1.1500 0.1500 m
1.1500 0.1700 l
s
/Times-Roman findfont
dup length dict begin
 {1 index /FID ne {def} {pop pop} ifelse} forall
 /Encoding DefEncoding def
 currentdict
end
/Font41 exch definefont pop
/Font41 FFSF
0.1433 0.1212 m
GS
[0.0280 0.0000 0.0000 0.0280 0 0] CC
(0) show
GR
/Font41 FFSF
0.3363 0.1212 m
GS
[0.0280 0.0000 0.0000 0.0280 0 0] CC
(20) show
GR
/Font41 FFSF
0.5363 0.1212 m
GS
[0.0280 0.0000 0.0000 0.0280 0 0] CC
(40) show
GR
/Font41 FFSF
0.7363 0.1208 m
GS
[0.0280 0.0000 0.0000 0.0280 0 0] CC
(60) show
GR
/Font41 FFSF
0.9363 0.1212 m
GS
[0.0280 0.0000 0.0000 0.0280 0 0] CC
(80) show
GR
/Font41 FFSF
1.1294 0.1212 m
GS
[0.0280 0.0000 0.0000 0.0280 0 0] CC
(100) show
GR
/Font41 FFSF
0.4055 0.0818 m
GS
[0.0420 0.0000 0.0000 0.0420 0 0] CC
(Pasos de Metropolis por sitio) show
GR
n
0.1500 0.1500 m
0.1500 0.8500 l
s
n
0.1500 0.1500 m
0.1600 0.1500 l
s
n
0.1500 0.2014 m
0.1600 0.2014 l
s
n
0.1500 0.2379 m
0.1600 0.2379 l
s
n
0.1500 0.2662 m
0.1600 0.2662 l
s
n
0.1500 0.2893 m
0.1600 0.2893 l
s
n
0.1500 0.3088 m
0.1600 0.3088 l
s
n
0.1500 0.3258 m
0.1600 0.3258 l
s
n
0.1500 0.3407 m
0.1600 0.3407 l
s
n
0.1500 0.3540 m
0.1600 0.3540 l
s
n
0.1500 0.4419 m
0.1600 0.4419 l
s
n
0.1500 0.4933 m
0.1600 0.4933 l
s
n
0.1500 0.5298 m
0.1600 0.5298 l
s
n
0.1500 0.5581 m
0.1600 0.5581 l
s
n
0.1500 0.5812 m
0.1600 0.5812 l
s
n
0.1500 0.6007 m
0.1600 0.6007 l
s
n
0.1500 0.6177 m
0.1600 0.6177 l
s
n
0.1500 0.6326 m
0.1600 0.6326 l
s
n
0.1500 0.6460 m
0.1600 0.6460 l
s
n
0.1500 0.7338 m
0.1600 0.7338 l
s
n
0.1500 0.7852 m
0.1600 0.7852 l
s
n
0.1500 0.8217 m
0.1600 0.8217 l
s
n
0.1500 0.8500 m
0.1600 0.8500 l
s
n
0.1500 0.3540 m
0.1700 0.3540 l
s
n
0.1500 0.6460 m
0.1700 0.6460 l
s
/Font41 FFSF
0.0800 0.3466 m
GS
[0.0280 0.0000 0.0000 0.0280 0 0] CC
(0,001) show
GR
/Font41 FFSF
0.0941 0.6385 m
GS
[0.0280 0.0000 0.0000 0.0280 0 0] CC
(0,01) show
GR
/Font41 FFSF
0.0610 0.2739 m
GS
[0.0000 0.0420 -0.0420 0.0000 0 0] CC
(Correlación magnetica ) show
GR
/Symbol findfont
/Font37 exch definefont pop
/Font37 FFSF
0.0610 0.6657 m
GS
[0.0000 0.0420 -0.0420 0.0000 0 0] CC
(c) show
GR
/Font41 FFSF
0.0610 0.6888 m
GS
[0.0000 0.0420 -0.0420 0.0000 0 0] CC
(\(t\)) show
GR
n
0.1500 0.1500 m
0.1500 0.8500 l
1.1500 0.8500 l
1.1500 0.1500 l
0.1500 0.1500 l
c
s
n
0.6000 0.6000 m
0.6000 0.5306 l
1.1372 0.5306 l
1.1372 0.6000 l
c
[/DeviceRGB] SCS
Color0 SC
fill
[/DeviceRGB] SCS
Color1 SC
n
0.6000 0.6000 m
0.6000 0.5306 l
1.1372 0.5306 l
1.1372 0.6000 l
0.6000 0.6000 l
c
s
/Font37 FFSF
0.6715 0.5422 m
GS
[0.0700 0.0000 0.0000 0.0700 0 0] CC
(t) show
GR
/Font41 FFSF
0.7021 0.5422 m
GS
[0.0700 0.0000 0.0000 0.0700 0 0] CC
( = 16.39 ) show
GR
/Font37 FFSF
0.9515 0.5422 m
GS
[0.0700 0.0000 0.0000 0.0700 0 0] CC
(± 0.09) show
GR
[/DeviceRGB] SCS
Color2 SC
[] 0 SD
0.0030 SLW
n
0.6115 0.5653 m
0.6515 0.5653 l
s
/Font41 FFSF
[/DeviceRGB] SCS
Color1 SC
0.1143 0.9225 m
GS
[0.0560 0.0000 0.0000 0.0560 0 0] CC
(Ajuste Exponencial de la correlación magnetica) show
GR
%%Trailer
%%BoundingBox: 18 43 727 590
%%DocumentNeededResources: font Symbol
%%+ font Times-Roman
%%EOF
