%!PS-Adobe-3.0 EPSF-3.0
%%BoundingBox: (atend)
%%LanguageLevel: 2
%%Creator: Grace-5.1.24
%%CreationDate: Tue Nov 29 05:16:49 2016
%%DocumentData: Clean8Bit
%%Orientation: Portrait
%%Title: /home/juanchoflo/Escritorio/UNAL2016-2/HerramientasComputacionales/ProyectoFinal/simulacion/ModeloIsing/Datos/Correlacion/CorrelacionT23.agr
%%For: juanchoflo
%%DocumentNeededResources: (atend)
%%EndComments
%%BeginProlog
/m {moveto} def
/l {lineto} def
/s {stroke} def
/n {newpath} def
/c {closepath} def
/RL {rlineto} def
/SLW {setlinewidth} def
/GS {gsave} def
/GR {grestore} def
/SC {setcolor} def
/SGRY {setgray} def
/SRGB {setrgbcolor} def
/SD {setdash} def
/SLC {setlinecap} def
/SLJ {setlinejoin} def
/SCS {setcolorspace} def
/FFSF {findfont setfont} def
/CC {concat} def
/PXL {n m 0 0 RL s} def
/Color0 {1.0000 1.0000 1.0000} def
/Color1 {0.0000 0.0000 0.0000} def
/Color2 {1.0000 0.0000 0.0000} def
/Color3 {0.0000 1.0000 0.0000} def
/Color4 {0.0000 0.0000 1.0000} def
/Color5 {1.0000 1.0000 0.0000} def
/Color6 {0.7373 0.5608 0.5608} def
/Color7 {0.8627 0.8627 0.8627} def
/Color8 {0.5804 0.0000 0.8275} def
/Color9 {0.0000 1.0000 1.0000} def
/Color10 {1.0000 0.0000 1.0000} def
/Color11 {1.0000 0.6471 0.0000} def
/Color12 {0.4471 0.1294 0.7373} def
/Color13 {0.4039 0.0275 0.2824} def
/Color14 {0.2510 0.8784 0.8157} def
/Color15 {0.0000 0.5451 0.0000} def
/Color16 {0.7529 0.7529 0.7529} def
/Color17 {0.5059 0.5059 0.5059} def
/Color18 {0.2588 0.2588 0.2588} def
/PTRN {
 /pat_bits exch def 
 <<
  /PaintType 2
  /PatternType 1 /TilingType 1
  /BBox[0 0 16 16]
  /XStep 16 /YStep 16
  /PaintProc {
   pop
   16 16 true [-1 0 0 -1 16 16] pat_bits imagemask
  }
 >>
 [0.0016 0 0 0.0016 0 0]
 makepattern
} def
/Pattern0 {<0000000000000000000000000000000000000000000000000000000000000000> PTRN} bind def
/Pattern1 {<ffffffffffffffffffffffffffffffffffffffffffffffffffffffffffffffff> PTRN} bind def
/Pattern2 {<eeeeffffbbbbffffeeeeffffbbbbffffeeeeffffbbbbffffeeeeffffbbbbffff> PTRN} bind def
/Pattern3 {<eeeebbbbeeeebbbbeeeebbbbeeeebbbbeeeebbbbeeeebbbbeeeebbbbeeeebbbb> PTRN} bind def
/Pattern4 {<5555aaaa5555aaaa5555aaaa5555aaaa5555aaaa5555aaaa5555aaaa5555aaaa> PTRN} bind def
/Pattern5 {<1111444411114444111144441111444411114444111144441111444411114444> PTRN} bind def
/Pattern6 {<1111000044440000111100004444000011110000444400001111000044440000> PTRN} bind def
/Pattern7 {<1010000000000000010100000000000010100000000000000101000000000000> PTRN} bind def
/Pattern8 {<0000000000000000000000000000000000000000000000000000000000000000> PTRN} bind def
/Pattern9 {<1e1e0f0f8787c3c3e1e1f0f078783c3c1e1e0f0f8787c3c3e1e1f0f078783c3c> PTRN} bind def
/Pattern10 {<7878f0f0e1e1c3c387870f0f1e1e3c3c7878f0f0e1e1c3c387870f0f1e1e3c3c> PTRN} bind def
/Pattern11 {<3333333333333333333333333333333333333333333333333333333333333333> PTRN} bind def
/Pattern12 {<ffffffff00000000ffffffff00000000ffffffff00000000ffffffff00000000> PTRN} bind def
/Pattern13 {<8181424224241818181824244242818181814242242418181818242442428181> PTRN} bind def
/Pattern14 {<8080404020201010080804040202010180804040202010100808040402020101> PTRN} bind def
/Pattern15 {<0101020204040808101020204040808001010202040408081010202040408080> PTRN} bind def
/Pattern16 {<2222222222222222222222222222222222222222222222222222222222222222> PTRN} bind def
/Pattern17 {<0000ffff000000000000ffff000000000000ffff000000000000ffff00000000> PTRN} bind def
/Pattern18 {<2222ffff222222222222ffff222222222222ffff222222222222ffff22222222> PTRN} bind def
/Pattern19 {<ffffffff33333333ffffffff33333333ffffffff33333333ffffffff33333333> PTRN} bind def
/Pattern20 {<0f0f0f0f0f0f0f0ff0f0f0f0f0f0f0f00f0f0f0f0f0f0f0ff0f0f0f0f0f0f0f0> PTRN} bind def
/Pattern21 {<ff00ff00ff00ff00ff00ff00ff00ff0000ff00ff00ff00ff00ff00ff00ff00ff> PTRN} bind def
/Pattern22 {<8001800180018001800180018001ffffffff8001800180018001800180018001> PTRN} bind def
/Pattern23 {<c003c003c003c003c003c003ffffffffffffffffc003c003c003c003c003c003> PTRN} bind def
/Pattern24 {<040404040404ffff404040404040ffff040404040404ffff404040404040ffff> PTRN} bind def
/Pattern25 {<180018001800180018001800ffffffff001800180018001800180018ffffffff> PTRN} bind def
/Pattern26 {<1111b8b87c7c3a3a1111a3a3c7c78b8b1111b8b87c7c3a3a1111a3a3c7c78b8b> PTRN} bind def
/Pattern27 {<101010102828c7c70101010182827c7c101010102828c7c70101010182827c7c> PTRN} bind def
/Pattern28 {<1c1c121211112121c1c12121111112121c1c121211112121c1c1212111111212> PTRN} bind def
/Pattern29 {<3e3e414180808080e3e31414080808083e3e414180808080e3e3141408080808> PTRN} bind def
/Pattern30 {<4848888884848383848488884848383848488888848483838484888848483838> PTRN} bind def
/Pattern31 {<03030404080808080c0c12122121c0c003030404080808080c0c12122121c0c0> PTRN} bind def
/ellipsedict 8 dict def
ellipsedict /mtrx matrix put
/EARC {
 ellipsedict begin
  /endangle exch def
  /startangle exch def
  /yrad exch def
  /xrad exch def
  /y exch def
  /x exch def
  /savematrix mtrx currentmatrix def
  x y translate
  xrad yrad scale
  0 0 1 startangle endangle arc
  savematrix setmatrix
 end
} def
/TL {
  /kcomp exch def
  /linewidth exch def
  /offset exch def
  GS
  0 offset rmoveto
  linewidth SLW
  dup stringwidth exch kcomp add exch RL s
  GR
} def
/KINIT
{
 /kvector exch def
 /kid 0 def
} def
/KPROC
{
 pop pop
 kvector kid get
 0 rmoveto
 /kid 1 kid add def
} def
/DefEncoding [
 /.notdef
 /.notdef
 /.notdef
 /.notdef
 /.notdef
 /.notdef
 /.notdef
 /.notdef
 /.notdef
 /.notdef
 /.notdef
 /.notdef
 /.notdef
 /.notdef
 /.notdef
 /.notdef
 /.notdef
 /.notdef
 /.notdef
 /.notdef
 /.notdef
 /.notdef
 /.notdef
 /.notdef
 /.notdef
 /.notdef
 /.notdef
 /.notdef
 /.notdef
 /.notdef
 /.notdef
 /.notdef
 /space
 /exclam
 /quotedbl
 /numbersign
 /dollar
 /percent
 /ampersand
 /quoteright
 /parenleft
 /parenright
 /asterisk
 /plus
 /comma
 /hyphen
 /period
 /slash
 /zero
 /one
 /two
 /three
 /four
 /five
 /six
 /seven
 /eight
 /nine
 /colon
 /semicolon
 /less
 /equal
 /greater
 /question
 /at
 /A
 /B
 /C
 /D
 /E
 /F
 /G
 /H
 /I
 /J
 /K
 /L
 /M
 /N
 /O
 /P
 /Q
 /R
 /S
 /T
 /U
 /V
 /W
 /X
 /Y
 /Z
 /bracketleft
 /backslash
 /bracketright
 /asciicircum
 /underscore
 /grave
 /a
 /b
 /c
 /d
 /e
 /f
 /g
 /h
 /i
 /j
 /k
 /l
 /m
 /n
 /o
 /p
 /q
 /r
 /s
 /t
 /u
 /v
 /w
 /x
 /y
 /z
 /braceleft
 /bar
 /braceright
 /asciitilde
 /.notdef
 /.notdef
 /.notdef
 /.notdef
 /.notdef
 /.notdef
 /.notdef
 /.notdef
 /.notdef
 /.notdef
 /.notdef
 /.notdef
 /.notdef
 /.notdef
 /.notdef
 /.notdef
 /.notdef
 /.notdef
 /.notdef
 /.notdef
 /.notdef
 /.notdef
 /.notdef
 /.notdef
 /.notdef
 /.notdef
 /.notdef
 /.notdef
 /.notdef
 /.notdef
 /.notdef
 /.notdef
 /.notdef
 /space
 /exclamdown
 /cent
 /sterling
 /currency
 /yen
 /brokenbar
 /section
 /dieresis
 /copyright
 /ordfeminine
 /guillemotleft
 /logicalnot
 /hyphen
 /registered
 /macron
 /degree
 /plusminus
 /twosuperior
 /threesuperior
 /acute
 /mu
 /paragraph
 /periodcentered
 /cedilla
 /onesuperior
 /ordmasculine
 /guillemotright
 /onequarter
 /onehalf
 /threequarters
 /questiondown
 /Agrave
 /Aacute
 /Acircumflex
 /Atilde
 /Adieresis
 /Aring
 /AE
 /Ccedilla
 /Egrave
 /Eacute
 /Ecircumflex
 /Edieresis
 /Igrave
 /Iacute
 /Icircumflex
 /Idieresis
 /Eth
 /Ntilde
 /Ograve
 /Oacute
 /Ocircumflex
 /Otilde
 /Odieresis
 /multiply
 /Oslash
 /Ugrave
 /Uacute
 /Ucircumflex
 /Udieresis
 /Yacute
 /Thorn
 /germandbls
 /agrave
 /aacute
 /acircumflex
 /atilde
 /adieresis
 /aring
 /ae
 /ccedilla
 /egrave
 /eacute
 /ecircumflex
 /edieresis
 /igrave
 /iacute
 /icircumflex
 /idieresis
 /eth
 /ntilde
 /ograve
 /oacute
 /ocircumflex
 /otilde
 /odieresis
 /divide
 /oslash
 /ugrave
 /uacute
 /ucircumflex
 /udieresis
 /yacute
 /thorn
 /ydieresis
] def
%%EndProlog
%%BeginSetup
%%EndSetup
612.00 612.00 scale
n
0.0000 0.0000 m
0.0000 1.0000 l
1.2941 1.0000 l
1.2941 0.0000 l
c
[/DeviceRGB] SCS
Color0 SC
fill
[/DeviceRGB] SCS
Color1 SC
[] 0 SD
0.0030 SLW
0 SLC
0 SLJ
n
0.1500 0.7911 m
0.1550 0.7433 l
0.1600 0.7017 l
0.1650 0.6646 l
0.1700 0.6312 l
0.1750 0.6006 l
0.1800 0.5724 l
0.1850 0.5462 l
0.1900 0.5219 l
0.1950 0.4992 l
0.2000 0.4781 l
0.2050 0.4582 l
0.2100 0.4397 l
0.2150 0.4224 l
0.2200 0.4061 l
0.2250 0.3910 l
0.2300 0.3768 l
0.2350 0.3635 l
0.2400 0.3509 l
0.2450 0.3391 l
0.2500 0.3278 l
0.2550 0.3173 l
0.2600 0.3075 l
0.2650 0.2984 l
0.2700 0.2900 l
0.2750 0.2821 l
0.2800 0.2746 l
0.2850 0.2676 l
0.2900 0.2609 l
0.2950 0.2545 l
0.3000 0.2486 l
0.3050 0.2432 l
0.3100 0.2378 l
0.3150 0.2327 l
0.3200 0.2278 l
0.3250 0.2232 l
0.3300 0.2188 l
0.3350 0.2146 l
0.3400 0.2108 l
0.3450 0.2073 l
0.3500 0.2042 l
0.3550 0.2013 l
0.3600 0.1984 l
0.3650 0.1959 l
0.3700 0.1937 l
0.3750 0.1917 l
0.3800 0.1898 l
0.3850 0.1881 l
0.3900 0.1865 l
0.3950 0.1851 l
0.4000 0.1839 l
0.4050 0.1826 l
0.4100 0.1814 l
0.4150 0.1805 l
0.4200 0.1798 l
0.4250 0.1788 l
0.4300 0.1778 l
0.4350 0.1768 l
0.4400 0.1759 l
0.4450 0.1750 l
0.4500 0.1741 l
0.4550 0.1732 l
0.4600 0.1724 l
0.4650 0.1715 l
0.4700 0.1706 l
0.4750 0.1697 l
0.4800 0.1691 l
0.4850 0.1686 l
0.4900 0.1680 l
0.4950 0.1675 l
0.5000 0.1672 l
0.5050 0.1666 l
0.5100 0.1659 l
0.5150 0.1653 l
0.5200 0.1648 l
0.5250 0.1641 l
0.5300 0.1637 l
0.5350 0.1636 l
0.5400 0.1635 l
0.5450 0.1633 l
0.5500 0.1630 l
0.5550 0.1628 l
0.5600 0.1625 l
0.5650 0.1624 l
0.5700 0.1622 l
0.5750 0.1619 l
0.5800 0.1616 l
0.5850 0.1614 l
0.5900 0.1611 l
0.5950 0.1608 l
0.6000 0.1606 l
0.6050 0.1605 l
0.6100 0.1603 l
0.6150 0.1602 l
0.6200 0.1600 l
0.6250 0.1597 l
0.6300 0.1594 l
0.6350 0.1591 l
0.6400 0.1588 l
0.6450 0.1587 l
0.6500 0.1585 l
0.6550 0.1583 l
0.6600 0.1582 l
0.6650 0.1580 l
0.6700 0.1578 l
0.6750 0.1578 l
0.6800 0.1577 l
0.6850 0.1576 l
0.6900 0.1575 l
0.6950 0.1572 l
0.7000 0.1569 l
0.7050 0.1566 l
0.7100 0.1565 l
0.7150 0.1563 l
0.7200 0.1562 l
0.7250 0.1561 l
0.7300 0.1562 l
0.7350 0.1562 l
0.7400 0.1563 l
0.7450 0.1562 l
0.7500 0.1562 l
0.7550 0.1563 l
0.7600 0.1564 l
0.7650 0.1565 l
0.7700 0.1563 l
0.7750 0.1562 l
0.7800 0.1559 l
0.7850 0.1558 l
0.7900 0.1557 l
0.7950 0.1558 l
0.8000 0.1558 l
0.8050 0.1560 l
0.8100 0.1561 l
0.8150 0.1561 l
0.8200 0.1562 l
0.8250 0.1564 l
0.8300 0.1566 l
0.8350 0.1568 l
0.8400 0.1571 l
0.8450 0.1573 l
0.8500 0.1574 l
0.8550 0.1575 l
0.8600 0.1575 l
0.8650 0.1576 l
0.8700 0.1576 l
0.8750 0.1577 l
0.8800 0.1577 l
0.8850 0.1575 l
0.8900 0.1575 l
0.8950 0.1577 l
0.9000 0.1576 l
0.9050 0.1577 l
0.9100 0.1578 l
0.9150 0.1577 l
0.9200 0.1578 l
0.9250 0.1576 l
0.9300 0.1574 l
0.9350 0.1575 l
0.9400 0.1575 l
0.9450 0.1579 l
0.9500 0.1582 l
0.9550 0.1587 l
0.9600 0.1592 l
0.9650 0.1594 l
0.9700 0.1595 l
0.9750 0.1596 l
0.9800 0.1599 l
0.9850 0.1599 l
0.9900 0.1599 l
0.9950 0.1599 l
1.0000 0.1599 l
1.0050 0.1598 l
1.0100 0.1597 l
1.0150 0.1596 l
1.0200 0.1595 l
1.0250 0.1592 l
1.0300 0.1590 l
1.0350 0.1588 l
1.0400 0.1585 l
1.0450 0.1583 l
1.0500 0.1583 l
1.0550 0.1582 l
1.0600 0.1581 l
1.0650 0.1581 l
1.0700 0.1582 l
1.0750 0.1584 l
1.0800 0.1582 l
1.0850 0.1583 l
1.0900 0.1582 l
1.0950 0.1583 l
1.1000 0.1583 l
1.1050 0.1584 l
1.1100 0.1585 l
1.1150 0.1586 l
1.1200 0.1587 l
1.1250 0.1587 l
1.1300 0.1588 l
1.1350 0.1590 l
1.1400 0.1591 l
1.1450 0.1592 l
1.1500 0.1595 l
1.1501 0.1595 l
s
n
0.1500 0.7911 0.0025 0.0025 0 360 EARC c
fill
[] 0 SD
0.0015 SLW
n 0.1500 0.7911 0.0025 0.0025 0 360 EARC s
n
0.1550 0.7433 0.0025 0.0025 0 360 EARC c
fill
n 0.1550 0.7433 0.0025 0.0025 0 360 EARC s
n
0.1600 0.7017 0.0025 0.0025 0 360 EARC c
fill
n 0.1600 0.7017 0.0025 0.0025 0 360 EARC s
n
0.1650 0.6646 0.0025 0.0025 0 360 EARC c
fill
n 0.1650 0.6646 0.0025 0.0025 0 360 EARC s
n
0.1700 0.6312 0.0025 0.0025 0 360 EARC c
fill
n 0.1700 0.6312 0.0025 0.0025 0 360 EARC s
n
0.1750 0.6006 0.0025 0.0025 0 360 EARC c
fill
n 0.1750 0.6006 0.0025 0.0025 0 360 EARC s
n
0.1800 0.5724 0.0025 0.0025 0 360 EARC c
fill
n 0.1800 0.5724 0.0025 0.0025 0 360 EARC s
n
0.1850 0.5462 0.0025 0.0025 0 360 EARC c
fill
n 0.1850 0.5462 0.0025 0.0025 0 360 EARC s
n
0.1900 0.5219 0.0025 0.0025 0 360 EARC c
fill
n 0.1900 0.5219 0.0025 0.0025 0 360 EARC s
n
0.1950 0.4992 0.0025 0.0025 0 360 EARC c
fill
n 0.1950 0.4992 0.0025 0.0025 0 360 EARC s
n
0.2000 0.4781 0.0025 0.0025 0 360 EARC c
fill
n 0.2000 0.4781 0.0025 0.0025 0 360 EARC s
n
0.2050 0.4582 0.0025 0.0025 0 360 EARC c
fill
n 0.2050 0.4582 0.0025 0.0025 0 360 EARC s
n
0.2100 0.4397 0.0025 0.0025 0 360 EARC c
fill
n 0.2100 0.4397 0.0025 0.0025 0 360 EARC s
n
0.2150 0.4224 0.0025 0.0025 0 360 EARC c
fill
n 0.2150 0.4224 0.0025 0.0025 0 360 EARC s
n
0.2200 0.4061 0.0025 0.0025 0 360 EARC c
fill
n 0.2200 0.4061 0.0025 0.0025 0 360 EARC s
n
0.2250 0.3910 0.0025 0.0025 0 360 EARC c
fill
n 0.2250 0.3910 0.0025 0.0025 0 360 EARC s
n
0.2300 0.3768 0.0025 0.0025 0 360 EARC c
fill
n 0.2300 0.3768 0.0025 0.0025 0 360 EARC s
n
0.2350 0.3635 0.0025 0.0025 0 360 EARC c
fill
n 0.2350 0.3635 0.0025 0.0025 0 360 EARC s
n
0.2400 0.3509 0.0025 0.0025 0 360 EARC c
fill
n 0.2400 0.3509 0.0025 0.0025 0 360 EARC s
n
0.2450 0.3391 0.0025 0.0025 0 360 EARC c
fill
n 0.2450 0.3391 0.0025 0.0025 0 360 EARC s
n
0.2500 0.3278 0.0025 0.0025 0 360 EARC c
fill
n 0.2500 0.3278 0.0025 0.0025 0 360 EARC s
n
0.2550 0.3173 0.0025 0.0025 0 360 EARC c
fill
n 0.2550 0.3173 0.0025 0.0025 0 360 EARC s
n
0.2600 0.3075 0.0025 0.0025 0 360 EARC c
fill
n 0.2600 0.3075 0.0025 0.0025 0 360 EARC s
n
0.2650 0.2984 0.0025 0.0025 0 360 EARC c
fill
n 0.2650 0.2984 0.0025 0.0025 0 360 EARC s
n
0.2700 0.2900 0.0025 0.0025 0 360 EARC c
fill
n 0.2700 0.2900 0.0025 0.0025 0 360 EARC s
n
0.2750 0.2821 0.0025 0.0025 0 360 EARC c
fill
n 0.2750 0.2821 0.0025 0.0025 0 360 EARC s
n
0.2800 0.2746 0.0025 0.0025 0 360 EARC c
fill
n 0.2800 0.2746 0.0025 0.0025 0 360 EARC s
n
0.2850 0.2676 0.0025 0.0025 0 360 EARC c
fill
n 0.2850 0.2676 0.0025 0.0025 0 360 EARC s
n
0.2900 0.2609 0.0025 0.0025 0 360 EARC c
fill
n 0.2900 0.2609 0.0025 0.0025 0 360 EARC s
n
0.2950 0.2545 0.0025 0.0025 0 360 EARC c
fill
n 0.2950 0.2545 0.0025 0.0025 0 360 EARC s
n
0.3000 0.2486 0.0025 0.0025 0 360 EARC c
fill
n 0.3000 0.2486 0.0025 0.0025 0 360 EARC s
n
0.3050 0.2432 0.0025 0.0025 0 360 EARC c
fill
n 0.3050 0.2432 0.0025 0.0025 0 360 EARC s
n
0.3100 0.2378 0.0025 0.0025 0 360 EARC c
fill
n 0.3100 0.2378 0.0025 0.0025 0 360 EARC s
n
0.3150 0.2327 0.0025 0.0025 0 360 EARC c
fill
n 0.3150 0.2327 0.0025 0.0025 0 360 EARC s
n
0.3200 0.2278 0.0025 0.0025 0 360 EARC c
fill
n 0.3200 0.2278 0.0025 0.0025 0 360 EARC s
n
0.3250 0.2232 0.0025 0.0025 0 360 EARC c
fill
n 0.3250 0.2232 0.0025 0.0025 0 360 EARC s
n
0.3300 0.2188 0.0025 0.0025 0 360 EARC c
fill
n 0.3300 0.2188 0.0025 0.0025 0 360 EARC s
n
0.3350 0.2146 0.0025 0.0025 0 360 EARC c
fill
n 0.3350 0.2146 0.0025 0.0025 0 360 EARC s
n
0.3400 0.2108 0.0025 0.0025 0 360 EARC c
fill
n 0.3400 0.2108 0.0025 0.0025 0 360 EARC s
n
0.3450 0.2073 0.0025 0.0025 0 360 EARC c
fill
n 0.3450 0.2073 0.0025 0.0025 0 360 EARC s
n
0.3500 0.2042 0.0025 0.0025 0 360 EARC c
fill
n 0.3500 0.2042 0.0025 0.0025 0 360 EARC s
n
0.3550 0.2013 0.0025 0.0025 0 360 EARC c
fill
n 0.3550 0.2013 0.0025 0.0025 0 360 EARC s
n
0.3600 0.1984 0.0025 0.0025 0 360 EARC c
fill
n 0.3600 0.1984 0.0025 0.0025 0 360 EARC s
n
0.3650 0.1959 0.0025 0.0025 0 360 EARC c
fill
n 0.3650 0.1959 0.0025 0.0025 0 360 EARC s
n
0.3700 0.1937 0.0025 0.0025 0 360 EARC c
fill
n 0.3700 0.1937 0.0025 0.0025 0 360 EARC s
n
0.3750 0.1917 0.0025 0.0025 0 360 EARC c
fill
n 0.3750 0.1917 0.0025 0.0025 0 360 EARC s
n
0.3800 0.1898 0.0025 0.0025 0 360 EARC c
fill
n 0.3800 0.1898 0.0025 0.0025 0 360 EARC s
n
0.3850 0.1881 0.0025 0.0025 0 360 EARC c
fill
n 0.3850 0.1881 0.0025 0.0025 0 360 EARC s
n
0.3900 0.1865 0.0025 0.0025 0 360 EARC c
fill
n 0.3900 0.1865 0.0025 0.0025 0 360 EARC s
n
0.3950 0.1851 0.0025 0.0025 0 360 EARC c
fill
n 0.3950 0.1851 0.0025 0.0025 0 360 EARC s
n
0.4000 0.1839 0.0025 0.0025 0 360 EARC c
fill
n 0.4000 0.1839 0.0025 0.0025 0 360 EARC s
n
0.4050 0.1826 0.0025 0.0025 0 360 EARC c
fill
n 0.4050 0.1826 0.0025 0.0025 0 360 EARC s
n
0.4100 0.1814 0.0025 0.0025 0 360 EARC c
fill
n 0.4100 0.1814 0.0025 0.0025 0 360 EARC s
n
0.4150 0.1805 0.0025 0.0025 0 360 EARC c
fill
n 0.4150 0.1805 0.0025 0.0025 0 360 EARC s
n
0.4200 0.1798 0.0025 0.0025 0 360 EARC c
fill
n 0.4200 0.1798 0.0025 0.0025 0 360 EARC s
n
0.4250 0.1788 0.0025 0.0025 0 360 EARC c
fill
n 0.4250 0.1788 0.0025 0.0025 0 360 EARC s
n
0.4300 0.1778 0.0025 0.0025 0 360 EARC c
fill
n 0.4300 0.1778 0.0025 0.0025 0 360 EARC s
n
0.4350 0.1768 0.0025 0.0025 0 360 EARC c
fill
n 0.4350 0.1768 0.0025 0.0025 0 360 EARC s
n
0.4400 0.1759 0.0025 0.0025 0 360 EARC c
fill
n 0.4400 0.1759 0.0025 0.0025 0 360 EARC s
n
0.4450 0.1750 0.0025 0.0025 0 360 EARC c
fill
n 0.4450 0.1750 0.0025 0.0025 0 360 EARC s
n
0.4500 0.1741 0.0025 0.0025 0 360 EARC c
fill
n 0.4500 0.1741 0.0025 0.0025 0 360 EARC s
n
0.4550 0.1732 0.0025 0.0025 0 360 EARC c
fill
n 0.4550 0.1732 0.0025 0.0025 0 360 EARC s
n
0.4600 0.1724 0.0025 0.0025 0 360 EARC c
fill
n 0.4600 0.1724 0.0025 0.0025 0 360 EARC s
n
0.4650 0.1715 0.0025 0.0025 0 360 EARC c
fill
n 0.4650 0.1715 0.0025 0.0025 0 360 EARC s
n
0.4700 0.1706 0.0025 0.0025 0 360 EARC c
fill
n 0.4700 0.1706 0.0025 0.0025 0 360 EARC s
n
0.4750 0.1697 0.0025 0.0025 0 360 EARC c
fill
n 0.4750 0.1697 0.0025 0.0025 0 360 EARC s
n
0.4800 0.1691 0.0025 0.0025 0 360 EARC c
fill
n 0.4800 0.1691 0.0025 0.0025 0 360 EARC s
n
0.4850 0.1686 0.0025 0.0025 0 360 EARC c
fill
n 0.4850 0.1686 0.0025 0.0025 0 360 EARC s
n
0.4900 0.1680 0.0025 0.0025 0 360 EARC c
fill
n 0.4900 0.1680 0.0025 0.0025 0 360 EARC s
n
0.4950 0.1675 0.0025 0.0025 0 360 EARC c
fill
n 0.4950 0.1675 0.0025 0.0025 0 360 EARC s
n
0.5000 0.1672 0.0025 0.0025 0 360 EARC c
fill
n 0.5000 0.1672 0.0025 0.0025 0 360 EARC s
n
0.5050 0.1666 0.0025 0.0025 0 360 EARC c
fill
n 0.5050 0.1666 0.0025 0.0025 0 360 EARC s
n
0.5100 0.1659 0.0025 0.0025 0 360 EARC c
fill
n 0.5100 0.1659 0.0025 0.0025 0 360 EARC s
n
0.5150 0.1653 0.0025 0.0025 0 360 EARC c
fill
n 0.5150 0.1653 0.0025 0.0025 0 360 EARC s
n
0.5200 0.1648 0.0025 0.0025 0 360 EARC c
fill
n 0.5200 0.1648 0.0025 0.0025 0 360 EARC s
n
0.5250 0.1641 0.0025 0.0025 0 360 EARC c
fill
n 0.5250 0.1641 0.0025 0.0025 0 360 EARC s
n
0.5300 0.1637 0.0025 0.0025 0 360 EARC c
fill
n 0.5300 0.1637 0.0025 0.0025 0 360 EARC s
n
0.5350 0.1636 0.0025 0.0025 0 360 EARC c
fill
n 0.5350 0.1636 0.0025 0.0025 0 360 EARC s
n
0.5400 0.1635 0.0025 0.0025 0 360 EARC c
fill
n 0.5400 0.1635 0.0025 0.0025 0 360 EARC s
n
0.5450 0.1633 0.0025 0.0025 0 360 EARC c
fill
n 0.5450 0.1633 0.0025 0.0025 0 360 EARC s
n
0.5500 0.1630 0.0025 0.0025 0 360 EARC c
fill
n 0.5500 0.1630 0.0025 0.0025 0 360 EARC s
n
0.5550 0.1628 0.0025 0.0025 0 360 EARC c
fill
n 0.5550 0.1628 0.0025 0.0025 0 360 EARC s
n
0.5600 0.1625 0.0025 0.0025 0 360 EARC c
fill
n 0.5600 0.1625 0.0025 0.0025 0 360 EARC s
n
0.5650 0.1624 0.0025 0.0025 0 360 EARC c
fill
n 0.5650 0.1624 0.0025 0.0025 0 360 EARC s
n
0.5700 0.1622 0.0025 0.0025 0 360 EARC c
fill
n 0.5700 0.1622 0.0025 0.0025 0 360 EARC s
n
0.5750 0.1619 0.0025 0.0025 0 360 EARC c
fill
n 0.5750 0.1619 0.0025 0.0025 0 360 EARC s
n
0.5800 0.1616 0.0025 0.0025 0 360 EARC c
fill
n 0.5800 0.1616 0.0025 0.0025 0 360 EARC s
n
0.5850 0.1614 0.0025 0.0025 0 360 EARC c
fill
n 0.5850 0.1614 0.0025 0.0025 0 360 EARC s
n
0.5900 0.1611 0.0025 0.0025 0 360 EARC c
fill
n 0.5900 0.1611 0.0025 0.0025 0 360 EARC s
n
0.5950 0.1608 0.0025 0.0025 0 360 EARC c
fill
n 0.5950 0.1608 0.0025 0.0025 0 360 EARC s
n
0.6000 0.1606 0.0025 0.0025 0 360 EARC c
fill
n 0.6000 0.1606 0.0025 0.0025 0 360 EARC s
n
0.6050 0.1605 0.0025 0.0025 0 360 EARC c
fill
n 0.6050 0.1605 0.0025 0.0025 0 360 EARC s
n
0.6100 0.1603 0.0025 0.0025 0 360 EARC c
fill
n 0.6100 0.1603 0.0025 0.0025 0 360 EARC s
n
0.6150 0.1602 0.0025 0.0025 0 360 EARC c
fill
n 0.6150 0.1602 0.0025 0.0025 0 360 EARC s
n
0.6200 0.1600 0.0025 0.0025 0 360 EARC c
fill
n 0.6200 0.1600 0.0025 0.0025 0 360 EARC s
n
0.6250 0.1597 0.0025 0.0025 0 360 EARC c
fill
n 0.6250 0.1597 0.0025 0.0025 0 360 EARC s
n
0.6300 0.1594 0.0025 0.0025 0 360 EARC c
fill
n 0.6300 0.1594 0.0025 0.0025 0 360 EARC s
n
0.6350 0.1591 0.0025 0.0025 0 360 EARC c
fill
n 0.6350 0.1591 0.0025 0.0025 0 360 EARC s
n
0.6400 0.1588 0.0025 0.0025 0 360 EARC c
fill
n 0.6400 0.1588 0.0025 0.0025 0 360 EARC s
n
0.6450 0.1587 0.0025 0.0025 0 360 EARC c
fill
n 0.6450 0.1587 0.0025 0.0025 0 360 EARC s
n
0.6500 0.1585 0.0025 0.0025 0 360 EARC c
fill
n 0.6500 0.1585 0.0025 0.0025 0 360 EARC s
n
0.6550 0.1583 0.0025 0.0025 0 360 EARC c
fill
n 0.6550 0.1583 0.0025 0.0025 0 360 EARC s
n
0.6600 0.1582 0.0025 0.0025 0 360 EARC c
fill
n 0.6600 0.1582 0.0025 0.0025 0 360 EARC s
n
0.6650 0.1580 0.0025 0.0025 0 360 EARC c
fill
n 0.6650 0.1580 0.0025 0.0025 0 360 EARC s
n
0.6700 0.1578 0.0025 0.0025 0 360 EARC c
fill
n 0.6700 0.1578 0.0025 0.0025 0 360 EARC s
n
0.6750 0.1578 0.0025 0.0025 0 360 EARC c
fill
n 0.6750 0.1578 0.0025 0.0025 0 360 EARC s
n
0.6800 0.1577 0.0025 0.0025 0 360 EARC c
fill
n 0.6800 0.1577 0.0025 0.0025 0 360 EARC s
n
0.6850 0.1576 0.0025 0.0025 0 360 EARC c
fill
n 0.6850 0.1576 0.0025 0.0025 0 360 EARC s
n
0.6900 0.1575 0.0025 0.0025 0 360 EARC c
fill
n 0.6900 0.1575 0.0025 0.0025 0 360 EARC s
n
0.6950 0.1572 0.0025 0.0025 0 360 EARC c
fill
n 0.6950 0.1572 0.0025 0.0025 0 360 EARC s
n
0.7000 0.1569 0.0025 0.0025 0 360 EARC c
fill
n 0.7000 0.1569 0.0025 0.0025 0 360 EARC s
n
0.7050 0.1566 0.0025 0.0025 0 360 EARC c
fill
n 0.7050 0.1566 0.0025 0.0025 0 360 EARC s
n
0.7100 0.1565 0.0025 0.0025 0 360 EARC c
fill
n 0.7100 0.1565 0.0025 0.0025 0 360 EARC s
n
0.7150 0.1563 0.0025 0.0025 0 360 EARC c
fill
n 0.7150 0.1563 0.0025 0.0025 0 360 EARC s
n
0.7200 0.1562 0.0025 0.0025 0 360 EARC c
fill
n 0.7200 0.1562 0.0025 0.0025 0 360 EARC s
n
0.7250 0.1561 0.0025 0.0025 0 360 EARC c
fill
n 0.7250 0.1561 0.0025 0.0025 0 360 EARC s
n
0.7300 0.1562 0.0025 0.0025 0 360 EARC c
fill
n 0.7300 0.1562 0.0025 0.0025 0 360 EARC s
n
0.7350 0.1562 0.0025 0.0025 0 360 EARC c
fill
n 0.7350 0.1562 0.0025 0.0025 0 360 EARC s
n
0.7400 0.1563 0.0025 0.0025 0 360 EARC c
fill
n 0.7400 0.1563 0.0025 0.0025 0 360 EARC s
n
0.7450 0.1562 0.0025 0.0025 0 360 EARC c
fill
n 0.7450 0.1562 0.0025 0.0025 0 360 EARC s
n
0.7500 0.1562 0.0025 0.0025 0 360 EARC c
fill
n 0.7500 0.1562 0.0025 0.0025 0 360 EARC s
n
0.7550 0.1563 0.0025 0.0025 0 360 EARC c
fill
n 0.7550 0.1563 0.0025 0.0025 0 360 EARC s
n
0.7600 0.1564 0.0025 0.0025 0 360 EARC c
fill
n 0.7600 0.1564 0.0025 0.0025 0 360 EARC s
n
0.7650 0.1565 0.0025 0.0025 0 360 EARC c
fill
n 0.7650 0.1565 0.0025 0.0025 0 360 EARC s
n
0.7700 0.1563 0.0025 0.0025 0 360 EARC c
fill
n 0.7700 0.1563 0.0025 0.0025 0 360 EARC s
n
0.7750 0.1562 0.0025 0.0025 0 360 EARC c
fill
n 0.7750 0.1562 0.0025 0.0025 0 360 EARC s
n
0.7800 0.1559 0.0025 0.0025 0 360 EARC c
fill
n 0.7800 0.1559 0.0025 0.0025 0 360 EARC s
n
0.7850 0.1558 0.0025 0.0025 0 360 EARC c
fill
n 0.7850 0.1558 0.0025 0.0025 0 360 EARC s
n
0.7900 0.1557 0.0025 0.0025 0 360 EARC c
fill
n 0.7900 0.1557 0.0025 0.0025 0 360 EARC s
n
0.7950 0.1558 0.0025 0.0025 0 360 EARC c
fill
n 0.7950 0.1558 0.0025 0.0025 0 360 EARC s
n
0.8000 0.1558 0.0025 0.0025 0 360 EARC c
fill
n 0.8000 0.1558 0.0025 0.0025 0 360 EARC s
n
0.8050 0.1560 0.0025 0.0025 0 360 EARC c
fill
n 0.8050 0.1560 0.0025 0.0025 0 360 EARC s
n
0.8100 0.1561 0.0025 0.0025 0 360 EARC c
fill
n 0.8100 0.1561 0.0025 0.0025 0 360 EARC s
n
0.8150 0.1561 0.0025 0.0025 0 360 EARC c
fill
n 0.8150 0.1561 0.0025 0.0025 0 360 EARC s
n
0.8200 0.1562 0.0025 0.0025 0 360 EARC c
fill
n 0.8200 0.1562 0.0025 0.0025 0 360 EARC s
n
0.8250 0.1564 0.0025 0.0025 0 360 EARC c
fill
n 0.8250 0.1564 0.0025 0.0025 0 360 EARC s
n
0.8300 0.1566 0.0025 0.0025 0 360 EARC c
fill
n 0.8300 0.1566 0.0025 0.0025 0 360 EARC s
n
0.8350 0.1568 0.0025 0.0025 0 360 EARC c
fill
n 0.8350 0.1568 0.0025 0.0025 0 360 EARC s
n
0.8400 0.1571 0.0025 0.0025 0 360 EARC c
fill
n 0.8400 0.1571 0.0025 0.0025 0 360 EARC s
n
0.8450 0.1573 0.0025 0.0025 0 360 EARC c
fill
n 0.8450 0.1573 0.0025 0.0025 0 360 EARC s
n
0.8500 0.1574 0.0025 0.0025 0 360 EARC c
fill
n 0.8500 0.1574 0.0025 0.0025 0 360 EARC s
n
0.8550 0.1575 0.0025 0.0025 0 360 EARC c
fill
n 0.8550 0.1575 0.0025 0.0025 0 360 EARC s
n
0.8600 0.1575 0.0025 0.0025 0 360 EARC c
fill
n 0.8600 0.1575 0.0025 0.0025 0 360 EARC s
n
0.8650 0.1576 0.0025 0.0025 0 360 EARC c
fill
n 0.8650 0.1576 0.0025 0.0025 0 360 EARC s
n
0.8700 0.1576 0.0025 0.0025 0 360 EARC c
fill
n 0.8700 0.1576 0.0025 0.0025 0 360 EARC s
n
0.8750 0.1577 0.0025 0.0025 0 360 EARC c
fill
n 0.8750 0.1577 0.0025 0.0025 0 360 EARC s
n
0.8800 0.1577 0.0025 0.0025 0 360 EARC c
fill
n 0.8800 0.1577 0.0025 0.0025 0 360 EARC s
n
0.8850 0.1575 0.0025 0.0025 0 360 EARC c
fill
n 0.8850 0.1575 0.0025 0.0025 0 360 EARC s
n
0.8900 0.1575 0.0025 0.0025 0 360 EARC c
fill
n 0.8900 0.1575 0.0025 0.0025 0 360 EARC s
n
0.8950 0.1577 0.0025 0.0025 0 360 EARC c
fill
n 0.8950 0.1577 0.0025 0.0025 0 360 EARC s
n
0.9000 0.1576 0.0025 0.0025 0 360 EARC c
fill
n 0.9000 0.1576 0.0025 0.0025 0 360 EARC s
n
0.9050 0.1577 0.0025 0.0025 0 360 EARC c
fill
n 0.9050 0.1577 0.0025 0.0025 0 360 EARC s
n
0.9100 0.1578 0.0025 0.0025 0 360 EARC c
fill
n 0.9100 0.1578 0.0025 0.0025 0 360 EARC s
n
0.9150 0.1577 0.0025 0.0025 0 360 EARC c
fill
n 0.9150 0.1577 0.0025 0.0025 0 360 EARC s
n
0.9200 0.1578 0.0025 0.0025 0 360 EARC c
fill
n 0.9200 0.1578 0.0025 0.0025 0 360 EARC s
n
0.9250 0.1576 0.0025 0.0025 0 360 EARC c
fill
n 0.9250 0.1576 0.0025 0.0025 0 360 EARC s
n
0.9300 0.1574 0.0025 0.0025 0 360 EARC c
fill
n 0.9300 0.1574 0.0025 0.0025 0 360 EARC s
n
0.9350 0.1575 0.0025 0.0025 0 360 EARC c
fill
n 0.9350 0.1575 0.0025 0.0025 0 360 EARC s
n
0.9400 0.1575 0.0025 0.0025 0 360 EARC c
fill
n 0.9400 0.1575 0.0025 0.0025 0 360 EARC s
n
0.9450 0.1579 0.0025 0.0025 0 360 EARC c
fill
n 0.9450 0.1579 0.0025 0.0025 0 360 EARC s
n
0.9500 0.1582 0.0025 0.0025 0 360 EARC c
fill
n 0.9500 0.1582 0.0025 0.0025 0 360 EARC s
n
0.9550 0.1587 0.0025 0.0025 0 360 EARC c
fill
n 0.9550 0.1587 0.0025 0.0025 0 360 EARC s
n
0.9600 0.1592 0.0025 0.0025 0 360 EARC c
fill
n 0.9600 0.1592 0.0025 0.0025 0 360 EARC s
n
0.9650 0.1594 0.0025 0.0025 0 360 EARC c
fill
n 0.9650 0.1594 0.0025 0.0025 0 360 EARC s
n
0.9700 0.1595 0.0025 0.0025 0 360 EARC c
fill
n 0.9700 0.1595 0.0025 0.0025 0 360 EARC s
n
0.9750 0.1596 0.0025 0.0025 0 360 EARC c
fill
n 0.9750 0.1596 0.0025 0.0025 0 360 EARC s
n
0.9800 0.1599 0.0025 0.0025 0 360 EARC c
fill
n 0.9800 0.1599 0.0025 0.0025 0 360 EARC s
n
0.9850 0.1599 0.0025 0.0025 0 360 EARC c
fill
n 0.9850 0.1599 0.0025 0.0025 0 360 EARC s
n
0.9900 0.1599 0.0025 0.0025 0 360 EARC c
fill
n 0.9900 0.1599 0.0025 0.0025 0 360 EARC s
n
0.9950 0.1599 0.0025 0.0025 0 360 EARC c
fill
n 0.9950 0.1599 0.0025 0.0025 0 360 EARC s
n
1.0000 0.1599 0.0025 0.0025 0 360 EARC c
fill
n 1.0000 0.1599 0.0025 0.0025 0 360 EARC s
n
1.0050 0.1598 0.0025 0.0025 0 360 EARC c
fill
n 1.0050 0.1598 0.0025 0.0025 0 360 EARC s
n
1.0100 0.1597 0.0025 0.0025 0 360 EARC c
fill
n 1.0100 0.1597 0.0025 0.0025 0 360 EARC s
n
1.0150 0.1596 0.0025 0.0025 0 360 EARC c
fill
n 1.0150 0.1596 0.0025 0.0025 0 360 EARC s
n
1.0200 0.1595 0.0025 0.0025 0 360 EARC c
fill
n 1.0200 0.1595 0.0025 0.0025 0 360 EARC s
n
1.0250 0.1592 0.0025 0.0025 0 360 EARC c
fill
n 1.0250 0.1592 0.0025 0.0025 0 360 EARC s
n
1.0300 0.1590 0.0025 0.0025 0 360 EARC c
fill
n 1.0300 0.1590 0.0025 0.0025 0 360 EARC s
n
1.0350 0.1588 0.0025 0.0025 0 360 EARC c
fill
n 1.0350 0.1588 0.0025 0.0025 0 360 EARC s
n
1.0400 0.1585 0.0025 0.0025 0 360 EARC c
fill
n 1.0400 0.1585 0.0025 0.0025 0 360 EARC s
n
1.0450 0.1583 0.0025 0.0025 0 360 EARC c
fill
n 1.0450 0.1583 0.0025 0.0025 0 360 EARC s
n
1.0500 0.1583 0.0025 0.0025 0 360 EARC c
fill
n 1.0500 0.1583 0.0025 0.0025 0 360 EARC s
n
1.0550 0.1582 0.0025 0.0025 0 360 EARC c
fill
n 1.0550 0.1582 0.0025 0.0025 0 360 EARC s
n
1.0600 0.1581 0.0025 0.0025 0 360 EARC c
fill
n 1.0600 0.1581 0.0025 0.0025 0 360 EARC s
n
1.0650 0.1581 0.0025 0.0025 0 360 EARC c
fill
n 1.0650 0.1581 0.0025 0.0025 0 360 EARC s
n
1.0700 0.1582 0.0025 0.0025 0 360 EARC c
fill
n 1.0700 0.1582 0.0025 0.0025 0 360 EARC s
n
1.0750 0.1584 0.0025 0.0025 0 360 EARC c
fill
n 1.0750 0.1584 0.0025 0.0025 0 360 EARC s
n
1.0800 0.1582 0.0025 0.0025 0 360 EARC c
fill
n 1.0800 0.1582 0.0025 0.0025 0 360 EARC s
n
1.0850 0.1583 0.0025 0.0025 0 360 EARC c
fill
n 1.0850 0.1583 0.0025 0.0025 0 360 EARC s
n
1.0900 0.1582 0.0025 0.0025 0 360 EARC c
fill
n 1.0900 0.1582 0.0025 0.0025 0 360 EARC s
n
1.0950 0.1583 0.0025 0.0025 0 360 EARC c
fill
n 1.0950 0.1583 0.0025 0.0025 0 360 EARC s
n
1.1000 0.1583 0.0025 0.0025 0 360 EARC c
fill
n 1.1000 0.1583 0.0025 0.0025 0 360 EARC s
n
1.1050 0.1584 0.0025 0.0025 0 360 EARC c
fill
n 1.1050 0.1584 0.0025 0.0025 0 360 EARC s
n
1.1100 0.1585 0.0025 0.0025 0 360 EARC c
fill
n 1.1100 0.1585 0.0025 0.0025 0 360 EARC s
n
1.1150 0.1586 0.0025 0.0025 0 360 EARC c
fill
n 1.1150 0.1586 0.0025 0.0025 0 360 EARC s
n
1.1200 0.1587 0.0025 0.0025 0 360 EARC c
fill
n 1.1200 0.1587 0.0025 0.0025 0 360 EARC s
n
1.1250 0.1587 0.0025 0.0025 0 360 EARC c
fill
n 1.1250 0.1587 0.0025 0.0025 0 360 EARC s
n
1.1300 0.1588 0.0025 0.0025 0 360 EARC c
fill
n 1.1300 0.1588 0.0025 0.0025 0 360 EARC s
n
1.1350 0.1590 0.0025 0.0025 0 360 EARC c
fill
n 1.1350 0.1590 0.0025 0.0025 0 360 EARC s
n
1.1400 0.1591 0.0025 0.0025 0 360 EARC c
fill
n 1.1400 0.1591 0.0025 0.0025 0 360 EARC s
n
1.1450 0.1592 0.0025 0.0025 0 360 EARC c
fill
n 1.1450 0.1592 0.0025 0.0025 0 360 EARC s
n
1.1500 0.1595 0.0025 0.0025 0 360 EARC c
fill
n 1.1500 0.1595 0.0025 0.0025 0 360 EARC s
n
0.1500 0.1500 m
1.1500 0.1500 l
s
n
0.2000 0.1500 m
0.2000 0.1600 l
s
n
0.3000 0.1500 m
0.3000 0.1600 l
s
n
0.4000 0.1500 m
0.4000 0.1600 l
s
n
0.5000 0.1500 m
0.5000 0.1600 l
s
n
0.6000 0.1500 m
0.6000 0.1600 l
s
n
0.7000 0.1500 m
0.7000 0.1600 l
s
n
0.8000 0.1500 m
0.8000 0.1600 l
s
n
0.9000 0.1500 m
0.9000 0.1600 l
s
n
1.0000 0.1500 m
1.0000 0.1600 l
s
n
1.1000 0.1500 m
1.1000 0.1600 l
s
n
0.1500 0.1500 m
0.1500 0.1700 l
s
n
0.2500 0.1500 m
0.2500 0.1700 l
s
n
0.3500 0.1500 m
0.3500 0.1700 l
s
n
0.4500 0.1500 m
0.4500 0.1700 l
s
n
0.5500 0.1500 m
0.5500 0.1700 l
s
n
0.6500 0.1500 m
0.6500 0.1700 l
s
n
0.7500 0.1500 m
0.7500 0.1700 l
s
n
0.8500 0.1500 m
0.8500 0.1700 l
s
n
0.9500 0.1500 m
0.9500 0.1700 l
s
n
1.0500 0.1500 m
1.0500 0.1700 l
s
n
1.1500 0.1500 m
1.1500 0.1700 l
s
/Times-Roman findfont
dup length dict begin
 {1 index /FID ne {def} {pop pop} ifelse} forall
 /Encoding DefEncoding def
 currentdict
end
/Font41 exch definefont pop
/Font41 FFSF
0.1433 0.1212 m
GS
[0.0280 0.0000 0.0000 0.0280 0 0] CC
(0) show
GR
/Font41 FFSF
0.2363 0.1212 m
GS
[0.0280 0.0000 0.0000 0.0280 0 0] CC
(20) show
GR
/Font41 FFSF
0.3363 0.1212 m
GS
[0.0280 0.0000 0.0000 0.0280 0 0] CC
(40) show
GR
/Font41 FFSF
0.4363 0.1208 m
GS
[0.0280 0.0000 0.0000 0.0280 0 0] CC
(60) show
GR
/Font41 FFSF
0.5363 0.1212 m
GS
[0.0280 0.0000 0.0000 0.0280 0 0] CC
(80) show
GR
/Font41 FFSF
0.6294 0.1212 m
GS
[0.0280 0.0000 0.0000 0.0280 0 0] CC
(100) show
GR
/Font41 FFSF
0.7294 0.1212 m
GS
[0.0280 0.0000 0.0000 0.0280 0 0] CC
(120) show
GR
/Font41 FFSF
0.8294 0.1212 m
GS
[0.0280 0.0000 0.0000 0.0280 0 0] CC
(140) show
GR
/Font41 FFSF
0.9294 0.1208 m
GS
[0.0280 0.0000 0.0000 0.0280 0 0] CC
(160) show
GR
/Font41 FFSF
1.0294 0.1212 m
GS
[0.0280 0.0000 0.0000 0.0280 0 0] CC
(180) show
GR
/Font41 FFSF
1.1294 0.1212 m
GS
[0.0280 0.0000 0.0000 0.0280 0 0] CC
(200) show
GR
/Font41 FFSF
0.4055 0.0818 m
GS
[0.0420 0.0000 0.0000 0.0420 0 0] CC
(Pasos de Metropolis por sitio) show
GR
n
0.1500 0.1500 m
0.1500 0.8500 l
s
n
0.1500 0.2262 m
0.1600 0.2262 l
s
n
0.1500 0.3649 m
0.1600 0.3649 l
s
n
0.1500 0.5035 m
0.1600 0.5035 l
s
n
0.1500 0.6421 m
0.1600 0.6421 l
s
n
0.1500 0.7807 m
0.1600 0.7807 l
s
n
0.1500 0.1569 m
0.1700 0.1569 l
s
n
0.1500 0.2955 m
0.1700 0.2955 l
s
n
0.1500 0.4342 m
0.1700 0.4342 l
s
n
0.1500 0.5728 m
0.1700 0.5728 l
s
n
0.1500 0.7114 m
0.1700 0.7114 l
s
n
0.1500 0.8500 m
0.1700 0.8500 l
s
/Font41 FFSF
0.1267 0.1477 m
GS
[0.0280 0.0000 0.0000 0.0280 0 0] CC
(0) show
GR
/Font41 FFSF
0.0941 0.2881 m
GS
[0.0280 0.0000 0.0000 0.0280 0 0] CC
(0,01) show
GR
/Font41 FFSF
0.0918 0.4267 m
GS
[0.0280 0.0000 0.0000 0.0280 0 0] CC
(0,02) show
GR
/Font41 FFSF
0.0929 0.5653 m
GS
[0.0280 0.0000 0.0000 0.0280 0 0] CC
(0,03) show
GR
/Font41 FFSF
0.0918 0.7039 m
GS
[0.0280 0.0000 0.0000 0.0280 0 0] CC
(0,04) show
GR
/Font41 FFSF
0.0929 0.8424 m
GS
[0.0280 0.0000 0.0000 0.0280 0 0] CC
(0,05) show
GR
/Font41 FFSF
0.0727 0.2739 m
GS
[0.0000 0.0420 -0.0420 0.0000 0 0] CC
(Correlación magnética ) show
GR
/Symbol findfont
/Font37 exch definefont pop
/Font37 FFSF
0.0727 0.6657 m
GS
[0.0000 0.0420 -0.0420 0.0000 0 0] CC
(c) show
GR
/Font41 FFSF
0.0727 0.6888 m
GS
[0.0000 0.0420 -0.0420 0.0000 0 0] CC
(\(t\)) show
GR
n
0.1500 0.1500 m
0.1500 0.8500 l
1.1500 0.8500 l
1.1500 0.1500 l
0.1500 0.1500 l
c
s
%%Trailer
%%BoundingBox: 25 43 718 529
%%DocumentNeededResources: font Symbol
%%+ font Times-Roman
%%EOF
