%!PS-Adobe-3.0 EPSF-3.0
%%BoundingBox: (atend)
%%LanguageLevel: 2
%%Creator: Grace-5.1.24
%%CreationDate: Mon Nov 28 23:22:28 2016
%%DocumentData: Clean8Bit
%%Orientation: Portrait
%%Title: /home/juanchoflo/Escritorio/UNAL2016-2/HerramientasComputacionales/ProyectoFinal/simulacion/ModeloIsing/Datos/Correlacion/Correlacion.agr
%%For: juanchoflo
%%DocumentNeededResources: (atend)
%%EndComments
%%BeginProlog
/m {moveto} def
/l {lineto} def
/s {stroke} def
/n {newpath} def
/c {closepath} def
/RL {rlineto} def
/SLW {setlinewidth} def
/GS {gsave} def
/GR {grestore} def
/SC {setcolor} def
/SGRY {setgray} def
/SRGB {setrgbcolor} def
/SD {setdash} def
/SLC {setlinecap} def
/SLJ {setlinejoin} def
/SCS {setcolorspace} def
/FFSF {findfont setfont} def
/CC {concat} def
/PXL {n m 0 0 RL s} def
/Color0 {1.0000 1.0000 1.0000} def
/Color1 {0.0000 0.0000 0.0000} def
/Color2 {1.0000 0.0000 0.0000} def
/Color3 {0.0000 1.0000 0.0000} def
/Color4 {0.0000 0.0000 1.0000} def
/Color5 {1.0000 1.0000 0.0000} def
/Color6 {0.7373 0.5608 0.5608} def
/Color7 {0.8627 0.8627 0.8627} def
/Color8 {0.5804 0.0000 0.8275} def
/Color9 {0.0000 1.0000 1.0000} def
/Color10 {1.0000 0.0000 1.0000} def
/Color11 {1.0000 0.6471 0.0000} def
/Color12 {0.4471 0.1294 0.7373} def
/Color13 {0.4039 0.0275 0.2824} def
/Color14 {0.2510 0.8784 0.8157} def
/Color15 {0.0000 0.5451 0.0000} def
/Color16 {0.7529 0.7529 0.7529} def
/Color17 {0.5059 0.5059 0.5059} def
/Color18 {0.2588 0.2588 0.2588} def
/PTRN {
 /pat_bits exch def 
 <<
  /PaintType 2
  /PatternType 1 /TilingType 1
  /BBox[0 0 16 16]
  /XStep 16 /YStep 16
  /PaintProc {
   pop
   16 16 true [-1 0 0 -1 16 16] pat_bits imagemask
  }
 >>
 [0.0016 0 0 0.0016 0 0]
 makepattern
} def
/Pattern0 {<0000000000000000000000000000000000000000000000000000000000000000> PTRN} bind def
/Pattern1 {<ffffffffffffffffffffffffffffffffffffffffffffffffffffffffffffffff> PTRN} bind def
/Pattern2 {<eeeeffffbbbbffffeeeeffffbbbbffffeeeeffffbbbbffffeeeeffffbbbbffff> PTRN} bind def
/Pattern3 {<eeeebbbbeeeebbbbeeeebbbbeeeebbbbeeeebbbbeeeebbbbeeeebbbbeeeebbbb> PTRN} bind def
/Pattern4 {<5555aaaa5555aaaa5555aaaa5555aaaa5555aaaa5555aaaa5555aaaa5555aaaa> PTRN} bind def
/Pattern5 {<1111444411114444111144441111444411114444111144441111444411114444> PTRN} bind def
/Pattern6 {<1111000044440000111100004444000011110000444400001111000044440000> PTRN} bind def
/Pattern7 {<1010000000000000010100000000000010100000000000000101000000000000> PTRN} bind def
/Pattern8 {<0000000000000000000000000000000000000000000000000000000000000000> PTRN} bind def
/Pattern9 {<1e1e0f0f8787c3c3e1e1f0f078783c3c1e1e0f0f8787c3c3e1e1f0f078783c3c> PTRN} bind def
/Pattern10 {<7878f0f0e1e1c3c387870f0f1e1e3c3c7878f0f0e1e1c3c387870f0f1e1e3c3c> PTRN} bind def
/Pattern11 {<3333333333333333333333333333333333333333333333333333333333333333> PTRN} bind def
/Pattern12 {<ffffffff00000000ffffffff00000000ffffffff00000000ffffffff00000000> PTRN} bind def
/Pattern13 {<8181424224241818181824244242818181814242242418181818242442428181> PTRN} bind def
/Pattern14 {<8080404020201010080804040202010180804040202010100808040402020101> PTRN} bind def
/Pattern15 {<0101020204040808101020204040808001010202040408081010202040408080> PTRN} bind def
/Pattern16 {<2222222222222222222222222222222222222222222222222222222222222222> PTRN} bind def
/Pattern17 {<0000ffff000000000000ffff000000000000ffff000000000000ffff00000000> PTRN} bind def
/Pattern18 {<2222ffff222222222222ffff222222222222ffff222222222222ffff22222222> PTRN} bind def
/Pattern19 {<ffffffff33333333ffffffff33333333ffffffff33333333ffffffff33333333> PTRN} bind def
/Pattern20 {<0f0f0f0f0f0f0f0ff0f0f0f0f0f0f0f00f0f0f0f0f0f0f0ff0f0f0f0f0f0f0f0> PTRN} bind def
/Pattern21 {<ff00ff00ff00ff00ff00ff00ff00ff0000ff00ff00ff00ff00ff00ff00ff00ff> PTRN} bind def
/Pattern22 {<8001800180018001800180018001ffffffff8001800180018001800180018001> PTRN} bind def
/Pattern23 {<c003c003c003c003c003c003ffffffffffffffffc003c003c003c003c003c003> PTRN} bind def
/Pattern24 {<040404040404ffff404040404040ffff040404040404ffff404040404040ffff> PTRN} bind def
/Pattern25 {<180018001800180018001800ffffffff001800180018001800180018ffffffff> PTRN} bind def
/Pattern26 {<1111b8b87c7c3a3a1111a3a3c7c78b8b1111b8b87c7c3a3a1111a3a3c7c78b8b> PTRN} bind def
/Pattern27 {<101010102828c7c70101010182827c7c101010102828c7c70101010182827c7c> PTRN} bind def
/Pattern28 {<1c1c121211112121c1c12121111112121c1c121211112121c1c1212111111212> PTRN} bind def
/Pattern29 {<3e3e414180808080e3e31414080808083e3e414180808080e3e3141408080808> PTRN} bind def
/Pattern30 {<4848888884848383848488884848383848488888848483838484888848483838> PTRN} bind def
/Pattern31 {<03030404080808080c0c12122121c0c003030404080808080c0c12122121c0c0> PTRN} bind def
/ellipsedict 8 dict def
ellipsedict /mtrx matrix put
/EARC {
 ellipsedict begin
  /endangle exch def
  /startangle exch def
  /yrad exch def
  /xrad exch def
  /y exch def
  /x exch def
  /savematrix mtrx currentmatrix def
  x y translate
  xrad yrad scale
  0 0 1 startangle endangle arc
  savematrix setmatrix
 end
} def
/TL {
  /kcomp exch def
  /linewidth exch def
  /offset exch def
  GS
  0 offset rmoveto
  linewidth SLW
  dup stringwidth exch kcomp add exch RL s
  GR
} def
/KINIT
{
 /kvector exch def
 /kid 0 def
} def
/KPROC
{
 pop pop
 kvector kid get
 0 rmoveto
 /kid 1 kid add def
} def
/DefEncoding [
 /.notdef
 /.notdef
 /.notdef
 /.notdef
 /.notdef
 /.notdef
 /.notdef
 /.notdef
 /.notdef
 /.notdef
 /.notdef
 /.notdef
 /.notdef
 /.notdef
 /.notdef
 /.notdef
 /.notdef
 /.notdef
 /.notdef
 /.notdef
 /.notdef
 /.notdef
 /.notdef
 /.notdef
 /.notdef
 /.notdef
 /.notdef
 /.notdef
 /.notdef
 /.notdef
 /.notdef
 /.notdef
 /space
 /exclam
 /quotedbl
 /numbersign
 /dollar
 /percent
 /ampersand
 /quoteright
 /parenleft
 /parenright
 /asterisk
 /plus
 /comma
 /hyphen
 /period
 /slash
 /zero
 /one
 /two
 /three
 /four
 /five
 /six
 /seven
 /eight
 /nine
 /colon
 /semicolon
 /less
 /equal
 /greater
 /question
 /at
 /A
 /B
 /C
 /D
 /E
 /F
 /G
 /H
 /I
 /J
 /K
 /L
 /M
 /N
 /O
 /P
 /Q
 /R
 /S
 /T
 /U
 /V
 /W
 /X
 /Y
 /Z
 /bracketleft
 /backslash
 /bracketright
 /asciicircum
 /underscore
 /grave
 /a
 /b
 /c
 /d
 /e
 /f
 /g
 /h
 /i
 /j
 /k
 /l
 /m
 /n
 /o
 /p
 /q
 /r
 /s
 /t
 /u
 /v
 /w
 /x
 /y
 /z
 /braceleft
 /bar
 /braceright
 /asciitilde
 /.notdef
 /.notdef
 /.notdef
 /.notdef
 /.notdef
 /.notdef
 /.notdef
 /.notdef
 /.notdef
 /.notdef
 /.notdef
 /.notdef
 /.notdef
 /.notdef
 /.notdef
 /.notdef
 /.notdef
 /.notdef
 /.notdef
 /.notdef
 /.notdef
 /.notdef
 /.notdef
 /.notdef
 /.notdef
 /.notdef
 /.notdef
 /.notdef
 /.notdef
 /.notdef
 /.notdef
 /.notdef
 /.notdef
 /space
 /exclamdown
 /cent
 /sterling
 /currency
 /yen
 /brokenbar
 /section
 /dieresis
 /copyright
 /ordfeminine
 /guillemotleft
 /logicalnot
 /hyphen
 /registered
 /macron
 /degree
 /plusminus
 /twosuperior
 /threesuperior
 /acute
 /mu
 /paragraph
 /periodcentered
 /cedilla
 /onesuperior
 /ordmasculine
 /guillemotright
 /onequarter
 /onehalf
 /threequarters
 /questiondown
 /Agrave
 /Aacute
 /Acircumflex
 /Atilde
 /Adieresis
 /Aring
 /AE
 /Ccedilla
 /Egrave
 /Eacute
 /Ecircumflex
 /Edieresis
 /Igrave
 /Iacute
 /Icircumflex
 /Idieresis
 /Eth
 /Ntilde
 /Ograve
 /Oacute
 /Ocircumflex
 /Otilde
 /Odieresis
 /multiply
 /Oslash
 /Ugrave
 /Uacute
 /Ucircumflex
 /Udieresis
 /Yacute
 /Thorn
 /germandbls
 /agrave
 /aacute
 /acircumflex
 /atilde
 /adieresis
 /aring
 /ae
 /ccedilla
 /egrave
 /eacute
 /ecircumflex
 /edieresis
 /igrave
 /iacute
 /icircumflex
 /idieresis
 /eth
 /ntilde
 /ograve
 /oacute
 /ocircumflex
 /otilde
 /odieresis
 /divide
 /oslash
 /ugrave
 /uacute
 /ucircumflex
 /udieresis
 /yacute
 /thorn
 /ydieresis
] def
%%EndProlog
%%BeginSetup
%%EndSetup
612.00 612.00 scale
n
0.0000 0.0000 m
0.0000 1.0000 l
1.2941 1.0000 l
1.2941 0.0000 l
c
[/DeviceRGB] SCS
Color0 SC
fill
[/DeviceRGB] SCS
Color1 SC
[] 0 SD
0.0030 SLW
0 SLC
0 SLJ
n
0.1909 0.1845 m
0.2114 0.1845 l
0.2318 0.1845 l
0.2523 0.1845 l
0.2727 0.1845 l
0.2932 0.1845 l
0.3136 0.1845 l
0.3341 0.1699 l
0.3546 0.1769 l
0.3750 0.1847 l
0.3955 0.1881 l
0.4159 0.1910 l
0.4364 0.1962 l
0.4568 0.2149 l
0.4773 0.2162 l
0.4978 0.2443 l
0.5182 0.2595 l
0.5387 0.2958 l
0.5591 0.3510 l
0.5796 0.4651 l
0.6000 0.6510 l
0.6205 0.7725 l
0.6409 0.6811 l
0.6614 0.6126 l
0.6819 0.5373 l
0.7023 0.4690 l
0.7228 0.4155 l
0.7432 0.3816 l
0.7637 0.3356 l
0.7841 0.2930 l
0.8046 0.2716 l
0.8250 0.2722 l
0.8455 0.2555 l
0.8660 0.2382 l
0.8864 0.2296 l
0.9069 0.2177 l
0.9273 0.2178 l
0.9478 0.2117 l
0.9682 0.2091 l
0.9887 0.2044 l
1.0091 0.2039 l
1.0296 0.1966 l
1.0501 0.1953 l
1.0705 0.1953 l
1.0910 0.1908 l
1.1114 0.1901 l
1.1319 0.1899 l
1.1523 0.1868 l
1.1728 0.1837 l
s
n
0.1909 0.1845 0.0050 0.0050 0 360 EARC c
fill
[] 0 SD
0.0015 SLW
n 0.1909 0.1845 0.0050 0.0050 0 360 EARC s
n
0.2114 0.1845 0.0050 0.0050 0 360 EARC c
fill
n 0.2114 0.1845 0.0050 0.0050 0 360 EARC s
n
0.2318 0.1845 0.0050 0.0050 0 360 EARC c
fill
n 0.2318 0.1845 0.0050 0.0050 0 360 EARC s
n
0.2523 0.1845 0.0050 0.0050 0 360 EARC c
fill
n 0.2523 0.1845 0.0050 0.0050 0 360 EARC s
n
0.2727 0.1845 0.0050 0.0050 0 360 EARC c
fill
n 0.2727 0.1845 0.0050 0.0050 0 360 EARC s
n
0.2932 0.1845 0.0050 0.0050 0 360 EARC c
fill
n 0.2932 0.1845 0.0050 0.0050 0 360 EARC s
n
0.3136 0.1845 0.0050 0.0050 0 360 EARC c
fill
n 0.3136 0.1845 0.0050 0.0050 0 360 EARC s
n
0.3341 0.1699 0.0050 0.0050 0 360 EARC c
fill
n 0.3341 0.1699 0.0050 0.0050 0 360 EARC s
n
0.3546 0.1769 0.0050 0.0050 0 360 EARC c
fill
n 0.3546 0.1769 0.0050 0.0050 0 360 EARC s
n
0.3750 0.1847 0.0050 0.0050 0 360 EARC c
fill
n 0.3750 0.1847 0.0050 0.0050 0 360 EARC s
n
0.3955 0.1881 0.0050 0.0050 0 360 EARC c
fill
n 0.3955 0.1881 0.0050 0.0050 0 360 EARC s
n
0.4159 0.1910 0.0050 0.0050 0 360 EARC c
fill
n 0.4159 0.1910 0.0050 0.0050 0 360 EARC s
n
0.4364 0.1962 0.0050 0.0050 0 360 EARC c
fill
n 0.4364 0.1962 0.0050 0.0050 0 360 EARC s
n
0.4568 0.2149 0.0050 0.0050 0 360 EARC c
fill
n 0.4568 0.2149 0.0050 0.0050 0 360 EARC s
n
0.4773 0.2162 0.0050 0.0050 0 360 EARC c
fill
n 0.4773 0.2162 0.0050 0.0050 0 360 EARC s
n
0.4978 0.2443 0.0050 0.0050 0 360 EARC c
fill
n 0.4978 0.2443 0.0050 0.0050 0 360 EARC s
n
0.5182 0.2595 0.0050 0.0050 0 360 EARC c
fill
n 0.5182 0.2595 0.0050 0.0050 0 360 EARC s
n
0.5387 0.2958 0.0050 0.0050 0 360 EARC c
fill
n 0.5387 0.2958 0.0050 0.0050 0 360 EARC s
n
0.5591 0.3510 0.0050 0.0050 0 360 EARC c
fill
n 0.5591 0.3510 0.0050 0.0050 0 360 EARC s
n
0.5796 0.4651 0.0050 0.0050 0 360 EARC c
fill
n 0.5796 0.4651 0.0050 0.0050 0 360 EARC s
n
0.6000 0.6510 0.0050 0.0050 0 360 EARC c
fill
n 0.6000 0.6510 0.0050 0.0050 0 360 EARC s
n
0.6205 0.7725 0.0050 0.0050 0 360 EARC c
fill
n 0.6205 0.7725 0.0050 0.0050 0 360 EARC s
n
0.6409 0.6811 0.0050 0.0050 0 360 EARC c
fill
n 0.6409 0.6811 0.0050 0.0050 0 360 EARC s
n
0.6614 0.6126 0.0050 0.0050 0 360 EARC c
fill
n 0.6614 0.6126 0.0050 0.0050 0 360 EARC s
n
0.6819 0.5373 0.0050 0.0050 0 360 EARC c
fill
n 0.6819 0.5373 0.0050 0.0050 0 360 EARC s
n
0.7023 0.4690 0.0050 0.0050 0 360 EARC c
fill
n 0.7023 0.4690 0.0050 0.0050 0 360 EARC s
n
0.7228 0.4155 0.0050 0.0050 0 360 EARC c
fill
n 0.7228 0.4155 0.0050 0.0050 0 360 EARC s
n
0.7432 0.3816 0.0050 0.0050 0 360 EARC c
fill
n 0.7432 0.3816 0.0050 0.0050 0 360 EARC s
n
0.7637 0.3356 0.0050 0.0050 0 360 EARC c
fill
n 0.7637 0.3356 0.0050 0.0050 0 360 EARC s
n
0.7841 0.2930 0.0050 0.0050 0 360 EARC c
fill
n 0.7841 0.2930 0.0050 0.0050 0 360 EARC s
n
0.8046 0.2716 0.0050 0.0050 0 360 EARC c
fill
n 0.8046 0.2716 0.0050 0.0050 0 360 EARC s
n
0.8250 0.2722 0.0050 0.0050 0 360 EARC c
fill
n 0.8250 0.2722 0.0050 0.0050 0 360 EARC s
n
0.8455 0.2555 0.0050 0.0050 0 360 EARC c
fill
n 0.8455 0.2555 0.0050 0.0050 0 360 EARC s
n
0.8660 0.2382 0.0050 0.0050 0 360 EARC c
fill
n 0.8660 0.2382 0.0050 0.0050 0 360 EARC s
n
0.8864 0.2296 0.0050 0.0050 0 360 EARC c
fill
n 0.8864 0.2296 0.0050 0.0050 0 360 EARC s
n
0.9069 0.2177 0.0050 0.0050 0 360 EARC c
fill
n 0.9069 0.2177 0.0050 0.0050 0 360 EARC s
n
0.9273 0.2178 0.0050 0.0050 0 360 EARC c
fill
n 0.9273 0.2178 0.0050 0.0050 0 360 EARC s
n
0.9478 0.2117 0.0050 0.0050 0 360 EARC c
fill
n 0.9478 0.2117 0.0050 0.0050 0 360 EARC s
n
0.9682 0.2091 0.0050 0.0050 0 360 EARC c
fill
n 0.9682 0.2091 0.0050 0.0050 0 360 EARC s
n
0.9887 0.2044 0.0050 0.0050 0 360 EARC c
fill
n 0.9887 0.2044 0.0050 0.0050 0 360 EARC s
n
1.0091 0.2039 0.0050 0.0050 0 360 EARC c
fill
n 1.0091 0.2039 0.0050 0.0050 0 360 EARC s
n
1.0296 0.1966 0.0050 0.0050 0 360 EARC c
fill
n 1.0296 0.1966 0.0050 0.0050 0 360 EARC s
n
1.0501 0.1953 0.0050 0.0050 0 360 EARC c
fill
n 1.0501 0.1953 0.0050 0.0050 0 360 EARC s
n
1.0705 0.1953 0.0050 0.0050 0 360 EARC c
fill
n 1.0705 0.1953 0.0050 0.0050 0 360 EARC s
n
1.0910 0.1908 0.0050 0.0050 0 360 EARC c
fill
n 1.0910 0.1908 0.0050 0.0050 0 360 EARC s
n
1.1114 0.1901 0.0050 0.0050 0 360 EARC c
fill
n 1.1114 0.1901 0.0050 0.0050 0 360 EARC s
n
1.1319 0.1899 0.0050 0.0050 0 360 EARC c
fill
n 1.1319 0.1899 0.0050 0.0050 0 360 EARC s
n
1.1523 0.1868 0.0050 0.0050 0 360 EARC c
fill
n 1.1523 0.1868 0.0050 0.0050 0 360 EARC s
n
1.1728 0.1837 0.0050 0.0050 0 360 EARC c
fill
n 1.1728 0.1837 0.0050 0.0050 0 360 EARC s
[/DeviceRGB] SCS
Color2 SC
[] 0 SD
0.0030 SLW
n
0.1909 0.1845 m
0.2114 0.1845 l
0.2318 0.1845 l
0.2523 0.1845 l
0.2727 0.1845 l
0.2932 0.1845 l
0.3136 0.1845 l
0.3341 0.1698 l
0.3546 0.1766 l
0.3750 0.1824 l
0.3955 0.1863 l
0.4159 0.1907 l
0.4364 0.1969 l
0.4568 0.2046 l
0.4773 0.2283 l
0.4978 0.2403 l
0.5182 0.2570 l
0.5387 0.2946 l
0.5591 0.3533 l
0.5796 0.6701 l
0.6000 0.7937 l
0.6205 0.7179 l
0.6409 0.7136 l
0.6614 0.5877 l
0.6819 0.5149 l
0.7023 0.4487 l
0.7228 0.4032 l
0.7432 0.3596 l
0.7637 0.3436 l
0.7841 0.3028 l
0.8046 0.2879 l
0.8250 0.2580 l
0.8455 0.2580 l
0.8660 0.2418 l
0.8864 0.2294 l
0.9069 0.2273 l
0.9273 0.2153 l
0.9478 0.2132 l
0.9682 0.2067 l
0.9887 0.1999 l
1.0091 0.2031 l
1.0296 0.1991 l
1.0501 0.1961 l
1.0705 0.1961 l
1.0910 0.1935 l
1.1114 0.1881 l
1.1319 0.1892 l
1.1523 0.1882 l
1.1728 0.1848 l
s
n
0.1867 0.1803 m
0.1867 0.1888 l
0.1952 0.1888 l
0.1952 0.1803 l
c
fill
[] 0 SD
0.0015 SLW
n
0.1867 0.1803 m
0.1867 0.1888 l
0.1952 0.1888 l
0.1952 0.1803 l
0.1867 0.1803 l
c
s
n
0.2071 0.1803 m
0.2071 0.1888 l
0.2156 0.1888 l
0.2156 0.1803 l
c
fill
n
0.2071 0.1803 m
0.2071 0.1888 l
0.2156 0.1888 l
0.2156 0.1803 l
0.2071 0.1803 l
c
s
n
0.2276 0.1803 m
0.2276 0.1888 l
0.2361 0.1888 l
0.2361 0.1803 l
c
fill
n
0.2276 0.1803 m
0.2276 0.1888 l
0.2361 0.1888 l
0.2361 0.1803 l
0.2276 0.1803 l
c
s
n
0.2480 0.1803 m
0.2480 0.1888 l
0.2565 0.1888 l
0.2565 0.1803 l
c
fill
n
0.2480 0.1803 m
0.2480 0.1888 l
0.2565 0.1888 l
0.2565 0.1803 l
0.2480 0.1803 l
c
s
n
0.2685 0.1803 m
0.2685 0.1888 l
0.2770 0.1888 l
0.2770 0.1803 l
c
fill
n
0.2685 0.1803 m
0.2685 0.1888 l
0.2770 0.1888 l
0.2770 0.1803 l
0.2685 0.1803 l
c
s
n
0.2889 0.1803 m
0.2889 0.1888 l
0.2974 0.1888 l
0.2974 0.1803 l
c
fill
n
0.2889 0.1803 m
0.2889 0.1888 l
0.2974 0.1888 l
0.2974 0.1803 l
0.2889 0.1803 l
c
s
n
0.3094 0.1803 m
0.3094 0.1888 l
0.3179 0.1888 l
0.3179 0.1803 l
c
fill
n
0.3094 0.1803 m
0.3094 0.1888 l
0.3179 0.1888 l
0.3179 0.1803 l
0.3094 0.1803 l
c
s
n
0.3299 0.1655 m
0.3299 0.1740 l
0.3384 0.1740 l
0.3384 0.1655 l
c
fill
n
0.3299 0.1655 m
0.3299 0.1740 l
0.3384 0.1740 l
0.3384 0.1655 l
0.3299 0.1655 l
c
s
n
0.3503 0.1724 m
0.3503 0.1809 l
0.3588 0.1809 l
0.3588 0.1724 l
c
fill
n
0.3503 0.1724 m
0.3503 0.1809 l
0.3588 0.1809 l
0.3588 0.1724 l
0.3503 0.1724 l
c
s
n
0.3708 0.1781 m
0.3708 0.1866 l
0.3793 0.1866 l
0.3793 0.1781 l
c
fill
n
0.3708 0.1781 m
0.3708 0.1866 l
0.3793 0.1866 l
0.3793 0.1781 l
0.3708 0.1781 l
c
s
n
0.3912 0.1821 m
0.3912 0.1906 l
0.3997 0.1906 l
0.3997 0.1821 l
c
fill
n
0.3912 0.1821 m
0.3912 0.1906 l
0.3997 0.1906 l
0.3997 0.1821 l
0.3912 0.1821 l
c
s
n
0.4117 0.1865 m
0.4117 0.1950 l
0.4202 0.1950 l
0.4202 0.1865 l
c
fill
n
0.4117 0.1865 m
0.4117 0.1950 l
0.4202 0.1950 l
0.4202 0.1865 l
0.4117 0.1865 l
c
s
n
0.4321 0.1926 m
0.4321 0.2011 l
0.4406 0.2011 l
0.4406 0.1926 l
c
fill
n
0.4321 0.1926 m
0.4321 0.2011 l
0.4406 0.2011 l
0.4406 0.1926 l
0.4321 0.1926 l
c
s
n
0.4526 0.2004 m
0.4526 0.2089 l
0.4611 0.2089 l
0.4611 0.2004 l
c
fill
n
0.4526 0.2004 m
0.4526 0.2089 l
0.4611 0.2089 l
0.4611 0.2004 l
0.4526 0.2004 l
c
s
n
0.4730 0.2240 m
0.4730 0.2325 l
0.4815 0.2325 l
0.4815 0.2240 l
c
fill
n
0.4730 0.2240 m
0.4730 0.2325 l
0.4815 0.2325 l
0.4815 0.2240 l
0.4730 0.2240 l
c
s
n
0.4935 0.2361 m
0.4935 0.2446 l
0.5020 0.2446 l
0.5020 0.2361 l
c
fill
n
0.4935 0.2361 m
0.4935 0.2446 l
0.5020 0.2446 l
0.5020 0.2361 l
0.4935 0.2361 l
c
s
n
0.5140 0.2528 m
0.5140 0.2613 l
0.5225 0.2613 l
0.5225 0.2528 l
c
fill
n
0.5140 0.2528 m
0.5140 0.2613 l
0.5225 0.2613 l
0.5225 0.2528 l
0.5140 0.2528 l
c
s
n
0.5344 0.2904 m
0.5344 0.2989 l
0.5429 0.2989 l
0.5429 0.2904 l
c
fill
n
0.5344 0.2904 m
0.5344 0.2989 l
0.5429 0.2989 l
0.5429 0.2904 l
0.5344 0.2904 l
c
s
n
0.5549 0.3491 m
0.5549 0.3576 l
0.5634 0.3576 l
0.5634 0.3491 l
c
fill
n
0.5549 0.3491 m
0.5549 0.3576 l
0.5634 0.3576 l
0.5634 0.3491 l
0.5549 0.3491 l
c
s
n
0.5753 0.6658 m
0.5753 0.6743 l
0.5838 0.6743 l
0.5838 0.6658 l
c
fill
n
0.5753 0.6658 m
0.5753 0.6743 l
0.5838 0.6743 l
0.5838 0.6658 l
0.5753 0.6658 l
c
s
n
0.5958 0.7894 m
0.5958 0.7979 l
0.6043 0.7979 l
0.6043 0.7894 l
c
fill
n
0.5958 0.7894 m
0.5958 0.7979 l
0.6043 0.7979 l
0.6043 0.7894 l
0.5958 0.7894 l
c
s
n
0.6162 0.7137 m
0.6162 0.7222 l
0.6247 0.7222 l
0.6247 0.7137 l
c
fill
n
0.6162 0.7137 m
0.6162 0.7222 l
0.6247 0.7222 l
0.6247 0.7137 l
0.6162 0.7137 l
c
s
n
0.6367 0.7093 m
0.6367 0.7178 l
0.6452 0.7178 l
0.6452 0.7093 l
c
fill
n
0.6367 0.7093 m
0.6367 0.7178 l
0.6452 0.7178 l
0.6452 0.7093 l
0.6367 0.7093 l
c
s
n
0.6571 0.5834 m
0.6571 0.5919 l
0.6656 0.5919 l
0.6656 0.5834 l
c
fill
n
0.6571 0.5834 m
0.6571 0.5919 l
0.6656 0.5919 l
0.6656 0.5834 l
0.6571 0.5834 l
c
s
n
0.6776 0.5107 m
0.6776 0.5192 l
0.6861 0.5192 l
0.6861 0.5107 l
c
fill
n
0.6776 0.5107 m
0.6776 0.5192 l
0.6861 0.5192 l
0.6861 0.5107 l
0.6776 0.5107 l
c
s
n
0.6981 0.4445 m
0.6981 0.4530 l
0.7066 0.4530 l
0.7066 0.4445 l
c
fill
n
0.6981 0.4445 m
0.6981 0.4530 l
0.7066 0.4530 l
0.7066 0.4445 l
0.6981 0.4445 l
c
s
n
0.7185 0.3990 m
0.7185 0.4075 l
0.7270 0.4075 l
0.7270 0.3990 l
c
fill
n
0.7185 0.3990 m
0.7185 0.4075 l
0.7270 0.4075 l
0.7270 0.3990 l
0.7185 0.3990 l
c
s
n
0.7390 0.3554 m
0.7390 0.3639 l
0.7475 0.3639 l
0.7475 0.3554 l
c
fill
n
0.7390 0.3554 m
0.7390 0.3639 l
0.7475 0.3639 l
0.7475 0.3554 l
0.7390 0.3554 l
c
s
n
0.7594 0.3394 m
0.7594 0.3479 l
0.7679 0.3479 l
0.7679 0.3394 l
c
fill
n
0.7594 0.3394 m
0.7594 0.3479 l
0.7679 0.3479 l
0.7679 0.3394 l
0.7594 0.3394 l
c
s
n
0.7799 0.2985 m
0.7799 0.3070 l
0.7884 0.3070 l
0.7884 0.2985 l
c
fill
n
0.7799 0.2985 m
0.7799 0.3070 l
0.7884 0.3070 l
0.7884 0.2985 l
0.7799 0.2985 l
c
s
n
0.8003 0.2837 m
0.8003 0.2922 l
0.8088 0.2922 l
0.8088 0.2837 l
c
fill
n
0.8003 0.2837 m
0.8003 0.2922 l
0.8088 0.2922 l
0.8088 0.2837 l
0.8003 0.2837 l
c
s
n
0.8208 0.2537 m
0.8208 0.2622 l
0.8293 0.2622 l
0.8293 0.2537 l
c
fill
n
0.8208 0.2537 m
0.8208 0.2622 l
0.8293 0.2622 l
0.8293 0.2537 l
0.8208 0.2537 l
c
s
n
0.8413 0.2537 m
0.8413 0.2622 l
0.8498 0.2622 l
0.8498 0.2537 l
c
fill
n
0.8413 0.2537 m
0.8413 0.2622 l
0.8498 0.2622 l
0.8498 0.2537 l
0.8413 0.2537 l
c
s
n
0.8617 0.2375 m
0.8617 0.2460 l
0.8702 0.2460 l
0.8702 0.2375 l
c
fill
n
0.8617 0.2375 m
0.8617 0.2460 l
0.8702 0.2460 l
0.8702 0.2375 l
0.8617 0.2375 l
c
s
n
0.8822 0.2251 m
0.8822 0.2336 l
0.8907 0.2336 l
0.8907 0.2251 l
c
fill
n
0.8822 0.2251 m
0.8822 0.2336 l
0.8907 0.2336 l
0.8907 0.2251 l
0.8822 0.2251 l
c
s
n
0.9026 0.2231 m
0.9026 0.2316 l
0.9111 0.2316 l
0.9111 0.2231 l
c
fill
n
0.9026 0.2231 m
0.9026 0.2316 l
0.9111 0.2316 l
0.9111 0.2231 l
0.9026 0.2231 l
c
s
n
0.9231 0.2110 m
0.9231 0.2195 l
0.9316 0.2195 l
0.9316 0.2110 l
c
fill
n
0.9231 0.2110 m
0.9231 0.2195 l
0.9316 0.2195 l
0.9316 0.2110 l
0.9231 0.2110 l
c
s
n
0.9435 0.2089 m
0.9435 0.2174 l
0.9520 0.2174 l
0.9520 0.2089 l
c
fill
n
0.9435 0.2089 m
0.9435 0.2174 l
0.9520 0.2174 l
0.9520 0.2089 l
0.9435 0.2089 l
c
s
n
0.9640 0.2024 m
0.9640 0.2109 l
0.9725 0.2109 l
0.9725 0.2024 l
c
fill
n
0.9640 0.2024 m
0.9640 0.2109 l
0.9725 0.2109 l
0.9725 0.2024 l
0.9640 0.2024 l
c
s
n
0.9844 0.1956 m
0.9844 0.2041 l
0.9929 0.2041 l
0.9929 0.1956 l
c
fill
n
0.9844 0.1956 m
0.9844 0.2041 l
0.9929 0.2041 l
0.9929 0.1956 l
0.9844 0.1956 l
c
s
n
1.0049 0.1988 m
1.0049 0.2073 l
1.0134 0.2073 l
1.0134 0.1988 l
c
fill
n
1.0049 0.1988 m
1.0049 0.2073 l
1.0134 0.2073 l
1.0134 0.1988 l
1.0049 0.1988 l
c
s
n
1.0254 0.1948 m
1.0254 0.2033 l
1.0339 0.2033 l
1.0339 0.1948 l
c
fill
n
1.0254 0.1948 m
1.0254 0.2033 l
1.0339 0.2033 l
1.0339 0.1948 l
1.0254 0.1948 l
c
s
n
1.0458 0.1919 m
1.0458 0.2004 l
1.0543 0.2004 l
1.0543 0.1919 l
c
fill
n
1.0458 0.1919 m
1.0458 0.2004 l
1.0543 0.2004 l
1.0543 0.1919 l
1.0458 0.1919 l
c
s
n
1.0663 0.1919 m
1.0663 0.2004 l
1.0748 0.2004 l
1.0748 0.1919 l
c
fill
n
1.0663 0.1919 m
1.0663 0.2004 l
1.0748 0.2004 l
1.0748 0.1919 l
1.0663 0.1919 l
c
s
n
1.0867 0.1893 m
1.0867 0.1978 l
1.0952 0.1978 l
1.0952 0.1893 l
c
fill
n
1.0867 0.1893 m
1.0867 0.1978 l
1.0952 0.1978 l
1.0952 0.1893 l
1.0867 0.1893 l
c
s
n
1.1072 0.1839 m
1.1072 0.1924 l
1.1157 0.1924 l
1.1157 0.1839 l
c
fill
n
1.1072 0.1839 m
1.1072 0.1924 l
1.1157 0.1924 l
1.1157 0.1839 l
1.1072 0.1839 l
c
s
n
1.1276 0.1850 m
1.1276 0.1935 l
1.1361 0.1935 l
1.1361 0.1850 l
c
fill
n
1.1276 0.1850 m
1.1276 0.1935 l
1.1361 0.1935 l
1.1361 0.1850 l
1.1276 0.1850 l
c
s
n
1.1481 0.1839 m
1.1481 0.1924 l
1.1566 0.1924 l
1.1566 0.1839 l
c
fill
n
1.1481 0.1839 m
1.1481 0.1924 l
1.1566 0.1924 l
1.1566 0.1839 l
1.1481 0.1839 l
c
s
n
1.1685 0.1805 m
1.1685 0.1890 l
1.1770 0.1890 l
1.1770 0.1805 l
c
fill
n
1.1685 0.1805 m
1.1685 0.1890 l
1.1770 0.1890 l
1.1770 0.1805 l
1.1685 0.1805 l
c
s
[/DeviceRGB] SCS
Color1 SC
n
0.1500 0.1495 m
1.1728 0.1495 l
s
n
0.1841 0.1495 m
0.1841 0.1595 l
s
n
0.2182 0.1495 m
0.2182 0.1595 l
s
n
0.2523 0.1495 m
0.2523 0.1595 l
s
n
0.2864 0.1495 m
0.2864 0.1595 l
s
n
0.3205 0.1495 m
0.3205 0.1595 l
s
n
0.3887 0.1495 m
0.3887 0.1595 l
s
n
0.4227 0.1495 m
0.4227 0.1595 l
s
n
0.4568 0.1495 m
0.4568 0.1595 l
s
n
0.4909 0.1495 m
0.4909 0.1595 l
s
n
0.5250 0.1495 m
0.5250 0.1595 l
s
n
0.5932 0.1495 m
0.5932 0.1595 l
s
n
0.6273 0.1495 m
0.6273 0.1595 l
s
n
0.6614 0.1495 m
0.6614 0.1595 l
s
n
0.6955 0.1495 m
0.6955 0.1595 l
s
n
0.7296 0.1495 m
0.7296 0.1595 l
s
n
0.7978 0.1495 m
0.7978 0.1595 l
s
n
0.8319 0.1495 m
0.8319 0.1595 l
s
n
0.8660 0.1495 m
0.8660 0.1595 l
s
n
0.9000 0.1495 m
0.9000 0.1595 l
s
n
0.9341 0.1495 m
0.9341 0.1595 l
s
n
1.0023 0.1495 m
1.0023 0.1595 l
s
n
1.0364 0.1495 m
1.0364 0.1595 l
s
n
1.0705 0.1495 m
1.0705 0.1595 l
s
n
1.1046 0.1495 m
1.1046 0.1595 l
s
n
1.1387 0.1495 m
1.1387 0.1595 l
s
n
0.1500 0.1495 m
0.1500 0.1695 l
s
n
0.3546 0.1495 m
0.3546 0.1695 l
s
n
0.5591 0.1495 m
0.5591 0.1695 l
s
n
0.7637 0.1495 m
0.7637 0.1695 l
s
n
0.9682 0.1495 m
0.9682 0.1695 l
s
n
1.1728 0.1495 m
1.1728 0.1695 l
s
/Times-Roman findfont
dup length dict begin
 {1 index /FID ne {def} {pop pop} ifelse} forall
 /Encoding DefEncoding def
 currentdict
end
/Font41 exch definefont pop
/Font41 FFSF
0.1433 0.1207 m
GS
[0.0280 0.0000 0.0000 0.0280 0 0] CC
(0) show
GR
/Font41 FFSF
0.3491 0.1207 m
GS
[0.0280 0.0000 0.0000 0.0280 0 0] CC
(1) show
GR
/Font41 FFSF
0.5525 0.1207 m
GS
[0.0280 0.0000 0.0000 0.0280 0 0] CC
(2) show
GR
/Font41 FFSF
0.7576 0.1207 m
GS
[0.0280 0.0000 0.0000 0.0280 0 0] CC
(3) show
GR
/Font41 FFSF
0.9616 0.1207 m
GS
[0.0280 0.0000 0.0000 0.0280 0 0] CC
(4) show
GR
/Font41 FFSF
1.1667 0.1203 m
GS
[0.0280 0.0000 0.0000 0.0280 0 0] CC
(5) show
GR
/Font41 FFSF
0.5932 0.0817 m
GS
[0.0420 0.0000 0.0000 0.0420 0 0] CC
(KBT \(J\)) show
GR
n
0.1500 0.1495 m
0.1500 0.8500 l
s
n
0.1500 0.1933 m
0.1600 0.1933 l
s
n
0.1500 0.2371 m
0.1600 0.2371 l
s
n
0.1500 0.2809 m
0.1600 0.2809 l
s
n
0.1500 0.3684 m
0.1600 0.3684 l
s
n
0.1500 0.4122 m
0.1600 0.4122 l
s
n
0.1500 0.4560 m
0.1600 0.4560 l
s
n
0.1500 0.5435 m
0.1600 0.5435 l
s
n
0.1500 0.5873 m
0.1600 0.5873 l
s
n
0.1500 0.6311 m
0.1600 0.6311 l
s
n
0.1500 0.7187 m
0.1600 0.7187 l
s
n
0.1500 0.7624 m
0.1600 0.7624 l
s
n
0.1500 0.8062 m
0.1600 0.8062 l
s
n
0.1500 0.1495 m
0.1700 0.1495 l
s
n
0.1500 0.3246 m
0.1700 0.3246 l
s
n
0.1500 0.4998 m
0.1700 0.4998 l
s
n
0.1500 0.6749 m
0.1700 0.6749 l
s
n
0.1500 0.8500 m
0.1700 0.8500 l
s
/Font41 FFSF
0.1267 0.1403 m
GS
[0.0280 0.0000 0.0000 0.0280 0 0] CC
(0) show
GR
/Font41 FFSF
0.1278 0.3152 m
GS
[0.0280 0.0000 0.0000 0.0280 0 0] CC
(5) show
GR
/Font41 FFSF
0.1125 0.4905 m
GS
[0.0280 0.0000 0.0000 0.0280 0 0] CC
(10) show
GR
/Font41 FFSF
0.1137 0.6655 m
GS
[0.0280 0.0000 0.0000 0.0280 0 0] CC
(15) show
GR
/Font41 FFSF
0.1125 0.8408 m
GS
[0.0280 0.0000 0.0000 0.0280 0 0] CC
(20) show
GR
/Font41 FFSF
0.0935 0.2552 m
GS
[0.0000 0.0420 -0.0420 0.0000 0 0] CC
(Pasos de Metropolis por sitio) show
GR
n
0.1500 0.1495 m
0.1500 0.8500 l
1.1728 0.8500 l
1.1728 0.1495 l
0.1500 0.1495 l
c
s
n
0.6300 0.8500 m
0.6300 0.7490 l
1.1551 0.7490 l
1.1551 0.8500 l
c
[/DeviceRGB] SCS
Color0 SC
fill
[/DeviceRGB] SCS
Color1 SC
n
0.6300 0.8500 m
0.6300 0.7490 l
1.1551 0.7490 l
1.1551 0.8500 l
0.6300 0.8500 l
c
s
/Font41 FFSF
0.7008 0.8176 m
GS
[0.0319 0.0000 0.0000 0.0319 0 0] CC
(Tiempo de correlación \(T) show
GR
/Font41 FFSF
1.0278 0.8049 m
GS
[0.0226 0.0000 0.0000 0.0226 0 0] CC
(incial) show
GR
/Font41 FFSF
1.0780 0.8176 m
GS
[0.0319 0.0000 0.0000 0.0319 0 0] CC
( = 0 \)) show
GR
[] 0 SD
0.0030 SLW
n
0.6458 0.8222 m
0.6858 0.8222 l
s
n
0.6458 0.8222 0.0050 0.0050 0 360 EARC c
fill
[] 0 SD
0.0015 SLW
n 0.6458 0.8222 0.0050 0.0050 0 360 EARC s
n
0.6858 0.8222 0.0050 0.0050 0 360 EARC c
fill
n 0.6858 0.8222 0.0050 0.0050 0 360 EARC s
/Font41 FFSF
0.7008 0.7721 m
GS
[0.0319 0.0000 0.0000 0.0319 0 0] CC
(Tiempo de correlación \(T) show
GR
/Font41 FFSF
1.0278 0.7594 m
GS
[0.0226 0.0000 0.0000 0.0226 0 0] CC
(incial) show
GR
/Font41 FFSF
1.0780 0.7721 m
GS
[0.0319 0.0000 0.0000 0.0319 0 0] CC
( = ) show
GR
/Symbol findfont
/Font37 exch definefont pop
/Font37 FFSF
1.1121 0.7721 m
GS
[0.0319 0.0000 0.0000 0.0319 0 0] CC
(¥\)) show
GR
[/DeviceRGB] SCS
Color2 SC
[] 0 SD
0.0030 SLW
n
0.6458 0.7767 m
0.6858 0.7767 l
s
n
0.6415 0.7725 m
0.6415 0.7810 l
0.6500 0.7810 l
0.6500 0.7725 l
c
fill
[] 0 SD
0.0015 SLW
n
0.6415 0.7725 m
0.6415 0.7810 l
0.6500 0.7810 l
0.6500 0.7725 l
0.6415 0.7725 l
c
s
n
0.6815 0.7725 m
0.6815 0.7810 l
0.6900 0.7810 l
0.6900 0.7725 l
c
fill
n
0.6815 0.7725 m
0.6815 0.7810 l
0.6900 0.7810 l
0.6900 0.7725 l
0.6815 0.7725 l
c
s
/Font41 FFSF
[/DeviceRGB] SCS
Color1 SC
0.1118 0.9225 m
GS
[0.0560 0.0000 0.0000 0.0560 0 0] CC
(Tiempo caracteistico de la correlacion magnetica) show
GR
/Font41 FFSF
0.2730 0.8763 m
GS
[0.0280 0.0000 0.0000 0.0280 0 0] CC
(Ajuste exponencial de los primeros datos de la correlación magnética) show
GR
%%Trailer
%%BoundingBox: 38 44 743 590
%%DocumentNeededResources: font Symbol
%%+ font Times-Roman
%%EOF
