%!PS-Adobe-3.0 EPSF-3.0
%%BoundingBox: (atend)
%%LanguageLevel: 2
%%Creator: Grace-5.1.24
%%CreationDate: Tue Nov 29 05:59:37 2016
%%DocumentData: Clean8Bit
%%Orientation: Portrait
%%Title: /home/juanchoflo/Escritorio/UNAL2016-2/HerramientasComputacionales/ProyectoFinal/simulacion/ModeloIsing/Datos/VariablesTermodinamicas/Cv0.agr
%%For: juanchoflo
%%DocumentNeededResources: (atend)
%%EndComments
%%BeginProlog
/m {moveto} def
/l {lineto} def
/s {stroke} def
/n {newpath} def
/c {closepath} def
/RL {rlineto} def
/SLW {setlinewidth} def
/GS {gsave} def
/GR {grestore} def
/SC {setcolor} def
/SGRY {setgray} def
/SRGB {setrgbcolor} def
/SD {setdash} def
/SLC {setlinecap} def
/SLJ {setlinejoin} def
/SCS {setcolorspace} def
/FFSF {findfont setfont} def
/CC {concat} def
/PXL {n m 0 0 RL s} def
/Color0 {1.0000 1.0000 1.0000} def
/Color1 {0.0000 0.0000 0.0000} def
/Color2 {1.0000 0.0000 0.0000} def
/Color3 {0.0000 1.0000 0.0000} def
/Color4 {0.0000 0.0000 1.0000} def
/Color5 {1.0000 1.0000 0.0000} def
/Color6 {0.7373 0.5608 0.5608} def
/Color7 {0.8627 0.8627 0.8627} def
/Color8 {0.5804 0.0000 0.8275} def
/Color9 {0.0000 1.0000 1.0000} def
/Color10 {1.0000 0.0000 1.0000} def
/Color11 {1.0000 0.6471 0.0000} def
/Color12 {0.4471 0.1294 0.7373} def
/Color13 {0.4039 0.0275 0.2824} def
/Color14 {0.2510 0.8784 0.8157} def
/Color15 {0.0000 0.5451 0.0000} def
/Color16 {0.7529 0.7529 0.7529} def
/Color17 {0.5059 0.5059 0.5059} def
/Color18 {0.2588 0.2588 0.2588} def
/PTRN {
 /pat_bits exch def 
 <<
  /PaintType 2
  /PatternType 1 /TilingType 1
  /BBox[0 0 16 16]
  /XStep 16 /YStep 16
  /PaintProc {
   pop
   16 16 true [-1 0 0 -1 16 16] pat_bits imagemask
  }
 >>
 [0.0016 0 0 0.0016 0 0]
 makepattern
} def
/Pattern0 {<0000000000000000000000000000000000000000000000000000000000000000> PTRN} bind def
/Pattern1 {<ffffffffffffffffffffffffffffffffffffffffffffffffffffffffffffffff> PTRN} bind def
/Pattern2 {<eeeeffffbbbbffffeeeeffffbbbbffffeeeeffffbbbbffffeeeeffffbbbbffff> PTRN} bind def
/Pattern3 {<eeeebbbbeeeebbbbeeeebbbbeeeebbbbeeeebbbbeeeebbbbeeeebbbbeeeebbbb> PTRN} bind def
/Pattern4 {<5555aaaa5555aaaa5555aaaa5555aaaa5555aaaa5555aaaa5555aaaa5555aaaa> PTRN} bind def
/Pattern5 {<1111444411114444111144441111444411114444111144441111444411114444> PTRN} bind def
/Pattern6 {<1111000044440000111100004444000011110000444400001111000044440000> PTRN} bind def
/Pattern7 {<1010000000000000010100000000000010100000000000000101000000000000> PTRN} bind def
/Pattern8 {<0000000000000000000000000000000000000000000000000000000000000000> PTRN} bind def
/Pattern9 {<1e1e0f0f8787c3c3e1e1f0f078783c3c1e1e0f0f8787c3c3e1e1f0f078783c3c> PTRN} bind def
/Pattern10 {<7878f0f0e1e1c3c387870f0f1e1e3c3c7878f0f0e1e1c3c387870f0f1e1e3c3c> PTRN} bind def
/Pattern11 {<3333333333333333333333333333333333333333333333333333333333333333> PTRN} bind def
/Pattern12 {<ffffffff00000000ffffffff00000000ffffffff00000000ffffffff00000000> PTRN} bind def
/Pattern13 {<8181424224241818181824244242818181814242242418181818242442428181> PTRN} bind def
/Pattern14 {<8080404020201010080804040202010180804040202010100808040402020101> PTRN} bind def
/Pattern15 {<0101020204040808101020204040808001010202040408081010202040408080> PTRN} bind def
/Pattern16 {<2222222222222222222222222222222222222222222222222222222222222222> PTRN} bind def
/Pattern17 {<0000ffff000000000000ffff000000000000ffff000000000000ffff00000000> PTRN} bind def
/Pattern18 {<2222ffff222222222222ffff222222222222ffff222222222222ffff22222222> PTRN} bind def
/Pattern19 {<ffffffff33333333ffffffff33333333ffffffff33333333ffffffff33333333> PTRN} bind def
/Pattern20 {<0f0f0f0f0f0f0f0ff0f0f0f0f0f0f0f00f0f0f0f0f0f0f0ff0f0f0f0f0f0f0f0> PTRN} bind def
/Pattern21 {<ff00ff00ff00ff00ff00ff00ff00ff0000ff00ff00ff00ff00ff00ff00ff00ff> PTRN} bind def
/Pattern22 {<8001800180018001800180018001ffffffff8001800180018001800180018001> PTRN} bind def
/Pattern23 {<c003c003c003c003c003c003ffffffffffffffffc003c003c003c003c003c003> PTRN} bind def
/Pattern24 {<040404040404ffff404040404040ffff040404040404ffff404040404040ffff> PTRN} bind def
/Pattern25 {<180018001800180018001800ffffffff001800180018001800180018ffffffff> PTRN} bind def
/Pattern26 {<1111b8b87c7c3a3a1111a3a3c7c78b8b1111b8b87c7c3a3a1111a3a3c7c78b8b> PTRN} bind def
/Pattern27 {<101010102828c7c70101010182827c7c101010102828c7c70101010182827c7c> PTRN} bind def
/Pattern28 {<1c1c121211112121c1c12121111112121c1c121211112121c1c1212111111212> PTRN} bind def
/Pattern29 {<3e3e414180808080e3e31414080808083e3e414180808080e3e3141408080808> PTRN} bind def
/Pattern30 {<4848888884848383848488884848383848488888848483838484888848483838> PTRN} bind def
/Pattern31 {<03030404080808080c0c12122121c0c003030404080808080c0c12122121c0c0> PTRN} bind def
/ellipsedict 8 dict def
ellipsedict /mtrx matrix put
/EARC {
 ellipsedict begin
  /endangle exch def
  /startangle exch def
  /yrad exch def
  /xrad exch def
  /y exch def
  /x exch def
  /savematrix mtrx currentmatrix def
  x y translate
  xrad yrad scale
  0 0 1 startangle endangle arc
  savematrix setmatrix
 end
} def
/TL {
  /kcomp exch def
  /linewidth exch def
  /offset exch def
  GS
  0 offset rmoveto
  linewidth SLW
  dup stringwidth exch kcomp add exch RL s
  GR
} def
/KINIT
{
 /kvector exch def
 /kid 0 def
} def
/KPROC
{
 pop pop
 kvector kid get
 0 rmoveto
 /kid 1 kid add def
} def
/DefEncoding [
 /.notdef
 /.notdef
 /.notdef
 /.notdef
 /.notdef
 /.notdef
 /.notdef
 /.notdef
 /.notdef
 /.notdef
 /.notdef
 /.notdef
 /.notdef
 /.notdef
 /.notdef
 /.notdef
 /.notdef
 /.notdef
 /.notdef
 /.notdef
 /.notdef
 /.notdef
 /.notdef
 /.notdef
 /.notdef
 /.notdef
 /.notdef
 /.notdef
 /.notdef
 /.notdef
 /.notdef
 /.notdef
 /space
 /exclam
 /quotedbl
 /numbersign
 /dollar
 /percent
 /ampersand
 /quoteright
 /parenleft
 /parenright
 /asterisk
 /plus
 /comma
 /hyphen
 /period
 /slash
 /zero
 /one
 /two
 /three
 /four
 /five
 /six
 /seven
 /eight
 /nine
 /colon
 /semicolon
 /less
 /equal
 /greater
 /question
 /at
 /A
 /B
 /C
 /D
 /E
 /F
 /G
 /H
 /I
 /J
 /K
 /L
 /M
 /N
 /O
 /P
 /Q
 /R
 /S
 /T
 /U
 /V
 /W
 /X
 /Y
 /Z
 /bracketleft
 /backslash
 /bracketright
 /asciicircum
 /underscore
 /grave
 /a
 /b
 /c
 /d
 /e
 /f
 /g
 /h
 /i
 /j
 /k
 /l
 /m
 /n
 /o
 /p
 /q
 /r
 /s
 /t
 /u
 /v
 /w
 /x
 /y
 /z
 /braceleft
 /bar
 /braceright
 /asciitilde
 /.notdef
 /.notdef
 /.notdef
 /.notdef
 /.notdef
 /.notdef
 /.notdef
 /.notdef
 /.notdef
 /.notdef
 /.notdef
 /.notdef
 /.notdef
 /.notdef
 /.notdef
 /.notdef
 /.notdef
 /.notdef
 /.notdef
 /.notdef
 /.notdef
 /.notdef
 /.notdef
 /.notdef
 /.notdef
 /.notdef
 /.notdef
 /.notdef
 /.notdef
 /.notdef
 /.notdef
 /.notdef
 /.notdef
 /space
 /exclamdown
 /cent
 /sterling
 /currency
 /yen
 /brokenbar
 /section
 /dieresis
 /copyright
 /ordfeminine
 /guillemotleft
 /logicalnot
 /hyphen
 /registered
 /macron
 /degree
 /plusminus
 /twosuperior
 /threesuperior
 /acute
 /mu
 /paragraph
 /periodcentered
 /cedilla
 /onesuperior
 /ordmasculine
 /guillemotright
 /onequarter
 /onehalf
 /threequarters
 /questiondown
 /Agrave
 /Aacute
 /Acircumflex
 /Atilde
 /Adieresis
 /Aring
 /AE
 /Ccedilla
 /Egrave
 /Eacute
 /Ecircumflex
 /Edieresis
 /Igrave
 /Iacute
 /Icircumflex
 /Idieresis
 /Eth
 /Ntilde
 /Ograve
 /Oacute
 /Ocircumflex
 /Otilde
 /Odieresis
 /multiply
 /Oslash
 /Ugrave
 /Uacute
 /Ucircumflex
 /Udieresis
 /Yacute
 /Thorn
 /germandbls
 /agrave
 /aacute
 /acircumflex
 /atilde
 /adieresis
 /aring
 /ae
 /ccedilla
 /egrave
 /eacute
 /ecircumflex
 /edieresis
 /igrave
 /iacute
 /icircumflex
 /idieresis
 /eth
 /ntilde
 /ograve
 /oacute
 /ocircumflex
 /otilde
 /odieresis
 /divide
 /oslash
 /ugrave
 /uacute
 /ucircumflex
 /udieresis
 /yacute
 /thorn
 /ydieresis
] def
%%EndProlog
%%BeginSetup
%%EndSetup
612.00 612.00 scale
n
0.0000 0.0000 m
0.0000 1.0000 l
1.2941 1.0000 l
1.2941 0.0000 l
c
[/DeviceRGB] SCS
Color0 SC
fill
[/DeviceRGB] SCS
Color15 SC
[] 0 SD
0.0015 SLW
0 SLC
0 SLJ
n
0.1900 0.1938 m
0.2100 0.1938 l
0.2300 0.1938 l
0.2500 0.1938 l
0.2700 0.1938 l
0.2900 0.1949 l
0.3100 0.1964 l
0.3300 0.1985 l
0.3500 0.2029 l
0.3700 0.2093 l
0.3900 0.2278 l
0.4100 0.2348 l
0.4300 0.2517 l
0.4500 0.2787 l
0.4700 0.3028 l
0.4900 0.3502 l
0.5100 0.3942 l
0.5300 0.4597 l
0.5500 0.5193 l
0.5700 0.5628 l
0.5900 0.6677 l
0.6100 0.7556 l
0.6300 0.7893 l
0.6500 0.6858 l
0.6700 0.5813 l
0.6900 0.5184 l
0.7100 0.4540 l
0.7300 0.4382 l
0.7500 0.3935 l
0.7700 0.3671 l
0.7900 0.3392 l
0.8100 0.3240 l
0.8300 0.3041 l
0.8500 0.3035 l
0.8700 0.2997 l
0.8900 0.2849 l
0.9100 0.2824 l
0.9300 0.2743 l
0.9500 0.2695 l
0.9700 0.2647 l
0.9900 0.2636 l
1.0100 0.2548 l
1.0300 0.2518 l
1.0500 0.2518 l
1.0700 0.2476 l
1.0900 0.2428 l
1.1100 0.2400 l
1.1300 0.2415 l
1.1500 0.2372 l
s
n
0.2900 0.1949 m
0.2900 0.1957 l
s
[] 0 SD
0.0023 SLW
n
0.2800 0.1957 m
0.3000 0.1957 l
s
[] 0 SD
0.0015 SLW
n
0.2900 0.1949 m
0.2900 0.1941 l
s
[] 0 SD
0.0023 SLW
n
0.3000 0.1941 m
0.2800 0.1941 l
s
[] 0 SD
0.0015 SLW
n
0.3100 0.1964 m
0.3100 0.1974 l
s
[] 0 SD
0.0023 SLW
n
0.3000 0.1974 m
0.3200 0.1974 l
s
[] 0 SD
0.0015 SLW
n
0.3100 0.1964 m
0.3100 0.1953 l
s
[] 0 SD
0.0023 SLW
n
0.3200 0.1953 m
0.3000 0.1953 l
s
[] 0 SD
0.0015 SLW
n
0.3300 0.1985 m
0.3300 0.1998 l
s
[] 0 SD
0.0023 SLW
n
0.3200 0.1998 m
0.3400 0.1998 l
s
[] 0 SD
0.0015 SLW
n
0.3300 0.1985 m
0.3300 0.1973 l
s
[] 0 SD
0.0023 SLW
n
0.3400 0.1973 m
0.3200 0.1973 l
s
[] 0 SD
0.0015 SLW
n
0.3500 0.2029 m
0.3500 0.2044 l
s
[] 0 SD
0.0023 SLW
n
0.3400 0.2044 m
0.3600 0.2044 l
s
[] 0 SD
0.0015 SLW
n
0.3500 0.2029 m
0.3500 0.2014 l
s
[] 0 SD
0.0023 SLW
n
0.3600 0.2014 m
0.3400 0.2014 l
s
[] 0 SD
0.0015 SLW
n
0.3700 0.2093 m
0.3700 0.2114 l
s
[] 0 SD
0.0023 SLW
n
0.3600 0.2114 m
0.3800 0.2114 l
s
[] 0 SD
0.0015 SLW
n
0.3700 0.2093 m
0.3700 0.2072 l
s
[] 0 SD
0.0023 SLW
n
0.3800 0.2072 m
0.3600 0.2072 l
s
[] 0 SD
0.0015 SLW
n
0.3900 0.2278 m
0.3900 0.2312 l
s
[] 0 SD
0.0023 SLW
n
0.3800 0.2312 m
0.4000 0.2312 l
s
[] 0 SD
0.0015 SLW
n
0.3900 0.2278 m
0.3900 0.2245 l
s
[] 0 SD
0.0023 SLW
n
0.4000 0.2245 m
0.3800 0.2245 l
s
[] 0 SD
0.0015 SLW
n
0.4100 0.2348 m
0.4100 0.2381 l
s
[] 0 SD
0.0023 SLW
n
0.4000 0.2381 m
0.4200 0.2381 l
s
[] 0 SD
0.0015 SLW
n
0.4100 0.2348 m
0.4100 0.2315 l
s
[] 0 SD
0.0023 SLW
n
0.4200 0.2315 m
0.4000 0.2315 l
s
[] 0 SD
0.0015 SLW
n
0.4300 0.2517 m
0.4300 0.2558 l
s
[] 0 SD
0.0023 SLW
n
0.4200 0.2558 m
0.4400 0.2558 l
s
[] 0 SD
0.0015 SLW
n
0.4300 0.2517 m
0.4300 0.2477 l
s
[] 0 SD
0.0023 SLW
n
0.4400 0.2477 m
0.4200 0.2477 l
s
[] 0 SD
0.0015 SLW
n
0.4500 0.2787 m
0.4500 0.2844 l
s
[] 0 SD
0.0023 SLW
n
0.4400 0.2844 m
0.4600 0.2844 l
s
[] 0 SD
0.0015 SLW
n
0.4500 0.2787 m
0.4500 0.2730 l
s
[] 0 SD
0.0023 SLW
n
0.4600 0.2730 m
0.4400 0.2730 l
s
[] 0 SD
0.0015 SLW
n
0.4700 0.3028 m
0.4700 0.3095 l
s
[] 0 SD
0.0023 SLW
n
0.4600 0.3095 m
0.4800 0.3095 l
s
[] 0 SD
0.0015 SLW
n
0.4700 0.3028 m
0.4700 0.2961 l
s
[] 0 SD
0.0023 SLW
n
0.4800 0.2961 m
0.4600 0.2961 l
s
[] 0 SD
0.0015 SLW
n
0.4900 0.3502 m
0.4900 0.3586 l
s
[] 0 SD
0.0023 SLW
n
0.4800 0.3586 m
0.5000 0.3586 l
s
[] 0 SD
0.0015 SLW
n
0.4900 0.3502 m
0.4900 0.3418 l
s
[] 0 SD
0.0023 SLW
n
0.5000 0.3418 m
0.4800 0.3418 l
s
[] 0 SD
0.0015 SLW
n
0.5100 0.3942 m
0.5100 0.4062 l
s
[] 0 SD
0.0023 SLW
n
0.5000 0.4062 m
0.5200 0.4062 l
s
[] 0 SD
0.0015 SLW
n
0.5100 0.3942 m
0.5100 0.3822 l
s
[] 0 SD
0.0023 SLW
n
0.5200 0.3822 m
0.5000 0.3822 l
s
[] 0 SD
0.0015 SLW
n
0.5300 0.4597 m
0.5300 0.4753 l
s
[] 0 SD
0.0023 SLW
n
0.5200 0.4753 m
0.5400 0.4753 l
s
[] 0 SD
0.0015 SLW
n
0.5300 0.4597 m
0.5300 0.4441 l
s
[] 0 SD
0.0023 SLW
n
0.5400 0.4441 m
0.5200 0.4441 l
s
[] 0 SD
0.0015 SLW
n
0.5500 0.5193 m
0.5500 0.5345 l
s
[] 0 SD
0.0023 SLW
n
0.5400 0.5345 m
0.5600 0.5345 l
s
[] 0 SD
0.0015 SLW
n
0.5500 0.5193 m
0.5500 0.5041 l
s
[] 0 SD
0.0023 SLW
n
0.5600 0.5041 m
0.5400 0.5041 l
s
[] 0 SD
0.0015 SLW
n
0.5700 0.5628 m
0.5700 0.5818 l
s
[] 0 SD
0.0023 SLW
n
0.5600 0.5818 m
0.5800 0.5818 l
s
[] 0 SD
0.0015 SLW
n
0.5700 0.5628 m
0.5700 0.5439 l
s
[] 0 SD
0.0023 SLW
n
0.5800 0.5439 m
0.5600 0.5439 l
s
[] 0 SD
0.0015 SLW
n
0.5900 0.6677 m
0.5900 0.6883 l
s
[] 0 SD
0.0023 SLW
n
0.5800 0.6883 m
0.6000 0.6883 l
s
[] 0 SD
0.0015 SLW
n
0.5900 0.6677 m
0.5900 0.6471 l
s
[] 0 SD
0.0023 SLW
n
0.6000 0.6471 m
0.5800 0.6471 l
s
[] 0 SD
0.0015 SLW
n
0.6100 0.7556 m
0.6100 0.7783 l
s
[] 0 SD
0.0023 SLW
n
0.6000 0.7783 m
0.6200 0.7783 l
s
[] 0 SD
0.0015 SLW
n
0.6100 0.7556 m
0.6100 0.7329 l
s
[] 0 SD
0.0023 SLW
n
0.6200 0.7329 m
0.6000 0.7329 l
s
[] 0 SD
0.0015 SLW
n
0.6300 0.7893 m
0.6300 0.8123 l
s
[] 0 SD
0.0023 SLW
n
0.6200 0.8123 m
0.6400 0.8123 l
s
[] 0 SD
0.0015 SLW
n
0.6300 0.7893 m
0.6300 0.7664 l
s
[] 0 SD
0.0023 SLW
n
0.6400 0.7664 m
0.6200 0.7664 l
s
[] 0 SD
0.0015 SLW
n
0.6500 0.6858 m
0.6500 0.7048 l
s
[] 0 SD
0.0023 SLW
n
0.6400 0.7048 m
0.6600 0.7048 l
s
[] 0 SD
0.0015 SLW
n
0.6500 0.6858 m
0.6500 0.6668 l
s
[] 0 SD
0.0023 SLW
n
0.6600 0.6668 m
0.6400 0.6668 l
s
[] 0 SD
0.0015 SLW
n
0.6700 0.5813 m
0.6700 0.5986 l
s
[] 0 SD
0.0023 SLW
n
0.6600 0.5986 m
0.6800 0.5986 l
s
[] 0 SD
0.0015 SLW
n
0.6700 0.5813 m
0.6700 0.5640 l
s
[] 0 SD
0.0023 SLW
n
0.6800 0.5640 m
0.6600 0.5640 l
s
[] 0 SD
0.0015 SLW
n
0.6900 0.5184 m
0.6900 0.5333 l
s
[] 0 SD
0.0023 SLW
n
0.6800 0.5333 m
0.7000 0.5333 l
s
[] 0 SD
0.0015 SLW
n
0.6900 0.5184 m
0.6900 0.5035 l
s
[] 0 SD
0.0023 SLW
n
0.7000 0.5035 m
0.6800 0.5035 l
s
[] 0 SD
0.0015 SLW
n
0.7100 0.4540 m
0.7100 0.4664 l
s
[] 0 SD
0.0023 SLW
n
0.7000 0.4664 m
0.7200 0.4664 l
s
[] 0 SD
0.0015 SLW
n
0.7100 0.4540 m
0.7100 0.4416 l
s
[] 0 SD
0.0023 SLW
n
0.7200 0.4416 m
0.7000 0.4416 l
s
[] 0 SD
0.0015 SLW
n
0.7300 0.4382 m
0.7300 0.4506 l
s
[] 0 SD
0.0023 SLW
n
0.7200 0.4506 m
0.7400 0.4506 l
s
[] 0 SD
0.0015 SLW
n
0.7300 0.4382 m
0.7300 0.4258 l
s
[] 0 SD
0.0023 SLW
n
0.7400 0.4258 m
0.7200 0.4258 l
s
[] 0 SD
0.0015 SLW
n
0.7500 0.3935 m
0.7500 0.4031 l
s
[] 0 SD
0.0023 SLW
n
0.7400 0.4031 m
0.7600 0.4031 l
s
[] 0 SD
0.0015 SLW
n
0.7500 0.3935 m
0.7500 0.3840 l
s
[] 0 SD
0.0023 SLW
n
0.7600 0.3840 m
0.7400 0.3840 l
s
[] 0 SD
0.0015 SLW
n
0.7700 0.3671 m
0.7700 0.3751 l
s
[] 0 SD
0.0023 SLW
n
0.7600 0.3751 m
0.7800 0.3751 l
s
[] 0 SD
0.0015 SLW
n
0.7700 0.3671 m
0.7700 0.3591 l
s
[] 0 SD
0.0023 SLW
n
0.7800 0.3591 m
0.7600 0.3591 l
s
[] 0 SD
0.0015 SLW
n
0.7900 0.3392 m
0.7900 0.3459 l
s
[] 0 SD
0.0023 SLW
n
0.7800 0.3459 m
0.8000 0.3459 l
s
[] 0 SD
0.0015 SLW
n
0.7900 0.3392 m
0.7900 0.3325 l
s
[] 0 SD
0.0023 SLW
n
0.8000 0.3325 m
0.7800 0.3325 l
s
[] 0 SD
0.0015 SLW
n
0.8100 0.3240 m
0.8100 0.3302 l
s
[] 0 SD
0.0023 SLW
n
0.8000 0.3302 m
0.8200 0.3302 l
s
[] 0 SD
0.0015 SLW
n
0.8100 0.3240 m
0.8100 0.3178 l
s
[] 0 SD
0.0023 SLW
n
0.8200 0.3178 m
0.8000 0.3178 l
s
[] 0 SD
0.0015 SLW
n
0.8300 0.3041 m
0.8300 0.3094 l
s
[] 0 SD
0.0023 SLW
n
0.8200 0.3094 m
0.8400 0.3094 l
s
[] 0 SD
0.0015 SLW
n
0.8300 0.3041 m
0.8300 0.2989 l
s
[] 0 SD
0.0023 SLW
n
0.8400 0.2989 m
0.8200 0.2989 l
s
[] 0 SD
0.0015 SLW
n
0.8500 0.3035 m
0.8500 0.3087 l
s
[] 0 SD
0.0023 SLW
n
0.8400 0.3087 m
0.8600 0.3087 l
s
[] 0 SD
0.0015 SLW
n
0.8500 0.3035 m
0.8500 0.2983 l
s
[] 0 SD
0.0023 SLW
n
0.8600 0.2983 m
0.8400 0.2983 l
s
[] 0 SD
0.0015 SLW
n
0.8700 0.2997 m
0.8700 0.3045 l
s
[] 0 SD
0.0023 SLW
n
0.8600 0.3045 m
0.8800 0.3045 l
s
[] 0 SD
0.0015 SLW
n
0.8700 0.2997 m
0.8700 0.2950 l
s
[] 0 SD
0.0023 SLW
n
0.8800 0.2950 m
0.8600 0.2950 l
s
[] 0 SD
0.0015 SLW
n
0.8900 0.2849 m
0.8900 0.2894 l
s
[] 0 SD
0.0023 SLW
n
0.8800 0.2894 m
0.9000 0.2894 l
s
[] 0 SD
0.0015 SLW
n
0.8900 0.2849 m
0.8900 0.2804 l
s
[] 0 SD
0.0023 SLW
n
0.9000 0.2804 m
0.8800 0.2804 l
s
[] 0 SD
0.0015 SLW
n
0.9100 0.2824 m
0.9100 0.2864 l
s
[] 0 SD
0.0023 SLW
n
0.9000 0.2864 m
0.9200 0.2864 l
s
[] 0 SD
0.0015 SLW
n
0.9100 0.2824 m
0.9100 0.2785 l
s
[] 0 SD
0.0023 SLW
n
0.9200 0.2785 m
0.9000 0.2785 l
s
[] 0 SD
0.0015 SLW
n
0.9300 0.2743 m
0.9300 0.2780 l
s
[] 0 SD
0.0023 SLW
n
0.9200 0.2780 m
0.9400 0.2780 l
s
[] 0 SD
0.0015 SLW
n
0.9300 0.2743 m
0.9300 0.2706 l
s
[] 0 SD
0.0023 SLW
n
0.9400 0.2706 m
0.9200 0.2706 l
s
[] 0 SD
0.0015 SLW
n
0.9500 0.2695 m
0.9500 0.2730 l
s
[] 0 SD
0.0023 SLW
n
0.9400 0.2730 m
0.9600 0.2730 l
s
[] 0 SD
0.0015 SLW
n
0.9500 0.2695 m
0.9500 0.2659 l
s
[] 0 SD
0.0023 SLW
n
0.9600 0.2659 m
0.9400 0.2659 l
s
[] 0 SD
0.0015 SLW
n
0.9700 0.2647 m
0.9700 0.2679 l
s
[] 0 SD
0.0023 SLW
n
0.9600 0.2679 m
0.9800 0.2679 l
s
[] 0 SD
0.0015 SLW
n
0.9700 0.2647 m
0.9700 0.2614 l
s
[] 0 SD
0.0023 SLW
n
0.9800 0.2614 m
0.9600 0.2614 l
s
[] 0 SD
0.0015 SLW
n
0.9900 0.2636 m
0.9900 0.2669 l
s
[] 0 SD
0.0023 SLW
n
0.9800 0.2669 m
1.0000 0.2669 l
s
[] 0 SD
0.0015 SLW
n
0.9900 0.2636 m
0.9900 0.2603 l
s
[] 0 SD
0.0023 SLW
n
1.0000 0.2603 m
0.9800 0.2603 l
s
[] 0 SD
0.0015 SLW
n
1.0100 0.2548 m
1.0100 0.2577 l
s
[] 0 SD
0.0023 SLW
n
1.0000 0.2577 m
1.0200 0.2577 l
s
[] 0 SD
0.0015 SLW
n
1.0100 0.2548 m
1.0100 0.2518 l
s
[] 0 SD
0.0023 SLW
n
1.0200 0.2518 m
1.0000 0.2518 l
s
[] 0 SD
0.0015 SLW
n
1.0300 0.2518 m
1.0300 0.2543 l
s
[] 0 SD
0.0023 SLW
n
1.0200 0.2543 m
1.0400 0.2543 l
s
[] 0 SD
0.0015 SLW
n
1.0300 0.2518 m
1.0300 0.2493 l
s
[] 0 SD
0.0023 SLW
n
1.0400 0.2493 m
1.0200 0.2493 l
s
[] 0 SD
0.0015 SLW
n
1.0500 0.2518 m
1.0500 0.2543 l
s
[] 0 SD
0.0023 SLW
n
1.0400 0.2543 m
1.0600 0.2543 l
s
[] 0 SD
0.0015 SLW
n
1.0500 0.2518 m
1.0500 0.2493 l
s
[] 0 SD
0.0023 SLW
n
1.0600 0.2493 m
1.0400 0.2493 l
s
[] 0 SD
0.0015 SLW
n
1.0700 0.2476 m
1.0700 0.2500 l
s
[] 0 SD
0.0023 SLW
n
1.0600 0.2500 m
1.0800 0.2500 l
s
[] 0 SD
0.0015 SLW
n
1.0700 0.2476 m
1.0700 0.2452 l
s
[] 0 SD
0.0023 SLW
n
1.0800 0.2452 m
1.0600 0.2452 l
s
[] 0 SD
0.0015 SLW
n
1.0900 0.2428 m
1.0900 0.2452 l
s
[] 0 SD
0.0023 SLW
n
1.0800 0.2452 m
1.1000 0.2452 l
s
[] 0 SD
0.0015 SLW
n
1.0900 0.2428 m
1.0900 0.2404 l
s
[] 0 SD
0.0023 SLW
n
1.1000 0.2404 m
1.0800 0.2404 l
s
[] 0 SD
0.0015 SLW
n
1.1100 0.2400 m
1.1100 0.2422 l
s
[] 0 SD
0.0023 SLW
n
1.1000 0.2422 m
1.1200 0.2422 l
s
[] 0 SD
0.0015 SLW
n
1.1100 0.2400 m
1.1100 0.2379 l
s
[] 0 SD
0.0023 SLW
n
1.1200 0.2379 m
1.1000 0.2379 l
s
[] 0 SD
0.0015 SLW
n
1.1300 0.2415 m
1.1300 0.2437 l
s
[] 0 SD
0.0023 SLW
n
1.1200 0.2437 m
1.1400 0.2437 l
s
[] 0 SD
0.0015 SLW
n
1.1300 0.2415 m
1.1300 0.2394 l
s
[] 0 SD
0.0023 SLW
n
1.1400 0.2394 m
1.1200 0.2394 l
s
[] 0 SD
0.0015 SLW
n
1.1500 0.2372 m
1.1500 0.2392 l
s
[] 0 SD
0.0023 SLW
n
1.1400 0.2392 m
1.1501 0.2392 l
s
[] 0 SD
0.0015 SLW
n
1.1500 0.2372 m
1.1500 0.2352 l
s
[] 0 SD
0.0023 SLW
n
1.1501 0.2352 m
1.1400 0.2352 l
s
n
0.1879 0.1916 m
0.1879 0.1959 l
0.1921 0.1959 l
0.1921 0.1916 l
c
fill
[] 0 SD
0.0015 SLW
n
0.1879 0.1916 m
0.1879 0.1959 l
0.1921 0.1959 l
0.1921 0.1916 l
0.1879 0.1916 l
c
s
n
0.2079 0.1916 m
0.2079 0.1959 l
0.2121 0.1959 l
0.2121 0.1916 l
c
fill
n
0.2079 0.1916 m
0.2079 0.1959 l
0.2121 0.1959 l
0.2121 0.1916 l
0.2079 0.1916 l
c
s
n
0.2279 0.1916 m
0.2279 0.1959 l
0.2321 0.1959 l
0.2321 0.1916 l
c
fill
n
0.2279 0.1916 m
0.2279 0.1959 l
0.2321 0.1959 l
0.2321 0.1916 l
0.2279 0.1916 l
c
s
n
0.2479 0.1916 m
0.2479 0.1959 l
0.2521 0.1959 l
0.2521 0.1916 l
c
fill
n
0.2479 0.1916 m
0.2479 0.1959 l
0.2521 0.1959 l
0.2521 0.1916 l
0.2479 0.1916 l
c
s
n
0.2679 0.1916 m
0.2679 0.1959 l
0.2721 0.1959 l
0.2721 0.1916 l
c
fill
n
0.2679 0.1916 m
0.2679 0.1959 l
0.2721 0.1959 l
0.2721 0.1916 l
0.2679 0.1916 l
c
s
n
0.2879 0.1928 m
0.2879 0.1970 l
0.2921 0.1970 l
0.2921 0.1928 l
c
fill
n
0.2879 0.1928 m
0.2879 0.1970 l
0.2921 0.1970 l
0.2921 0.1928 l
0.2879 0.1928 l
c
s
n
0.3079 0.1942 m
0.3079 0.1985 l
0.3121 0.1985 l
0.3121 0.1942 l
c
fill
n
0.3079 0.1942 m
0.3079 0.1985 l
0.3121 0.1985 l
0.3121 0.1942 l
0.3079 0.1942 l
c
s
n
0.3279 0.1964 m
0.3279 0.2006 l
0.3321 0.2006 l
0.3321 0.1964 l
c
fill
n
0.3279 0.1964 m
0.3279 0.2006 l
0.3321 0.2006 l
0.3321 0.1964 l
0.3279 0.1964 l
c
s
n
0.3479 0.2008 m
0.3479 0.2051 l
0.3521 0.2051 l
0.3521 0.2008 l
c
fill
n
0.3479 0.2008 m
0.3479 0.2051 l
0.3521 0.2051 l
0.3521 0.2008 l
0.3479 0.2008 l
c
s
n
0.3679 0.2072 m
0.3679 0.2114 l
0.3721 0.2114 l
0.3721 0.2072 l
c
fill
n
0.3679 0.2072 m
0.3679 0.2114 l
0.3721 0.2114 l
0.3721 0.2072 l
0.3679 0.2072 l
c
s
n
0.3879 0.2257 m
0.3879 0.2300 l
0.3921 0.2300 l
0.3921 0.2257 l
c
fill
n
0.3879 0.2257 m
0.3879 0.2300 l
0.3921 0.2300 l
0.3921 0.2257 l
0.3879 0.2257 l
c
s
n
0.4079 0.2327 m
0.4079 0.2369 l
0.4121 0.2369 l
0.4121 0.2327 l
c
fill
n
0.4079 0.2327 m
0.4079 0.2369 l
0.4121 0.2369 l
0.4121 0.2327 l
0.4079 0.2327 l
c
s
n
0.4279 0.2496 m
0.4279 0.2539 l
0.4321 0.2539 l
0.4321 0.2496 l
c
fill
n
0.4279 0.2496 m
0.4279 0.2539 l
0.4321 0.2539 l
0.4321 0.2496 l
0.4279 0.2496 l
c
s
n
0.4479 0.2766 m
0.4479 0.2809 l
0.4521 0.2809 l
0.4521 0.2766 l
c
fill
n
0.4479 0.2766 m
0.4479 0.2809 l
0.4521 0.2809 l
0.4521 0.2766 l
0.4479 0.2766 l
c
s
n
0.4679 0.3007 m
0.4679 0.3049 l
0.4721 0.3049 l
0.4721 0.3007 l
c
fill
n
0.4679 0.3007 m
0.4679 0.3049 l
0.4721 0.3049 l
0.4721 0.3007 l
0.4679 0.3007 l
c
s
n
0.4879 0.3481 m
0.4879 0.3523 l
0.4921 0.3523 l
0.4921 0.3481 l
c
fill
n
0.4879 0.3481 m
0.4879 0.3523 l
0.4921 0.3523 l
0.4921 0.3481 l
0.4879 0.3481 l
c
s
n
0.5079 0.3921 m
0.5079 0.3963 l
0.5121 0.3963 l
0.5121 0.3921 l
c
fill
n
0.5079 0.3921 m
0.5079 0.3963 l
0.5121 0.3963 l
0.5121 0.3921 l
0.5079 0.3921 l
c
s
n
0.5279 0.4576 m
0.5279 0.4618 l
0.5321 0.4618 l
0.5321 0.4576 l
c
fill
n
0.5279 0.4576 m
0.5279 0.4618 l
0.5321 0.4618 l
0.5321 0.4576 l
0.5279 0.4576 l
c
s
n
0.5479 0.5172 m
0.5479 0.5214 l
0.5521 0.5214 l
0.5521 0.5172 l
c
fill
n
0.5479 0.5172 m
0.5479 0.5214 l
0.5521 0.5214 l
0.5521 0.5172 l
0.5479 0.5172 l
c
s
n
0.5679 0.5607 m
0.5679 0.5650 l
0.5721 0.5650 l
0.5721 0.5607 l
c
fill
n
0.5679 0.5607 m
0.5679 0.5650 l
0.5721 0.5650 l
0.5721 0.5607 l
0.5679 0.5607 l
c
s
n
0.5879 0.6656 m
0.5879 0.6698 l
0.5921 0.6698 l
0.5921 0.6656 l
c
fill
n
0.5879 0.6656 m
0.5879 0.6698 l
0.5921 0.6698 l
0.5921 0.6656 l
0.5879 0.6656 l
c
s
n
0.6079 0.7535 m
0.6079 0.7577 l
0.6121 0.7577 l
0.6121 0.7535 l
c
fill
n
0.6079 0.7535 m
0.6079 0.7577 l
0.6121 0.7577 l
0.6121 0.7535 l
0.6079 0.7535 l
c
s
n
0.6279 0.7872 m
0.6279 0.7915 l
0.6321 0.7915 l
0.6321 0.7872 l
c
fill
n
0.6279 0.7872 m
0.6279 0.7915 l
0.6321 0.7915 l
0.6321 0.7872 l
0.6279 0.7872 l
c
s
n
0.6479 0.6837 m
0.6479 0.6879 l
0.6521 0.6879 l
0.6521 0.6837 l
c
fill
n
0.6479 0.6837 m
0.6479 0.6879 l
0.6521 0.6879 l
0.6521 0.6837 l
0.6479 0.6837 l
c
s
n
0.6679 0.5792 m
0.6679 0.5834 l
0.6721 0.5834 l
0.6721 0.5792 l
c
fill
n
0.6679 0.5792 m
0.6679 0.5834 l
0.6721 0.5834 l
0.6721 0.5792 l
0.6679 0.5792 l
c
s
n
0.6879 0.5162 m
0.6879 0.5205 l
0.6921 0.5205 l
0.6921 0.5162 l
c
fill
n
0.6879 0.5162 m
0.6879 0.5205 l
0.6921 0.5205 l
0.6921 0.5162 l
0.6879 0.5162 l
c
s
n
0.7079 0.4519 m
0.7079 0.4561 l
0.7121 0.4561 l
0.7121 0.4519 l
c
fill
n
0.7079 0.4519 m
0.7079 0.4561 l
0.7121 0.4561 l
0.7121 0.4519 l
0.7079 0.4519 l
c
s
n
0.7279 0.4361 m
0.7279 0.4403 l
0.7321 0.4403 l
0.7321 0.4361 l
c
fill
n
0.7279 0.4361 m
0.7279 0.4403 l
0.7321 0.4403 l
0.7321 0.4361 l
0.7279 0.4361 l
c
s
n
0.7479 0.3914 m
0.7479 0.3957 l
0.7521 0.3957 l
0.7521 0.3914 l
c
fill
n
0.7479 0.3914 m
0.7479 0.3957 l
0.7521 0.3957 l
0.7521 0.3914 l
0.7479 0.3914 l
c
s
n
0.7679 0.3650 m
0.7679 0.3692 l
0.7721 0.3692 l
0.7721 0.3650 l
c
fill
n
0.7679 0.3650 m
0.7679 0.3692 l
0.7721 0.3692 l
0.7721 0.3650 l
0.7679 0.3650 l
c
s
n
0.7879 0.3371 m
0.7879 0.3413 l
0.7921 0.3413 l
0.7921 0.3371 l
c
fill
n
0.7879 0.3371 m
0.7879 0.3413 l
0.7921 0.3413 l
0.7921 0.3371 l
0.7879 0.3371 l
c
s
n
0.8079 0.3219 m
0.8079 0.3261 l
0.8121 0.3261 l
0.8121 0.3219 l
c
fill
n
0.8079 0.3219 m
0.8079 0.3261 l
0.8121 0.3261 l
0.8121 0.3219 l
0.8079 0.3219 l
c
s
n
0.8279 0.3020 m
0.8279 0.3063 l
0.8321 0.3063 l
0.8321 0.3020 l
c
fill
n
0.8279 0.3020 m
0.8279 0.3063 l
0.8321 0.3063 l
0.8321 0.3020 l
0.8279 0.3020 l
c
s
n
0.8479 0.3014 m
0.8479 0.3056 l
0.8521 0.3056 l
0.8521 0.3014 l
c
fill
n
0.8479 0.3014 m
0.8479 0.3056 l
0.8521 0.3056 l
0.8521 0.3014 l
0.8479 0.3014 l
c
s
n
0.8679 0.2976 m
0.8679 0.3019 l
0.8721 0.3019 l
0.8721 0.2976 l
c
fill
n
0.8679 0.2976 m
0.8679 0.3019 l
0.8721 0.3019 l
0.8721 0.2976 l
0.8679 0.2976 l
c
s
n
0.8879 0.2828 m
0.8879 0.2870 l
0.8921 0.2870 l
0.8921 0.2828 l
c
fill
n
0.8879 0.2828 m
0.8879 0.2870 l
0.8921 0.2870 l
0.8921 0.2828 l
0.8879 0.2828 l
c
s
n
0.9079 0.2803 m
0.9079 0.2845 l
0.9121 0.2845 l
0.9121 0.2803 l
c
fill
n
0.9079 0.2803 m
0.9079 0.2845 l
0.9121 0.2845 l
0.9121 0.2803 l
0.9079 0.2803 l
c
s
n
0.9279 0.2722 m
0.9279 0.2764 l
0.9321 0.2764 l
0.9321 0.2722 l
c
fill
n
0.9279 0.2722 m
0.9279 0.2764 l
0.9321 0.2764 l
0.9321 0.2722 l
0.9279 0.2722 l
c
s
n
0.9479 0.2674 m
0.9479 0.2716 l
0.9521 0.2716 l
0.9521 0.2674 l
c
fill
n
0.9479 0.2674 m
0.9479 0.2716 l
0.9521 0.2716 l
0.9521 0.2674 l
0.9479 0.2674 l
c
s
n
0.9679 0.2625 m
0.9679 0.2668 l
0.9721 0.2668 l
0.9721 0.2625 l
c
fill
n
0.9679 0.2625 m
0.9679 0.2668 l
0.9721 0.2668 l
0.9721 0.2625 l
0.9679 0.2625 l
c
s
n
0.9879 0.2615 m
0.9879 0.2657 l
0.9921 0.2657 l
0.9921 0.2615 l
c
fill
n
0.9879 0.2615 m
0.9879 0.2657 l
0.9921 0.2657 l
0.9921 0.2615 l
0.9879 0.2615 l
c
s
n
1.0079 0.2526 m
1.0079 0.2569 l
1.0121 0.2569 l
1.0121 0.2526 l
c
fill
n
1.0079 0.2526 m
1.0079 0.2569 l
1.0121 0.2569 l
1.0121 0.2526 l
1.0079 0.2526 l
c
s
n
1.0279 0.2496 m
1.0279 0.2539 l
1.0321 0.2539 l
1.0321 0.2496 l
c
fill
n
1.0279 0.2496 m
1.0279 0.2539 l
1.0321 0.2539 l
1.0321 0.2496 l
1.0279 0.2496 l
c
s
n
1.0479 0.2496 m
1.0479 0.2539 l
1.0521 0.2539 l
1.0521 0.2496 l
c
fill
n
1.0479 0.2496 m
1.0479 0.2539 l
1.0521 0.2539 l
1.0521 0.2496 l
1.0479 0.2496 l
c
s
n
1.0679 0.2455 m
1.0679 0.2497 l
1.0721 0.2497 l
1.0721 0.2455 l
c
fill
n
1.0679 0.2455 m
1.0679 0.2497 l
1.0721 0.2497 l
1.0721 0.2455 l
1.0679 0.2455 l
c
s
n
1.0879 0.2407 m
1.0879 0.2449 l
1.0921 0.2449 l
1.0921 0.2407 l
c
fill
n
1.0879 0.2407 m
1.0879 0.2449 l
1.0921 0.2449 l
1.0921 0.2407 l
1.0879 0.2407 l
c
s
n
1.1079 0.2379 m
1.1079 0.2421 l
1.1121 0.2421 l
1.1121 0.2379 l
c
fill
n
1.1079 0.2379 m
1.1079 0.2421 l
1.1121 0.2421 l
1.1121 0.2379 l
1.1079 0.2379 l
c
s
n
1.1279 0.2394 m
1.1279 0.2436 l
1.1321 0.2436 l
1.1321 0.2394 l
c
fill
n
1.1279 0.2394 m
1.1279 0.2436 l
1.1321 0.2436 l
1.1321 0.2394 l
1.1279 0.2394 l
c
s
n
1.1479 0.2350 m
1.1479 0.2393 l
1.1521 0.2393 l
1.1521 0.2350 l
c
fill
n
1.1479 0.2350 m
1.1479 0.2393 l
1.1521 0.2393 l
1.1521 0.2350 l
1.1479 0.2350 l
c
s
[/DeviceRGB] SCS
Color1 SC
n
0.1500 0.1938 m
1.1500 0.1938 l
s
n
0.2500 0.1938 m
0.2500 0.1838 l
s
n
0.4500 0.1938 m
0.4500 0.1838 l
s
n
0.6500 0.1938 m
0.6500 0.1838 l
s
n
0.8500 0.1938 m
0.8500 0.1838 l
s
n
1.0500 0.1938 m
1.0500 0.1838 l
s
n
0.1500 0.1938 m
0.1500 0.1738 l
s
n
0.3500 0.1938 m
0.3500 0.1738 l
s
n
0.5500 0.1938 m
0.5500 0.1738 l
s
n
0.7500 0.1938 m
0.7500 0.1738 l
s
n
0.9500 0.1938 m
0.9500 0.1738 l
s
n
1.1500 0.1938 m
1.1500 0.1738 l
s
/Times-Roman findfont
dup length dict begin
 {1 index /FID ne {def} {pop pop} ifelse} forall
 /Encoding DefEncoding def
 currentdict
end
/Font41 exch definefont pop
/Font41 FFSF
0.1433 0.1449 m
GS
[0.0280 0.0000 0.0000 0.0280 0 0] CC
(0) show
GR
/Font41 FFSF
0.3445 0.1449 m
GS
[0.0280 0.0000 0.0000 0.0280 0 0] CC
(1) show
GR
/Font41 FFSF
0.5433 0.1449 m
GS
[0.0280 0.0000 0.0000 0.0280 0 0] CC
(2) show
GR
/Font41 FFSF
0.7439 0.1449 m
GS
[0.0280 0.0000 0.0000 0.0280 0 0] CC
(3) show
GR
/Font41 FFSF
0.9433 0.1449 m
GS
[0.0280 0.0000 0.0000 0.0280 0 0] CC
(4) show
GR
/Font41 FFSF
1.1439 0.1445 m
GS
[0.0280 0.0000 0.0000 0.0280 0 0] CC
(5) show
GR
/Font41 FFSF
0.5869 0.1059 m
GS
[0.0420 0.0000 0.0000 0.0420 0 0] CC
(KBT\(J\)) show
GR
n
0.1500 0.1500 m
0.1500 0.8500 l
s
n
0.1500 0.3031 m
0.1600 0.3031 l
s
n
0.1500 0.5219 m
0.1600 0.5219 l
s
n
0.1500 0.7406 m
0.1600 0.7406 l
s
n
0.1500 0.1938 m
0.1700 0.1938 l
s
n
0.1500 0.4125 m
0.1700 0.4125 l
s
n
0.1500 0.6312 m
0.1700 0.6312 l
s
n
0.1500 0.8500 m
0.1700 0.8500 l
s
/Font41 FFSF
0.1267 0.1845 m
GS
[0.0280 0.0000 0.0000 0.0280 0 0] CC
(0) show
GR
/Font41 FFSF
0.0788 0.4049 m
GS
[0.0280 0.0000 0.0000 0.0280 0 0] CC
(0,005) show
GR
/Font41 FFSF
0.0941 0.6238 m
GS
[0.0280 0.0000 0.0000 0.0280 0 0] CC
(0,01) show
GR
/Font41 FFSF
0.0788 0.8424 m
GS
[0.0280 0.0000 0.0000 0.0280 0 0] CC
(0,015) show
GR
/Font41 FFSF
0.0598 0.3222 m
GS
[0.0000 0.0420 -0.0420 0.0000 0 0] CC
(Capacidad Calorifica) show
GR
n
0.1500 0.1500 m
0.1500 0.8500 l
1.1500 0.8500 l
1.1500 0.1500 l
0.1500 0.1500 l
c
s
n
0.7500 0.8000 m
0.7500 0.7192 l
1.0336 0.7192 l
1.0336 0.8000 l
c
[/DeviceRGB] SCS
Color0 SC
fill
[/DeviceRGB] SCS
Color1 SC
n
0.7500 0.8000 m
0.7500 0.7192 l
1.0336 0.7192 l
1.0336 0.8000 l
0.7500 0.8000 l
c
s
/Font41 FFSF
0.8154 0.7520 m
GS
[0.0560 0.0000 0.0000 0.0560 0 0] CC
(T) show
GR
/Font41 FFSF
0.8495 0.7296 m
GS
[0.0396 0.0000 0.0000 0.0396 0 0] CC
(incial) show
GR
/Font41 FFSF
0.9373 0.7520 m
GS
[0.0560 0.0000 0.0000 0.0560 0 0] CC
( = 0) show
GR
[/DeviceRGB] SCS
Color15 SC
n
0.7629 0.7596 m
0.8029 0.7596 l
s
n
0.7608 0.7575 m
0.7608 0.7617 l
0.7650 0.7617 l
0.7650 0.7575 l
c
fill
n
0.7608 0.7575 m
0.7608 0.7617 l
0.7650 0.7617 l
0.7650 0.7575 l
0.7608 0.7575 l
c
s
n
0.8008 0.7575 m
0.8008 0.7617 l
0.8050 0.7617 l
0.8050 0.7575 l
c
fill
n
0.8008 0.7575 m
0.8008 0.7617 l
0.8050 0.7617 l
0.8050 0.7575 l
0.8008 0.7575 l
c
s
%%Trailer
%%BoundingBox: 18 59 709 529
%%DocumentNeededResources: font Times-Roman
%%EOF
