%!PS-Adobe-3.0 EPSF-3.0
%%BoundingBox: (atend)
%%LanguageLevel: 2
%%Creator: Grace-5.1.24
%%CreationDate: Mon Nov 28 22:32:16 2016
%%DocumentData: Clean8Bit
%%Orientation: Portrait
%%Title: /home/juanchoflo/Escritorio/UNAL2016-2/HerramientasComputacionales/ProyectoFinal/simulacion/ModeloIsing/Datos/L10/Equilibrio.agr
%%For: juanchoflo
%%DocumentNeededResources: (atend)
%%EndComments
%%BeginProlog
/m {moveto} def
/l {lineto} def
/s {stroke} def
/n {newpath} def
/c {closepath} def
/RL {rlineto} def
/SLW {setlinewidth} def
/GS {gsave} def
/GR {grestore} def
/SC {setcolor} def
/SGRY {setgray} def
/SRGB {setrgbcolor} def
/SD {setdash} def
/SLC {setlinecap} def
/SLJ {setlinejoin} def
/SCS {setcolorspace} def
/FFSF {findfont setfont} def
/CC {concat} def
/PXL {n m 0 0 RL s} def
/Color0 {1.0000 1.0000 1.0000} def
/Color1 {0.0000 0.0000 0.0000} def
/Color2 {1.0000 0.0000 0.0000} def
/Color3 {0.0000 1.0000 0.0000} def
/Color4 {0.0000 0.0000 1.0000} def
/Color5 {1.0000 1.0000 0.0000} def
/Color6 {0.7373 0.5608 0.5608} def
/Color7 {0.8627 0.8627 0.8627} def
/Color8 {0.5804 0.0000 0.8275} def
/Color9 {0.0000 1.0000 1.0000} def
/Color10 {1.0000 0.0000 1.0000} def
/Color11 {1.0000 0.6471 0.0000} def
/Color12 {0.4471 0.1294 0.7373} def
/Color13 {0.4039 0.0275 0.2824} def
/Color14 {0.2510 0.8784 0.8157} def
/Color15 {0.0000 0.5451 0.0000} def
/Color16 {0.7529 0.7529 0.7529} def
/Color17 {0.5059 0.5059 0.5059} def
/Color18 {0.2588 0.2588 0.2588} def
/PTRN {
 /pat_bits exch def 
 <<
  /PaintType 2
  /PatternType 1 /TilingType 1
  /BBox[0 0 16 16]
  /XStep 16 /YStep 16
  /PaintProc {
   pop
   16 16 true [-1 0 0 -1 16 16] pat_bits imagemask
  }
 >>
 [0.0016 0 0 0.0016 0 0]
 makepattern
} def
/Pattern0 {<0000000000000000000000000000000000000000000000000000000000000000> PTRN} bind def
/Pattern1 {<ffffffffffffffffffffffffffffffffffffffffffffffffffffffffffffffff> PTRN} bind def
/Pattern2 {<eeeeffffbbbbffffeeeeffffbbbbffffeeeeffffbbbbffffeeeeffffbbbbffff> PTRN} bind def
/Pattern3 {<eeeebbbbeeeebbbbeeeebbbbeeeebbbbeeeebbbbeeeebbbbeeeebbbbeeeebbbb> PTRN} bind def
/Pattern4 {<5555aaaa5555aaaa5555aaaa5555aaaa5555aaaa5555aaaa5555aaaa5555aaaa> PTRN} bind def
/Pattern5 {<1111444411114444111144441111444411114444111144441111444411114444> PTRN} bind def
/Pattern6 {<1111000044440000111100004444000011110000444400001111000044440000> PTRN} bind def
/Pattern7 {<1010000000000000010100000000000010100000000000000101000000000000> PTRN} bind def
/Pattern8 {<0000000000000000000000000000000000000000000000000000000000000000> PTRN} bind def
/Pattern9 {<1e1e0f0f8787c3c3e1e1f0f078783c3c1e1e0f0f8787c3c3e1e1f0f078783c3c> PTRN} bind def
/Pattern10 {<7878f0f0e1e1c3c387870f0f1e1e3c3c7878f0f0e1e1c3c387870f0f1e1e3c3c> PTRN} bind def
/Pattern11 {<3333333333333333333333333333333333333333333333333333333333333333> PTRN} bind def
/Pattern12 {<ffffffff00000000ffffffff00000000ffffffff00000000ffffffff00000000> PTRN} bind def
/Pattern13 {<8181424224241818181824244242818181814242242418181818242442428181> PTRN} bind def
/Pattern14 {<8080404020201010080804040202010180804040202010100808040402020101> PTRN} bind def
/Pattern15 {<0101020204040808101020204040808001010202040408081010202040408080> PTRN} bind def
/Pattern16 {<2222222222222222222222222222222222222222222222222222222222222222> PTRN} bind def
/Pattern17 {<0000ffff000000000000ffff000000000000ffff000000000000ffff00000000> PTRN} bind def
/Pattern18 {<2222ffff222222222222ffff222222222222ffff222222222222ffff22222222> PTRN} bind def
/Pattern19 {<ffffffff33333333ffffffff33333333ffffffff33333333ffffffff33333333> PTRN} bind def
/Pattern20 {<0f0f0f0f0f0f0f0ff0f0f0f0f0f0f0f00f0f0f0f0f0f0f0ff0f0f0f0f0f0f0f0> PTRN} bind def
/Pattern21 {<ff00ff00ff00ff00ff00ff00ff00ff0000ff00ff00ff00ff00ff00ff00ff00ff> PTRN} bind def
/Pattern22 {<8001800180018001800180018001ffffffff8001800180018001800180018001> PTRN} bind def
/Pattern23 {<c003c003c003c003c003c003ffffffffffffffffc003c003c003c003c003c003> PTRN} bind def
/Pattern24 {<040404040404ffff404040404040ffff040404040404ffff404040404040ffff> PTRN} bind def
/Pattern25 {<180018001800180018001800ffffffff001800180018001800180018ffffffff> PTRN} bind def
/Pattern26 {<1111b8b87c7c3a3a1111a3a3c7c78b8b1111b8b87c7c3a3a1111a3a3c7c78b8b> PTRN} bind def
/Pattern27 {<101010102828c7c70101010182827c7c101010102828c7c70101010182827c7c> PTRN} bind def
/Pattern28 {<1c1c121211112121c1c12121111112121c1c121211112121c1c1212111111212> PTRN} bind def
/Pattern29 {<3e3e414180808080e3e31414080808083e3e414180808080e3e3141408080808> PTRN} bind def
/Pattern30 {<4848888884848383848488884848383848488888848483838484888848483838> PTRN} bind def
/Pattern31 {<03030404080808080c0c12122121c0c003030404080808080c0c12122121c0c0> PTRN} bind def
/ellipsedict 8 dict def
ellipsedict /mtrx matrix put
/EARC {
 ellipsedict begin
  /endangle exch def
  /startangle exch def
  /yrad exch def
  /xrad exch def
  /y exch def
  /x exch def
  /savematrix mtrx currentmatrix def
  x y translate
  xrad yrad scale
  0 0 1 startangle endangle arc
  savematrix setmatrix
 end
} def
/TL {
  /kcomp exch def
  /linewidth exch def
  /offset exch def
  GS
  0 offset rmoveto
  linewidth SLW
  dup stringwidth exch kcomp add exch RL s
  GR
} def
/KINIT
{
 /kvector exch def
 /kid 0 def
} def
/KPROC
{
 pop pop
 kvector kid get
 0 rmoveto
 /kid 1 kid add def
} def
/DefEncoding [
 /.notdef
 /.notdef
 /.notdef
 /.notdef
 /.notdef
 /.notdef
 /.notdef
 /.notdef
 /.notdef
 /.notdef
 /.notdef
 /.notdef
 /.notdef
 /.notdef
 /.notdef
 /.notdef
 /.notdef
 /.notdef
 /.notdef
 /.notdef
 /.notdef
 /.notdef
 /.notdef
 /.notdef
 /.notdef
 /.notdef
 /.notdef
 /.notdef
 /.notdef
 /.notdef
 /.notdef
 /.notdef
 /space
 /exclam
 /quotedbl
 /numbersign
 /dollar
 /percent
 /ampersand
 /quoteright
 /parenleft
 /parenright
 /asterisk
 /plus
 /comma
 /hyphen
 /period
 /slash
 /zero
 /one
 /two
 /three
 /four
 /five
 /six
 /seven
 /eight
 /nine
 /colon
 /semicolon
 /less
 /equal
 /greater
 /question
 /at
 /A
 /B
 /C
 /D
 /E
 /F
 /G
 /H
 /I
 /J
 /K
 /L
 /M
 /N
 /O
 /P
 /Q
 /R
 /S
 /T
 /U
 /V
 /W
 /X
 /Y
 /Z
 /bracketleft
 /backslash
 /bracketright
 /asciicircum
 /underscore
 /grave
 /a
 /b
 /c
 /d
 /e
 /f
 /g
 /h
 /i
 /j
 /k
 /l
 /m
 /n
 /o
 /p
 /q
 /r
 /s
 /t
 /u
 /v
 /w
 /x
 /y
 /z
 /braceleft
 /bar
 /braceright
 /asciitilde
 /.notdef
 /.notdef
 /.notdef
 /.notdef
 /.notdef
 /.notdef
 /.notdef
 /.notdef
 /.notdef
 /.notdef
 /.notdef
 /.notdef
 /.notdef
 /.notdef
 /.notdef
 /.notdef
 /.notdef
 /.notdef
 /.notdef
 /.notdef
 /.notdef
 /.notdef
 /.notdef
 /.notdef
 /.notdef
 /.notdef
 /.notdef
 /.notdef
 /.notdef
 /.notdef
 /.notdef
 /.notdef
 /.notdef
 /space
 /exclamdown
 /cent
 /sterling
 /currency
 /yen
 /brokenbar
 /section
 /dieresis
 /copyright
 /ordfeminine
 /guillemotleft
 /logicalnot
 /hyphen
 /registered
 /macron
 /degree
 /plusminus
 /twosuperior
 /threesuperior
 /acute
 /mu
 /paragraph
 /periodcentered
 /cedilla
 /onesuperior
 /ordmasculine
 /guillemotright
 /onequarter
 /onehalf
 /threequarters
 /questiondown
 /Agrave
 /Aacute
 /Acircumflex
 /Atilde
 /Adieresis
 /Aring
 /AE
 /Ccedilla
 /Egrave
 /Eacute
 /Ecircumflex
 /Edieresis
 /Igrave
 /Iacute
 /Icircumflex
 /Idieresis
 /Eth
 /Ntilde
 /Ograve
 /Oacute
 /Ocircumflex
 /Otilde
 /Odieresis
 /multiply
 /Oslash
 /Ugrave
 /Uacute
 /Ucircumflex
 /Udieresis
 /Yacute
 /Thorn
 /germandbls
 /agrave
 /aacute
 /acircumflex
 /atilde
 /adieresis
 /aring
 /ae
 /ccedilla
 /egrave
 /eacute
 /ecircumflex
 /edieresis
 /igrave
 /iacute
 /icircumflex
 /idieresis
 /eth
 /ntilde
 /ograve
 /oacute
 /ocircumflex
 /otilde
 /odieresis
 /divide
 /oslash
 /ugrave
 /uacute
 /ucircumflex
 /udieresis
 /yacute
 /thorn
 /ydieresis
] def
%%EndProlog
%%BeginSetup
%%EndSetup
612.00 612.00 scale
n
0.0000 0.0000 m
0.0000 1.0000 l
1.2941 1.0000 l
1.2941 0.0000 l
c
[/DeviceRGB] SCS
Color0 SC
fill
[/DeviceRGB] SCS
Color4 SC
[] 0 SD
0.0030 SLW
0 SLC
0 SLJ
n
0.2142 0.1603 m
0.2349 0.1599 l
0.2556 0.8404 l
0.2763 0.3006 l
0.2971 0.1608 l
0.3178 0.1603 l
0.3385 0.1719 l
0.3592 0.1598 l
0.4006 0.1719 l
0.4213 0.1602 l
0.4420 0.1600 l
0.4627 0.1623 l
0.4835 0.1603 l
0.5042 0.1603 l
0.5249 0.1603 l
0.5456 0.1617 l
0.5663 0.1632 l
0.6077 0.1607 l
0.6284 0.1603 l
0.6491 0.1605 l
0.6699 0.1631 l
0.6906 0.1640 l
0.7113 0.1634 l
0.7320 0.1679 l
0.7527 0.1681 l
0.7734 0.1726 l
0.7941 0.1767 l
0.8355 0.1693 l
0.8562 0.1732 l
0.8770 0.1786 l
0.8977 0.1692 l
0.9184 0.1736 l
0.9391 0.1825 l
0.9598 0.1789 l
0.9805 0.1749 l
1.0012 0.1777 l
1.0219 0.1762 l
1.0426 0.1774 l
1.0634 0.1768 l
1.0841 0.1776 l
1.1048 0.1778 l
1.1255 0.1784 l
1.1462 0.1805 l
1.1669 0.1772 l
1.1876 0.1727 l
1.2083 0.1799 l
s
n
0.2078 0.1539 m
0.2078 0.1667 l
0.2206 0.1667 l
0.2206 0.1539 l
c
[/DeviceRGB] SCS
Color2 SC
fill
[/DeviceRGB] SCS
Color4 SC
[] 0 SD
0.0015 SLW
n
0.2078 0.1539 m
0.2078 0.1667 l
0.2206 0.1667 l
0.2206 0.1539 l
0.2078 0.1539 l
c
s
n
0.2286 0.1535 m
0.2286 0.1663 l
0.2413 0.1663 l
0.2413 0.1535 l
c
[/DeviceRGB] SCS
Color2 SC
fill
[/DeviceRGB] SCS
Color4 SC
n
0.2286 0.1535 m
0.2286 0.1663 l
0.2413 0.1663 l
0.2413 0.1535 l
0.2286 0.1535 l
c
s
n
0.2493 0.8340 m
0.2493 0.8467 l
0.2620 0.8467 l
0.2620 0.8340 l
c
[/DeviceRGB] SCS
Color2 SC
fill
[/DeviceRGB] SCS
Color4 SC
n
0.2493 0.8340 m
0.2493 0.8467 l
0.2620 0.8467 l
0.2620 0.8340 l
0.2493 0.8340 l
c
s
n
0.2700 0.2943 m
0.2700 0.3070 l
0.2827 0.3070 l
0.2827 0.2943 l
c
[/DeviceRGB] SCS
Color2 SC
fill
[/DeviceRGB] SCS
Color4 SC
n
0.2700 0.2943 m
0.2700 0.3070 l
0.2827 0.3070 l
0.2827 0.2943 l
0.2700 0.2943 l
c
s
n
0.2907 0.1544 m
0.2907 0.1671 l
0.3034 0.1671 l
0.3034 0.1544 l
c
[/DeviceRGB] SCS
Color2 SC
fill
[/DeviceRGB] SCS
Color4 SC
n
0.2907 0.1544 m
0.2907 0.1671 l
0.3034 0.1671 l
0.3034 0.1544 l
0.2907 0.1544 l
c
s
n
0.3114 0.1539 m
0.3114 0.1666 l
0.3241 0.1666 l
0.3241 0.1539 l
c
[/DeviceRGB] SCS
Color2 SC
fill
[/DeviceRGB] SCS
Color4 SC
n
0.3114 0.1539 m
0.3114 0.1666 l
0.3241 0.1666 l
0.3241 0.1539 l
0.3114 0.1539 l
c
s
n
0.3321 0.1655 m
0.3321 0.1782 l
0.3449 0.1782 l
0.3449 0.1655 l
c
[/DeviceRGB] SCS
Color2 SC
fill
[/DeviceRGB] SCS
Color4 SC
n
0.3321 0.1655 m
0.3321 0.1782 l
0.3449 0.1782 l
0.3449 0.1655 l
0.3321 0.1655 l
c
s
n
0.3528 0.1534 m
0.3528 0.1662 l
0.3656 0.1662 l
0.3656 0.1534 l
c
[/DeviceRGB] SCS
Color2 SC
fill
[/DeviceRGB] SCS
Color4 SC
n
0.3528 0.1534 m
0.3528 0.1662 l
0.3656 0.1662 l
0.3656 0.1534 l
0.3528 0.1534 l
c
s
n
0.3942 0.1655 m
0.3942 0.1782 l
0.4070 0.1782 l
0.4070 0.1655 l
c
[/DeviceRGB] SCS
Color2 SC
fill
[/DeviceRGB] SCS
Color4 SC
n
0.3942 0.1655 m
0.3942 0.1782 l
0.4070 0.1782 l
0.4070 0.1655 l
0.3942 0.1655 l
c
s
n
0.4149 0.1539 m
0.4149 0.1666 l
0.4277 0.1666 l
0.4277 0.1539 l
c
[/DeviceRGB] SCS
Color2 SC
fill
[/DeviceRGB] SCS
Color4 SC
n
0.4149 0.1539 m
0.4149 0.1666 l
0.4277 0.1666 l
0.4277 0.1539 l
0.4149 0.1539 l
c
s
n
0.4357 0.1536 m
0.4357 0.1664 l
0.4484 0.1664 l
0.4484 0.1536 l
c
[/DeviceRGB] SCS
Color2 SC
fill
[/DeviceRGB] SCS
Color4 SC
n
0.4357 0.1536 m
0.4357 0.1664 l
0.4484 0.1664 l
0.4484 0.1536 l
0.4357 0.1536 l
c
s
n
0.4564 0.1559 m
0.4564 0.1687 l
0.4691 0.1687 l
0.4691 0.1559 l
c
[/DeviceRGB] SCS
Color2 SC
fill
[/DeviceRGB] SCS
Color4 SC
n
0.4564 0.1559 m
0.4564 0.1687 l
0.4691 0.1687 l
0.4691 0.1559 l
0.4564 0.1559 l
c
s
n
0.4771 0.1540 m
0.4771 0.1667 l
0.4898 0.1667 l
0.4898 0.1540 l
c
[/DeviceRGB] SCS
Color2 SC
fill
[/DeviceRGB] SCS
Color4 SC
n
0.4771 0.1540 m
0.4771 0.1667 l
0.4898 0.1667 l
0.4898 0.1540 l
0.4771 0.1540 l
c
s
n
0.4978 0.1540 m
0.4978 0.1667 l
0.5105 0.1667 l
0.5105 0.1540 l
c
[/DeviceRGB] SCS
Color2 SC
fill
[/DeviceRGB] SCS
Color4 SC
n
0.4978 0.1540 m
0.4978 0.1667 l
0.5105 0.1667 l
0.5105 0.1540 l
0.4978 0.1540 l
c
s
n
0.5185 0.1539 m
0.5185 0.1667 l
0.5313 0.1667 l
0.5313 0.1539 l
c
[/DeviceRGB] SCS
Color2 SC
fill
[/DeviceRGB] SCS
Color4 SC
n
0.5185 0.1539 m
0.5185 0.1667 l
0.5313 0.1667 l
0.5313 0.1539 l
0.5185 0.1539 l
c
s
n
0.5392 0.1553 m
0.5392 0.1681 l
0.5520 0.1681 l
0.5520 0.1553 l
c
[/DeviceRGB] SCS
Color2 SC
fill
[/DeviceRGB] SCS
Color4 SC
n
0.5392 0.1553 m
0.5392 0.1681 l
0.5520 0.1681 l
0.5520 0.1553 l
0.5392 0.1553 l
c
s
n
0.5599 0.1568 m
0.5599 0.1695 l
0.5727 0.1695 l
0.5727 0.1568 l
c
[/DeviceRGB] SCS
Color2 SC
fill
[/DeviceRGB] SCS
Color4 SC
n
0.5599 0.1568 m
0.5599 0.1695 l
0.5727 0.1695 l
0.5727 0.1568 l
0.5599 0.1568 l
c
s
n
0.6013 0.1543 m
0.6013 0.1671 l
0.6141 0.1671 l
0.6141 0.1543 l
c
[/DeviceRGB] SCS
Color2 SC
fill
[/DeviceRGB] SCS
Color4 SC
n
0.6013 0.1543 m
0.6013 0.1671 l
0.6141 0.1671 l
0.6141 0.1543 l
0.6013 0.1543 l
c
s
n
0.6221 0.1539 m
0.6221 0.1667 l
0.6348 0.1667 l
0.6348 0.1539 l
c
[/DeviceRGB] SCS
Color2 SC
fill
[/DeviceRGB] SCS
Color4 SC
n
0.6221 0.1539 m
0.6221 0.1667 l
0.6348 0.1667 l
0.6348 0.1539 l
0.6221 0.1539 l
c
s
n
0.6428 0.1541 m
0.6428 0.1669 l
0.6555 0.1669 l
0.6555 0.1541 l
c
[/DeviceRGB] SCS
Color2 SC
fill
[/DeviceRGB] SCS
Color4 SC
n
0.6428 0.1541 m
0.6428 0.1669 l
0.6555 0.1669 l
0.6555 0.1541 l
0.6428 0.1541 l
c
s
n
0.6635 0.1567 m
0.6635 0.1695 l
0.6762 0.1695 l
0.6762 0.1567 l
c
[/DeviceRGB] SCS
Color2 SC
fill
[/DeviceRGB] SCS
Color4 SC
n
0.6635 0.1567 m
0.6635 0.1695 l
0.6762 0.1695 l
0.6762 0.1567 l
0.6635 0.1567 l
c
s
n
0.6842 0.1576 m
0.6842 0.1704 l
0.6969 0.1704 l
0.6969 0.1576 l
c
[/DeviceRGB] SCS
Color2 SC
fill
[/DeviceRGB] SCS
Color4 SC
n
0.6842 0.1576 m
0.6842 0.1704 l
0.6969 0.1704 l
0.6969 0.1576 l
0.6842 0.1576 l
c
s
n
0.7049 0.1570 m
0.7049 0.1698 l
0.7176 0.1698 l
0.7176 0.1570 l
c
[/DeviceRGB] SCS
Color2 SC
fill
[/DeviceRGB] SCS
Color4 SC
n
0.7049 0.1570 m
0.7049 0.1698 l
0.7176 0.1698 l
0.7176 0.1570 l
0.7049 0.1570 l
c
s
n
0.7256 0.1615 m
0.7256 0.1743 l
0.7384 0.1743 l
0.7384 0.1615 l
c
[/DeviceRGB] SCS
Color2 SC
fill
[/DeviceRGB] SCS
Color4 SC
n
0.7256 0.1615 m
0.7256 0.1743 l
0.7384 0.1743 l
0.7384 0.1615 l
0.7256 0.1615 l
c
s
n
0.7463 0.1617 m
0.7463 0.1745 l
0.7591 0.1745 l
0.7591 0.1617 l
c
[/DeviceRGB] SCS
Color2 SC
fill
[/DeviceRGB] SCS
Color4 SC
n
0.7463 0.1617 m
0.7463 0.1745 l
0.7591 0.1745 l
0.7591 0.1617 l
0.7463 0.1617 l
c
s
n
0.7670 0.1662 m
0.7670 0.1790 l
0.7798 0.1790 l
0.7798 0.1662 l
c
[/DeviceRGB] SCS
Color2 SC
fill
[/DeviceRGB] SCS
Color4 SC
n
0.7670 0.1662 m
0.7670 0.1790 l
0.7798 0.1790 l
0.7798 0.1662 l
0.7670 0.1662 l
c
s
n
0.7877 0.1703 m
0.7877 0.1830 l
0.8005 0.1830 l
0.8005 0.1703 l
c
[/DeviceRGB] SCS
Color2 SC
fill
[/DeviceRGB] SCS
Color4 SC
n
0.7877 0.1703 m
0.7877 0.1830 l
0.8005 0.1830 l
0.8005 0.1703 l
0.7877 0.1703 l
c
s
n
0.8292 0.1629 m
0.8292 0.1756 l
0.8419 0.1756 l
0.8419 0.1629 l
c
[/DeviceRGB] SCS
Color2 SC
fill
[/DeviceRGB] SCS
Color4 SC
n
0.8292 0.1629 m
0.8292 0.1756 l
0.8419 0.1756 l
0.8419 0.1629 l
0.8292 0.1629 l
c
s
n
0.8499 0.1669 m
0.8499 0.1796 l
0.8626 0.1796 l
0.8626 0.1669 l
c
[/DeviceRGB] SCS
Color2 SC
fill
[/DeviceRGB] SCS
Color4 SC
n
0.8499 0.1669 m
0.8499 0.1796 l
0.8626 0.1796 l
0.8626 0.1669 l
0.8499 0.1669 l
c
s
n
0.8706 0.1722 m
0.8706 0.1849 l
0.8833 0.1849 l
0.8833 0.1722 l
c
[/DeviceRGB] SCS
Color2 SC
fill
[/DeviceRGB] SCS
Color4 SC
n
0.8706 0.1722 m
0.8706 0.1849 l
0.8833 0.1849 l
0.8833 0.1722 l
0.8706 0.1722 l
c
s
n
0.8913 0.1628 m
0.8913 0.1755 l
0.9040 0.1755 l
0.9040 0.1628 l
c
[/DeviceRGB] SCS
Color2 SC
fill
[/DeviceRGB] SCS
Color4 SC
n
0.8913 0.1628 m
0.8913 0.1755 l
0.9040 0.1755 l
0.9040 0.1628 l
0.8913 0.1628 l
c
s
n
0.9120 0.1672 m
0.9120 0.1799 l
0.9248 0.1799 l
0.9248 0.1672 l
c
[/DeviceRGB] SCS
Color2 SC
fill
[/DeviceRGB] SCS
Color4 SC
n
0.9120 0.1672 m
0.9120 0.1799 l
0.9248 0.1799 l
0.9248 0.1672 l
0.9120 0.1672 l
c
s
n
0.9327 0.1761 m
0.9327 0.1889 l
0.9455 0.1889 l
0.9455 0.1761 l
c
[/DeviceRGB] SCS
Color2 SC
fill
[/DeviceRGB] SCS
Color4 SC
n
0.9327 0.1761 m
0.9327 0.1889 l
0.9455 0.1889 l
0.9455 0.1761 l
0.9327 0.1761 l
c
s
n
0.9534 0.1726 m
0.9534 0.1853 l
0.9662 0.1853 l
0.9662 0.1726 l
c
[/DeviceRGB] SCS
Color2 SC
fill
[/DeviceRGB] SCS
Color4 SC
n
0.9534 0.1726 m
0.9534 0.1853 l
0.9662 0.1853 l
0.9662 0.1726 l
0.9534 0.1726 l
c
s
n
0.9741 0.1686 m
0.9741 0.1813 l
0.9869 0.1813 l
0.9869 0.1686 l
c
[/DeviceRGB] SCS
Color2 SC
fill
[/DeviceRGB] SCS
Color4 SC
n
0.9741 0.1686 m
0.9741 0.1813 l
0.9869 0.1813 l
0.9869 0.1686 l
0.9741 0.1686 l
c
s
n
0.9949 0.1713 m
0.9949 0.1841 l
1.0076 0.1841 l
1.0076 0.1713 l
c
[/DeviceRGB] SCS
Color2 SC
fill
[/DeviceRGB] SCS
Color4 SC
n
0.9949 0.1713 m
0.9949 0.1841 l
1.0076 0.1841 l
1.0076 0.1713 l
0.9949 0.1713 l
c
s
n
1.0156 0.1698 m
1.0156 0.1826 l
1.0283 0.1826 l
1.0283 0.1698 l
c
[/DeviceRGB] SCS
Color2 SC
fill
[/DeviceRGB] SCS
Color4 SC
n
1.0156 0.1698 m
1.0156 0.1826 l
1.0283 0.1826 l
1.0283 0.1698 l
1.0156 0.1698 l
c
s
n
1.0363 0.1710 m
1.0363 0.1838 l
1.0490 0.1838 l
1.0490 0.1710 l
c
[/DeviceRGB] SCS
Color2 SC
fill
[/DeviceRGB] SCS
Color4 SC
n
1.0363 0.1710 m
1.0363 0.1838 l
1.0490 0.1838 l
1.0490 0.1710 l
1.0363 0.1710 l
c
s
n
1.0570 0.1704 m
1.0570 0.1832 l
1.0697 0.1832 l
1.0697 0.1704 l
c
[/DeviceRGB] SCS
Color2 SC
fill
[/DeviceRGB] SCS
Color4 SC
n
1.0570 0.1704 m
1.0570 0.1832 l
1.0697 0.1832 l
1.0697 0.1704 l
1.0570 0.1704 l
c
s
n
1.0777 0.1712 m
1.0777 0.1840 l
1.0904 0.1840 l
1.0904 0.1712 l
c
[/DeviceRGB] SCS
Color2 SC
fill
[/DeviceRGB] SCS
Color4 SC
n
1.0777 0.1712 m
1.0777 0.1840 l
1.0904 0.1840 l
1.0904 0.1712 l
1.0777 0.1712 l
c
s
n
1.0984 0.1714 m
1.0984 0.1842 l
1.1112 0.1842 l
1.1112 0.1714 l
c
[/DeviceRGB] SCS
Color2 SC
fill
[/DeviceRGB] SCS
Color4 SC
n
1.0984 0.1714 m
1.0984 0.1842 l
1.1112 0.1842 l
1.1112 0.1714 l
1.0984 0.1714 l
c
s
n
1.1191 0.1720 m
1.1191 0.1848 l
1.1319 0.1848 l
1.1319 0.1720 l
c
[/DeviceRGB] SCS
Color2 SC
fill
[/DeviceRGB] SCS
Color4 SC
n
1.1191 0.1720 m
1.1191 0.1848 l
1.1319 0.1848 l
1.1319 0.1720 l
1.1191 0.1720 l
c
s
n
1.1398 0.1741 m
1.1398 0.1868 l
1.1526 0.1868 l
1.1526 0.1741 l
c
[/DeviceRGB] SCS
Color2 SC
fill
[/DeviceRGB] SCS
Color4 SC
n
1.1398 0.1741 m
1.1398 0.1868 l
1.1526 0.1868 l
1.1526 0.1741 l
1.1398 0.1741 l
c
s
n
1.1605 0.1709 m
1.1605 0.1836 l
1.1733 0.1836 l
1.1733 0.1709 l
c
[/DeviceRGB] SCS
Color2 SC
fill
[/DeviceRGB] SCS
Color4 SC
n
1.1605 0.1709 m
1.1605 0.1836 l
1.1733 0.1836 l
1.1733 0.1709 l
1.1605 0.1709 l
c
s
n
1.1812 0.1663 m
1.1812 0.1791 l
1.1940 0.1791 l
1.1940 0.1663 l
c
[/DeviceRGB] SCS
Color2 SC
fill
[/DeviceRGB] SCS
Color4 SC
n
1.1812 0.1663 m
1.1812 0.1791 l
1.1940 0.1791 l
1.1940 0.1663 l
1.1812 0.1663 l
c
s
n
1.2020 0.1735 m
1.2020 0.1863 l
1.2147 0.1863 l
1.2147 0.1735 l
c
[/DeviceRGB] SCS
Color2 SC
fill
[/DeviceRGB] SCS
Color4 SC
n
1.2020 0.1735 m
1.2020 0.1863 l
1.2147 0.1863 l
1.2147 0.1735 l
1.2020 0.1735 l
c
s
[/DeviceRGB] SCS
Color1 SC
n
0.1728 0.1584 m
1.2083 0.1584 l
s
n
0.1916 0.1584 m
0.1916 0.1484 l
s
n
0.2105 0.1584 m
0.2105 0.1484 l
s
n
0.2293 0.1584 m
0.2293 0.1484 l
s
n
0.2481 0.1584 m
0.2481 0.1484 l
s
n
0.2669 0.1584 m
0.2669 0.1484 l
s
n
0.2858 0.1584 m
0.2858 0.1484 l
s
n
0.3046 0.1584 m
0.3046 0.1484 l
s
n
0.3234 0.1584 m
0.3234 0.1484 l
s
n
0.3422 0.1584 m
0.3422 0.1484 l
s
n
0.3611 0.1584 m
0.3611 0.1484 l
s
n
0.3987 0.1584 m
0.3987 0.1484 l
s
n
0.4176 0.1584 m
0.4176 0.1484 l
s
n
0.4364 0.1584 m
0.4364 0.1484 l
s
n
0.4552 0.1584 m
0.4552 0.1484 l
s
n
0.4740 0.1584 m
0.4740 0.1484 l
s
n
0.4929 0.1584 m
0.4929 0.1484 l
s
n
0.5117 0.1584 m
0.5117 0.1484 l
s
n
0.5305 0.1584 m
0.5305 0.1484 l
s
n
0.5494 0.1584 m
0.5494 0.1484 l
s
n
0.5682 0.1584 m
0.5682 0.1484 l
s
n
0.6058 0.1584 m
0.6058 0.1484 l
s
n
0.6247 0.1584 m
0.6247 0.1484 l
s
n
0.6435 0.1584 m
0.6435 0.1484 l
s
n
0.6623 0.1584 m
0.6623 0.1484 l
s
n
0.6811 0.1584 m
0.6811 0.1484 l
s
n
0.7000 0.1584 m
0.7000 0.1484 l
s
n
0.7188 0.1584 m
0.7188 0.1484 l
s
n
0.7376 0.1584 m
0.7376 0.1484 l
s
n
0.7565 0.1584 m
0.7565 0.1484 l
s
n
0.7753 0.1584 m
0.7753 0.1484 l
s
n
0.8129 0.1584 m
0.8129 0.1484 l
s
n
0.8318 0.1584 m
0.8318 0.1484 l
s
n
0.8506 0.1584 m
0.8506 0.1484 l
s
n
0.8694 0.1584 m
0.8694 0.1484 l
s
n
0.8883 0.1584 m
0.8883 0.1484 l
s
n
0.9071 0.1584 m
0.9071 0.1484 l
s
n
0.9259 0.1584 m
0.9259 0.1484 l
s
n
0.9447 0.1584 m
0.9447 0.1484 l
s
n
0.9636 0.1584 m
0.9636 0.1484 l
s
n
0.9824 0.1584 m
0.9824 0.1484 l
s
n
1.0201 0.1584 m
1.0201 0.1484 l
s
n
1.0389 0.1584 m
1.0389 0.1484 l
s
n
1.0577 0.1584 m
1.0577 0.1484 l
s
n
1.0765 0.1584 m
1.0765 0.1484 l
s
n
1.0954 0.1584 m
1.0954 0.1484 l
s
n
1.1142 0.1584 m
1.1142 0.1484 l
s
n
1.1330 0.1584 m
1.1330 0.1484 l
s
n
1.1518 0.1584 m
1.1518 0.1484 l
s
n
1.1707 0.1584 m
1.1707 0.1484 l
s
n
1.1895 0.1584 m
1.1895 0.1484 l
s
n
0.1728 0.1584 m
0.1728 0.1384 l
s
n
0.3799 0.1584 m
0.3799 0.1384 l
s
n
0.5870 0.1584 m
0.5870 0.1384 l
s
n
0.7941 0.1584 m
0.7941 0.1384 l
s
n
1.0012 0.1584 m
1.0012 0.1384 l
s
n
1.2083 0.1584 m
1.2083 0.1384 l
s
/Times-Roman findfont
dup length dict begin
 {1 index /FID ne {def} {pop pop} ifelse} forall
 /Encoding DefEncoding def
 currentdict
end
/Font41 exch definefont pop
/Font41 FFSF
0.1661 0.1096 m
GS
[0.0280 0.0000 0.0000 0.0280 0 0] CC
(0) show
GR
/Font41 FFSF
0.3744 0.1096 m
GS
[0.0280 0.0000 0.0000 0.0280 0 0] CC
(1) show
GR
/Font41 FFSF
0.5803 0.1096 m
GS
[0.0280 0.0000 0.0000 0.0280 0 0] CC
(2) show
GR
/Font41 FFSF
0.7880 0.1096 m
GS
[0.0280 0.0000 0.0000 0.0280 0 0] CC
(3) show
GR
/Font41 FFSF
0.9946 0.1096 m
GS
[0.0280 0.0000 0.0000 0.0280 0 0] CC
(4) show
GR
/Font41 FFSF
1.2023 0.1092 m
GS
[0.0280 0.0000 0.0000 0.0280 0 0] CC
(5) show
GR
/Font41 FFSF
0.6223 0.0706 m
GS
[0.0420 0.0000 0.0000 0.0420 0 0] CC
(KBT \(J\)) show
GR
n
0.1728 0.1471 m
0.1728 0.8517 l
s
n
0.1728 0.2153 m
0.1828 0.2153 l
s
n
0.1728 0.3289 m
0.1828 0.3289 l
s
n
0.1728 0.4426 m
0.1828 0.4426 l
s
n
0.1728 0.5562 m
0.1828 0.5562 l
s
n
0.1728 0.6699 m
0.1828 0.6699 l
s
n
0.1728 0.7835 m
0.1828 0.7835 l
s
n
0.1728 0.1584 m
0.1928 0.1584 l
s
n
0.1728 0.2721 m
0.1928 0.2721 l
s
n
0.1728 0.3857 m
0.1928 0.3857 l
s
n
0.1728 0.4994 m
0.1928 0.4994 l
s
n
0.1728 0.6130 m
0.1928 0.6130 l
s
n
0.1728 0.7267 m
0.1928 0.7267 l
s
n
0.1728 0.8404 m
0.1928 0.8404 l
s
/Font41 FFSF
0.1495 0.1492 m
GS
[0.0280 0.0000 0.0000 0.0280 0 0] CC
(0) show
GR
/Font41 FFSF
0.1075 0.2629 m
GS
[0.0280 0.0000 0.0000 0.0280 0 0] CC
(1000) show
GR
/Font41 FFSF
0.1075 0.3765 m
GS
[0.0280 0.0000 0.0000 0.0280 0 0] CC
(2000) show
GR
/Font41 FFSF
0.1075 0.4902 m
GS
[0.0280 0.0000 0.0000 0.0280 0 0] CC
(3000) show
GR
/Font41 FFSF
0.1075 0.6038 m
GS
[0.0280 0.0000 0.0000 0.0280 0 0] CC
(4000) show
GR
/Font41 FFSF
0.1075 0.7173 m
GS
[0.0280 0.0000 0.0000 0.0280 0 0] CC
(5000) show
GR
/Font41 FFSF
0.1075 0.8309 m
GS
[0.0280 0.0000 0.0000 0.0280 0 0] CC
(6000) show
GR
/Font41 FFSF
0.0885 0.2549 m
GS
[0.0000 0.0420 -0.0420 0.0000 0 0] CC
(Pasos de Metropolis por sitio) show
GR
n
0.1728 0.1471 m
0.1728 0.8517 l
1.2083 0.8517 l
1.2083 0.1471 l
0.1728 0.1471 l
c
s
/Font41 FFSF
0.4551 0.9239 m
GS
[0.0560 0.0000 0.0000 0.0560 0 0] CC
(Tiempo de equilibrio) show
GR
%%Trailer
%%BoundingBox: 35 37 745 590
%%DocumentNeededResources: font Times-Roman
%%EOF
