%!PS-Adobe-3.0 EPSF-3.0
%%BoundingBox: (atend)
%%LanguageLevel: 2
%%Creator: Grace-5.1.24
%%CreationDate: Tue Nov 29 05:44:58 2016
%%DocumentData: Clean8Bit
%%Orientation: Portrait
%%Title: /home/juanchoflo/Escritorio/UNAL2016-2/HerramientasComputacionales/ProyectoFinal/simulacion/ModeloIsing/Datos/VariablesTermodinamicas/Magnetizacion.agr
%%For: juanchoflo
%%DocumentNeededResources: (atend)
%%EndComments
%%BeginProlog
/m {moveto} def
/l {lineto} def
/s {stroke} def
/n {newpath} def
/c {closepath} def
/RL {rlineto} def
/SLW {setlinewidth} def
/GS {gsave} def
/GR {grestore} def
/SC {setcolor} def
/SGRY {setgray} def
/SRGB {setrgbcolor} def
/SD {setdash} def
/SLC {setlinecap} def
/SLJ {setlinejoin} def
/SCS {setcolorspace} def
/FFSF {findfont setfont} def
/CC {concat} def
/PXL {n m 0 0 RL s} def
/Color0 {1.0000 1.0000 1.0000} def
/Color1 {0.0000 0.0000 0.0000} def
/Color2 {1.0000 0.0000 0.0000} def
/Color3 {0.0000 1.0000 0.0000} def
/Color4 {0.0000 0.0000 1.0000} def
/Color5 {1.0000 1.0000 0.0000} def
/Color6 {0.7373 0.5608 0.5608} def
/Color7 {0.8627 0.8627 0.8627} def
/Color8 {0.5804 0.0000 0.8275} def
/Color9 {0.0000 1.0000 1.0000} def
/Color10 {1.0000 0.0000 1.0000} def
/Color11 {1.0000 0.6471 0.0000} def
/Color12 {0.4471 0.1294 0.7373} def
/Color13 {0.4039 0.0275 0.2824} def
/Color14 {0.2510 0.8784 0.8157} def
/Color15 {0.0000 0.5451 0.0000} def
/Color16 {0.7529 0.7529 0.7529} def
/Color17 {0.5059 0.5059 0.5059} def
/Color18 {0.2588 0.2588 0.2588} def
/PTRN {
 /pat_bits exch def 
 <<
  /PaintType 2
  /PatternType 1 /TilingType 1
  /BBox[0 0 16 16]
  /XStep 16 /YStep 16
  /PaintProc {
   pop
   16 16 true [-1 0 0 -1 16 16] pat_bits imagemask
  }
 >>
 [0.0016 0 0 0.0016 0 0]
 makepattern
} def
/Pattern0 {<0000000000000000000000000000000000000000000000000000000000000000> PTRN} bind def
/Pattern1 {<ffffffffffffffffffffffffffffffffffffffffffffffffffffffffffffffff> PTRN} bind def
/Pattern2 {<eeeeffffbbbbffffeeeeffffbbbbffffeeeeffffbbbbffffeeeeffffbbbbffff> PTRN} bind def
/Pattern3 {<eeeebbbbeeeebbbbeeeebbbbeeeebbbbeeeebbbbeeeebbbbeeeebbbbeeeebbbb> PTRN} bind def
/Pattern4 {<5555aaaa5555aaaa5555aaaa5555aaaa5555aaaa5555aaaa5555aaaa5555aaaa> PTRN} bind def
/Pattern5 {<1111444411114444111144441111444411114444111144441111444411114444> PTRN} bind def
/Pattern6 {<1111000044440000111100004444000011110000444400001111000044440000> PTRN} bind def
/Pattern7 {<1010000000000000010100000000000010100000000000000101000000000000> PTRN} bind def
/Pattern8 {<0000000000000000000000000000000000000000000000000000000000000000> PTRN} bind def
/Pattern9 {<1e1e0f0f8787c3c3e1e1f0f078783c3c1e1e0f0f8787c3c3e1e1f0f078783c3c> PTRN} bind def
/Pattern10 {<7878f0f0e1e1c3c387870f0f1e1e3c3c7878f0f0e1e1c3c387870f0f1e1e3c3c> PTRN} bind def
/Pattern11 {<3333333333333333333333333333333333333333333333333333333333333333> PTRN} bind def
/Pattern12 {<ffffffff00000000ffffffff00000000ffffffff00000000ffffffff00000000> PTRN} bind def
/Pattern13 {<8181424224241818181824244242818181814242242418181818242442428181> PTRN} bind def
/Pattern14 {<8080404020201010080804040202010180804040202010100808040402020101> PTRN} bind def
/Pattern15 {<0101020204040808101020204040808001010202040408081010202040408080> PTRN} bind def
/Pattern16 {<2222222222222222222222222222222222222222222222222222222222222222> PTRN} bind def
/Pattern17 {<0000ffff000000000000ffff000000000000ffff000000000000ffff00000000> PTRN} bind def
/Pattern18 {<2222ffff222222222222ffff222222222222ffff222222222222ffff22222222> PTRN} bind def
/Pattern19 {<ffffffff33333333ffffffff33333333ffffffff33333333ffffffff33333333> PTRN} bind def
/Pattern20 {<0f0f0f0f0f0f0f0ff0f0f0f0f0f0f0f00f0f0f0f0f0f0f0ff0f0f0f0f0f0f0f0> PTRN} bind def
/Pattern21 {<ff00ff00ff00ff00ff00ff00ff00ff0000ff00ff00ff00ff00ff00ff00ff00ff> PTRN} bind def
/Pattern22 {<8001800180018001800180018001ffffffff8001800180018001800180018001> PTRN} bind def
/Pattern23 {<c003c003c003c003c003c003ffffffffffffffffc003c003c003c003c003c003> PTRN} bind def
/Pattern24 {<040404040404ffff404040404040ffff040404040404ffff404040404040ffff> PTRN} bind def
/Pattern25 {<180018001800180018001800ffffffff001800180018001800180018ffffffff> PTRN} bind def
/Pattern26 {<1111b8b87c7c3a3a1111a3a3c7c78b8b1111b8b87c7c3a3a1111a3a3c7c78b8b> PTRN} bind def
/Pattern27 {<101010102828c7c70101010182827c7c101010102828c7c70101010182827c7c> PTRN} bind def
/Pattern28 {<1c1c121211112121c1c12121111112121c1c121211112121c1c1212111111212> PTRN} bind def
/Pattern29 {<3e3e414180808080e3e31414080808083e3e414180808080e3e3141408080808> PTRN} bind def
/Pattern30 {<4848888884848383848488884848383848488888848483838484888848483838> PTRN} bind def
/Pattern31 {<03030404080808080c0c12122121c0c003030404080808080c0c12122121c0c0> PTRN} bind def
/ellipsedict 8 dict def
ellipsedict /mtrx matrix put
/EARC {
 ellipsedict begin
  /endangle exch def
  /startangle exch def
  /yrad exch def
  /xrad exch def
  /y exch def
  /x exch def
  /savematrix mtrx currentmatrix def
  x y translate
  xrad yrad scale
  0 0 1 startangle endangle arc
  savematrix setmatrix
 end
} def
/TL {
  /kcomp exch def
  /linewidth exch def
  /offset exch def
  GS
  0 offset rmoveto
  linewidth SLW
  dup stringwidth exch kcomp add exch RL s
  GR
} def
/KINIT
{
 /kvector exch def
 /kid 0 def
} def
/KPROC
{
 pop pop
 kvector kid get
 0 rmoveto
 /kid 1 kid add def
} def
/DefEncoding [
 /.notdef
 /.notdef
 /.notdef
 /.notdef
 /.notdef
 /.notdef
 /.notdef
 /.notdef
 /.notdef
 /.notdef
 /.notdef
 /.notdef
 /.notdef
 /.notdef
 /.notdef
 /.notdef
 /.notdef
 /.notdef
 /.notdef
 /.notdef
 /.notdef
 /.notdef
 /.notdef
 /.notdef
 /.notdef
 /.notdef
 /.notdef
 /.notdef
 /.notdef
 /.notdef
 /.notdef
 /.notdef
 /space
 /exclam
 /quotedbl
 /numbersign
 /dollar
 /percent
 /ampersand
 /quoteright
 /parenleft
 /parenright
 /asterisk
 /plus
 /comma
 /hyphen
 /period
 /slash
 /zero
 /one
 /two
 /three
 /four
 /five
 /six
 /seven
 /eight
 /nine
 /colon
 /semicolon
 /less
 /equal
 /greater
 /question
 /at
 /A
 /B
 /C
 /D
 /E
 /F
 /G
 /H
 /I
 /J
 /K
 /L
 /M
 /N
 /O
 /P
 /Q
 /R
 /S
 /T
 /U
 /V
 /W
 /X
 /Y
 /Z
 /bracketleft
 /backslash
 /bracketright
 /asciicircum
 /underscore
 /grave
 /a
 /b
 /c
 /d
 /e
 /f
 /g
 /h
 /i
 /j
 /k
 /l
 /m
 /n
 /o
 /p
 /q
 /r
 /s
 /t
 /u
 /v
 /w
 /x
 /y
 /z
 /braceleft
 /bar
 /braceright
 /asciitilde
 /.notdef
 /.notdef
 /.notdef
 /.notdef
 /.notdef
 /.notdef
 /.notdef
 /.notdef
 /.notdef
 /.notdef
 /.notdef
 /.notdef
 /.notdef
 /.notdef
 /.notdef
 /.notdef
 /.notdef
 /.notdef
 /.notdef
 /.notdef
 /.notdef
 /.notdef
 /.notdef
 /.notdef
 /.notdef
 /.notdef
 /.notdef
 /.notdef
 /.notdef
 /.notdef
 /.notdef
 /.notdef
 /.notdef
 /space
 /exclamdown
 /cent
 /sterling
 /currency
 /yen
 /brokenbar
 /section
 /dieresis
 /copyright
 /ordfeminine
 /guillemotleft
 /logicalnot
 /hyphen
 /registered
 /macron
 /degree
 /plusminus
 /twosuperior
 /threesuperior
 /acute
 /mu
 /paragraph
 /periodcentered
 /cedilla
 /onesuperior
 /ordmasculine
 /guillemotright
 /onequarter
 /onehalf
 /threequarters
 /questiondown
 /Agrave
 /Aacute
 /Acircumflex
 /Atilde
 /Adieresis
 /Aring
 /AE
 /Ccedilla
 /Egrave
 /Eacute
 /Ecircumflex
 /Edieresis
 /Igrave
 /Iacute
 /Icircumflex
 /Idieresis
 /Eth
 /Ntilde
 /Ograve
 /Oacute
 /Ocircumflex
 /Otilde
 /Odieresis
 /multiply
 /Oslash
 /Ugrave
 /Uacute
 /Ucircumflex
 /Udieresis
 /Yacute
 /Thorn
 /germandbls
 /agrave
 /aacute
 /acircumflex
 /atilde
 /adieresis
 /aring
 /ae
 /ccedilla
 /egrave
 /eacute
 /ecircumflex
 /edieresis
 /igrave
 /iacute
 /icircumflex
 /idieresis
 /eth
 /ntilde
 /ograve
 /oacute
 /ocircumflex
 /otilde
 /odieresis
 /divide
 /oslash
 /ugrave
 /uacute
 /ucircumflex
 /udieresis
 /yacute
 /thorn
 /ydieresis
] def
%%EndProlog
%%BeginSetup
%%EndSetup
612.00 612.00 scale
n
0.0000 0.0000 m
0.0000 1.0000 l
1.2941 1.0000 l
1.2941 0.0000 l
c
[/DeviceRGB] SCS
Color0 SC
fill
[/DeviceRGB] SCS
Color2 SC
[] 0 SD
0.0015 SLW
0 SLC
0 SLJ
n
0.1900 0.8167 m
0.2100 0.8167 l
0.2300 0.8167 l
0.2500 0.8167 l
0.2700 0.8167 l
0.2900 0.8167 l
0.3100 0.8166 l
0.3300 0.8165 l
0.3500 0.8162 l
0.3700 0.8156 l
0.3900 0.8146 l
0.4100 0.8132 l
0.4300 0.8109 l
0.4500 0.8074 l
0.4700 0.8034 l
0.4900 0.7964 l
0.5100 0.7872 l
0.5300 0.7752 l
0.5500 0.7578 l
0.5700 0.7304 l
0.5900 0.6908 l
0.6100 0.6385 l
0.6300 0.5761 l
0.6500 0.5056 l
0.6700 0.4538 l
0.6900 0.4130 l
0.7100 0.3770 l
0.7300 0.3529 l
0.7500 0.3370 l
0.7700 0.3182 l
0.7900 0.3093 l
0.8100 0.2924 l
0.8300 0.2891 l
0.8500 0.2842 l
0.8700 0.2771 l
0.8900 0.2741 l
0.9100 0.2683 l
0.9300 0.2665 l
0.9500 0.2590 l
0.9700 0.2577 l
0.9900 0.2543 l
1.0100 0.2533 l
1.0300 0.2491 l
1.0500 0.2491 l
1.0700 0.2473 l
1.0900 0.2449 l
1.1100 0.2415 l
1.1300 0.2424 l
1.1500 0.2412 l
s
n
0.2900 0.8167 m
0.2900 0.8167 l
s
[] 0 SD
0.0030 SLW
n
0.2900 0.8267 m
0.2900 0.8067 l
s
[] 0 SD
0.0015 SLW
n
0.3100 0.8166 m
0.3100 0.8166 l
s
[] 0 SD
0.0030 SLW
n
0.3100 0.8266 m
0.3100 0.8066 l
s
[] 0 SD
0.0015 SLW
n
0.3300 0.8165 m
0.3300 0.8165 l
s
[] 0 SD
0.0030 SLW
n
0.3300 0.8265 m
0.3300 0.8065 l
s
[] 0 SD
0.0015 SLW
n
0.3500 0.8162 m
0.3500 0.8162 l
s
[] 0 SD
0.0030 SLW
n
0.3500 0.8262 m
0.3500 0.8062 l
s
[] 0 SD
0.0015 SLW
n
0.3700 0.8156 m
0.3700 0.8156 l
s
[] 0 SD
0.0030 SLW
n
0.3700 0.8256 m
0.3700 0.8056 l
s
[] 0 SD
0.0015 SLW
n
0.3900 0.8146 m
0.3900 0.8146 l
s
[] 0 SD
0.0030 SLW
n
0.3900 0.8246 m
0.3900 0.8046 l
s
[] 0 SD
0.0015 SLW
n
0.4100 0.8132 m
0.4100 0.8132 l
s
[] 0 SD
0.0030 SLW
n
0.4100 0.8232 m
0.4100 0.8032 l
s
[] 0 SD
0.0015 SLW
n
0.4300 0.8109 m
0.4301 0.8109 l
s
[] 0 SD
0.0030 SLW
n
0.4301 0.8209 m
0.4301 0.8009 l
s
[] 0 SD
0.0015 SLW
n
0.4500 0.8074 m
0.4501 0.8074 l
s
[] 0 SD
0.0030 SLW
n
0.4501 0.8174 m
0.4501 0.7974 l
s
[] 0 SD
0.0015 SLW
n
0.4700 0.8034 m
0.4701 0.8034 l
s
[] 0 SD
0.0030 SLW
n
0.4701 0.8134 m
0.4701 0.7934 l
s
[] 0 SD
0.0015 SLW
n
0.4900 0.7964 m
0.4901 0.7964 l
s
[] 0 SD
0.0030 SLW
n
0.4901 0.8064 m
0.4901 0.7864 l
s
[] 0 SD
0.0015 SLW
n
0.5100 0.7872 m
0.5102 0.7872 l
s
[] 0 SD
0.0030 SLW
n
0.5102 0.7972 m
0.5102 0.7772 l
s
[] 0 SD
0.0015 SLW
n
0.5300 0.7752 m
0.5302 0.7752 l
s
[] 0 SD
0.0030 SLW
n
0.5302 0.7852 m
0.5302 0.7652 l
s
[] 0 SD
0.0015 SLW
n
0.5500 0.7578 m
0.5503 0.7578 l
s
[] 0 SD
0.0030 SLW
n
0.5503 0.7678 m
0.5503 0.7478 l
s
[] 0 SD
0.0015 SLW
n
0.5700 0.7304 m
0.5704 0.7304 l
s
[] 0 SD
0.0030 SLW
n
0.5704 0.7404 m
0.5704 0.7204 l
s
[] 0 SD
0.0015 SLW
n
0.5900 0.6908 m
0.5905 0.6908 l
s
[] 0 SD
0.0030 SLW
n
0.5905 0.7008 m
0.5905 0.6808 l
s
[] 0 SD
0.0015 SLW
n
0.6100 0.6385 m
0.6107 0.6385 l
s
[] 0 SD
0.0030 SLW
n
0.6107 0.6485 m
0.6107 0.6285 l
s
[] 0 SD
0.0015 SLW
n
0.6300 0.5761 m
0.6308 0.5761 l
s
[] 0 SD
0.0030 SLW
n
0.6308 0.5861 m
0.6308 0.5661 l
s
[] 0 SD
0.0015 SLW
n
0.6500 0.5056 m
0.6508 0.5056 l
s
[] 0 SD
0.0030 SLW
n
0.6508 0.5156 m
0.6508 0.4956 l
s
[] 0 SD
0.0015 SLW
n
0.6700 0.4538 m
0.6708 0.4538 l
s
[] 0 SD
0.0030 SLW
n
0.6708 0.4638 m
0.6708 0.4438 l
s
[] 0 SD
0.0015 SLW
n
0.6900 0.4130 m
0.6907 0.4130 l
s
[] 0 SD
0.0030 SLW
n
0.6907 0.4230 m
0.6907 0.4030 l
s
[] 0 SD
0.0015 SLW
n
0.7100 0.3770 m
0.7107 0.3770 l
s
[] 0 SD
0.0030 SLW
n
0.7107 0.3870 m
0.7107 0.3670 l
s
[] 0 SD
0.0015 SLW
n
0.7300 0.3529 m
0.7307 0.3529 l
s
[] 0 SD
0.0030 SLW
n
0.7307 0.3629 m
0.7307 0.3429 l
s
[] 0 SD
0.0015 SLW
n
0.7500 0.3370 m
0.7506 0.3370 l
s
[] 0 SD
0.0030 SLW
n
0.7506 0.3470 m
0.7506 0.3270 l
s
[] 0 SD
0.0015 SLW
n
0.7700 0.3182 m
0.7706 0.3182 l
s
[] 0 SD
0.0030 SLW
n
0.7706 0.3282 m
0.7706 0.3082 l
s
[] 0 SD
0.0015 SLW
n
0.7900 0.3093 m
0.7905 0.3093 l
s
[] 0 SD
0.0030 SLW
n
0.7905 0.3193 m
0.7905 0.2993 l
s
[] 0 SD
0.0015 SLW
n
0.8100 0.2924 m
0.8105 0.2924 l
s
[] 0 SD
0.0030 SLW
n
0.8105 0.3024 m
0.8105 0.2824 l
s
[] 0 SD
0.0015 SLW
n
0.8300 0.2891 m
0.8305 0.2891 l
s
[] 0 SD
0.0030 SLW
n
0.8305 0.2991 m
0.8305 0.2791 l
s
[] 0 SD
0.0015 SLW
n
0.8500 0.2842 m
0.8505 0.2842 l
s
[] 0 SD
0.0030 SLW
n
0.8505 0.2942 m
0.8505 0.2742 l
s
[] 0 SD
0.0015 SLW
n
0.8700 0.2771 m
0.8704 0.2771 l
s
[] 0 SD
0.0030 SLW
n
0.8704 0.2871 m
0.8704 0.2671 l
s
[] 0 SD
0.0015 SLW
n
0.8900 0.2741 m
0.8904 0.2741 l
s
[] 0 SD
0.0030 SLW
n
0.8904 0.2841 m
0.8904 0.2641 l
s
[] 0 SD
0.0015 SLW
n
0.9100 0.2683 m
0.9104 0.2683 l
s
[] 0 SD
0.0030 SLW
n
0.9104 0.2783 m
0.9104 0.2583 l
s
[] 0 SD
0.0015 SLW
n
0.9300 0.2665 m
0.9304 0.2665 l
s
[] 0 SD
0.0030 SLW
n
0.9304 0.2765 m
0.9304 0.2565 l
s
[] 0 SD
0.0015 SLW
n
0.9500 0.2590 m
0.9504 0.2590 l
s
[] 0 SD
0.0030 SLW
n
0.9504 0.2690 m
0.9504 0.2490 l
s
[] 0 SD
0.0015 SLW
n
0.9700 0.2577 m
0.9704 0.2577 l
s
[] 0 SD
0.0030 SLW
n
0.9704 0.2677 m
0.9704 0.2477 l
s
[] 0 SD
0.0015 SLW
n
0.9900 0.2543 m
0.9904 0.2543 l
s
[] 0 SD
0.0030 SLW
n
0.9904 0.2643 m
0.9904 0.2443 l
s
[] 0 SD
0.0015 SLW
n
1.0100 0.2533 m
1.0104 0.2533 l
s
[] 0 SD
0.0030 SLW
n
1.0104 0.2633 m
1.0104 0.2433 l
s
[] 0 SD
0.0015 SLW
n
1.0300 0.2491 m
1.0304 0.2491 l
s
[] 0 SD
0.0030 SLW
n
1.0304 0.2591 m
1.0304 0.2391 l
s
[] 0 SD
0.0015 SLW
n
1.0500 0.2491 m
1.0504 0.2491 l
s
[] 0 SD
0.0030 SLW
n
1.0504 0.2591 m
1.0504 0.2391 l
s
[] 0 SD
0.0015 SLW
n
1.0700 0.2473 m
1.0703 0.2473 l
s
[] 0 SD
0.0030 SLW
n
1.0703 0.2573 m
1.0703 0.2373 l
s
[] 0 SD
0.0015 SLW
n
1.0900 0.2449 m
1.0903 0.2449 l
s
[] 0 SD
0.0030 SLW
n
1.0903 0.2549 m
1.0903 0.2349 l
s
[] 0 SD
0.0015 SLW
n
1.1100 0.2415 m
1.1103 0.2415 l
s
[] 0 SD
0.0030 SLW
n
1.1103 0.2515 m
1.1103 0.2315 l
s
[] 0 SD
0.0015 SLW
n
1.1300 0.2424 m
1.1303 0.2424 l
s
[] 0 SD
0.0030 SLW
n
1.1303 0.2524 m
1.1303 0.2324 l
s
[] 0 SD
0.0015 SLW
n
1.1500 0.2412 m
1.1501 0.2412 l
s
n
0.1865 0.8132 m
0.1865 0.8202 l
0.1935 0.8202 l
0.1935 0.8132 l
c
fill
n
0.1865 0.8132 m
0.1865 0.8202 l
0.1935 0.8202 l
0.1935 0.8132 l
0.1865 0.8132 l
c
s
n
0.2065 0.8132 m
0.2065 0.8202 l
0.2135 0.8202 l
0.2135 0.8132 l
c
fill
n
0.2065 0.8132 m
0.2065 0.8202 l
0.2135 0.8202 l
0.2135 0.8132 l
0.2065 0.8132 l
c
s
n
0.2265 0.8132 m
0.2265 0.8202 l
0.2335 0.8202 l
0.2335 0.8132 l
c
fill
n
0.2265 0.8132 m
0.2265 0.8202 l
0.2335 0.8202 l
0.2335 0.8132 l
0.2265 0.8132 l
c
s
n
0.2465 0.8132 m
0.2465 0.8202 l
0.2535 0.8202 l
0.2535 0.8132 l
c
fill
n
0.2465 0.8132 m
0.2465 0.8202 l
0.2535 0.8202 l
0.2535 0.8132 l
0.2465 0.8132 l
c
s
n
0.2665 0.8132 m
0.2665 0.8202 l
0.2735 0.8202 l
0.2735 0.8132 l
c
fill
n
0.2665 0.8132 m
0.2665 0.8202 l
0.2735 0.8202 l
0.2735 0.8132 l
0.2665 0.8132 l
c
s
n
0.2865 0.8132 m
0.2865 0.8201 l
0.2935 0.8201 l
0.2935 0.8132 l
c
fill
n
0.2865 0.8132 m
0.2865 0.8201 l
0.2935 0.8201 l
0.2935 0.8132 l
0.2865 0.8132 l
c
s
n
0.3065 0.8131 m
0.3065 0.8201 l
0.3135 0.8201 l
0.3135 0.8131 l
c
fill
n
0.3065 0.8131 m
0.3065 0.8201 l
0.3135 0.8201 l
0.3135 0.8131 l
0.3065 0.8131 l
c
s
n
0.3265 0.8130 m
0.3265 0.8200 l
0.3335 0.8200 l
0.3335 0.8130 l
c
fill
n
0.3265 0.8130 m
0.3265 0.8200 l
0.3335 0.8200 l
0.3335 0.8130 l
0.3265 0.8130 l
c
s
n
0.3465 0.8127 m
0.3465 0.8197 l
0.3535 0.8197 l
0.3535 0.8127 l
c
fill
n
0.3465 0.8127 m
0.3465 0.8197 l
0.3535 0.8197 l
0.3535 0.8127 l
0.3465 0.8127 l
c
s
n
0.3665 0.8121 m
0.3665 0.8191 l
0.3735 0.8191 l
0.3735 0.8121 l
c
fill
n
0.3665 0.8121 m
0.3665 0.8191 l
0.3735 0.8191 l
0.3735 0.8121 l
0.3665 0.8121 l
c
s
n
0.3865 0.8111 m
0.3865 0.8181 l
0.3935 0.8181 l
0.3935 0.8111 l
c
fill
n
0.3865 0.8111 m
0.3865 0.8181 l
0.3935 0.8181 l
0.3935 0.8111 l
0.3865 0.8111 l
c
s
n
0.4065 0.8097 m
0.4065 0.8167 l
0.4135 0.8167 l
0.4135 0.8097 l
c
fill
n
0.4065 0.8097 m
0.4065 0.8167 l
0.4135 0.8167 l
0.4135 0.8097 l
0.4065 0.8097 l
c
s
n
0.4265 0.8074 m
0.4265 0.8144 l
0.4335 0.8144 l
0.4335 0.8074 l
c
fill
n
0.4265 0.8074 m
0.4265 0.8144 l
0.4335 0.8144 l
0.4335 0.8074 l
0.4265 0.8074 l
c
s
n
0.4465 0.8039 m
0.4465 0.8109 l
0.4535 0.8109 l
0.4535 0.8039 l
c
fill
n
0.4465 0.8039 m
0.4465 0.8109 l
0.4535 0.8109 l
0.4535 0.8039 l
0.4465 0.8039 l
c
s
n
0.4665 0.7999 m
0.4665 0.8069 l
0.4735 0.8069 l
0.4735 0.7999 l
c
fill
n
0.4665 0.7999 m
0.4665 0.8069 l
0.4735 0.8069 l
0.4735 0.7999 l
0.4665 0.7999 l
c
s
n
0.4865 0.7929 m
0.4865 0.7998 l
0.4935 0.7998 l
0.4935 0.7929 l
c
fill
n
0.4865 0.7929 m
0.4865 0.7998 l
0.4935 0.7998 l
0.4935 0.7929 l
0.4865 0.7929 l
c
s
n
0.5065 0.7837 m
0.5065 0.7906 l
0.5135 0.7906 l
0.5135 0.7837 l
c
fill
n
0.5065 0.7837 m
0.5065 0.7906 l
0.5135 0.7906 l
0.5135 0.7837 l
0.5065 0.7837 l
c
s
n
0.5265 0.7717 m
0.5265 0.7787 l
0.5335 0.7787 l
0.5335 0.7717 l
c
fill
n
0.5265 0.7717 m
0.5265 0.7787 l
0.5335 0.7787 l
0.5335 0.7717 l
0.5265 0.7717 l
c
s
n
0.5465 0.7543 m
0.5465 0.7613 l
0.5535 0.7613 l
0.5535 0.7543 l
c
fill
n
0.5465 0.7543 m
0.5465 0.7613 l
0.5535 0.7613 l
0.5535 0.7543 l
0.5465 0.7543 l
c
s
n
0.5665 0.7269 m
0.5665 0.7338 l
0.5735 0.7338 l
0.5735 0.7269 l
c
fill
n
0.5665 0.7269 m
0.5665 0.7338 l
0.5735 0.7338 l
0.5735 0.7269 l
0.5665 0.7269 l
c
s
n
0.5865 0.6873 m
0.5865 0.6943 l
0.5935 0.6943 l
0.5935 0.6873 l
c
fill
n
0.5865 0.6873 m
0.5865 0.6943 l
0.5935 0.6943 l
0.5935 0.6873 l
0.5865 0.6873 l
c
s
n
0.6065 0.6350 m
0.6065 0.6419 l
0.6135 0.6419 l
0.6135 0.6350 l
c
fill
n
0.6065 0.6350 m
0.6065 0.6419 l
0.6135 0.6419 l
0.6135 0.6350 l
0.6065 0.6350 l
c
s
n
0.6265 0.5726 m
0.6265 0.5796 l
0.6335 0.5796 l
0.6335 0.5726 l
c
fill
n
0.6265 0.5726 m
0.6265 0.5796 l
0.6335 0.5796 l
0.6335 0.5726 l
0.6265 0.5726 l
c
s
n
0.6465 0.5021 m
0.6465 0.5091 l
0.6535 0.5091 l
0.6535 0.5021 l
c
fill
n
0.6465 0.5021 m
0.6465 0.5091 l
0.6535 0.5091 l
0.6535 0.5021 l
0.6465 0.5021 l
c
s
n
0.6665 0.4503 m
0.6665 0.4573 l
0.6735 0.4573 l
0.6735 0.4503 l
c
fill
n
0.6665 0.4503 m
0.6665 0.4573 l
0.6735 0.4573 l
0.6735 0.4503 l
0.6665 0.4503 l
c
s
n
0.6865 0.4095 m
0.6865 0.4165 l
0.6935 0.4165 l
0.6935 0.4095 l
c
fill
n
0.6865 0.4095 m
0.6865 0.4165 l
0.6935 0.4165 l
0.6935 0.4095 l
0.6865 0.4095 l
c
s
n
0.7065 0.3735 m
0.7065 0.3805 l
0.7135 0.3805 l
0.7135 0.3735 l
c
fill
n
0.7065 0.3735 m
0.7065 0.3805 l
0.7135 0.3805 l
0.7135 0.3735 l
0.7065 0.3735 l
c
s
n
0.7265 0.3494 m
0.7265 0.3564 l
0.7335 0.3564 l
0.7335 0.3494 l
c
fill
n
0.7265 0.3494 m
0.7265 0.3564 l
0.7335 0.3564 l
0.7335 0.3494 l
0.7265 0.3494 l
c
s
n
0.7465 0.3335 m
0.7465 0.3405 l
0.7535 0.3405 l
0.7535 0.3335 l
c
fill
n
0.7465 0.3335 m
0.7465 0.3405 l
0.7535 0.3405 l
0.7535 0.3335 l
0.7465 0.3335 l
c
s
n
0.7665 0.3148 m
0.7665 0.3217 l
0.7735 0.3217 l
0.7735 0.3148 l
c
fill
n
0.7665 0.3148 m
0.7665 0.3217 l
0.7735 0.3217 l
0.7735 0.3148 l
0.7665 0.3148 l
c
s
n
0.7865 0.3058 m
0.7865 0.3127 l
0.7935 0.3127 l
0.7935 0.3058 l
c
fill
n
0.7865 0.3058 m
0.7865 0.3127 l
0.7935 0.3127 l
0.7935 0.3058 l
0.7865 0.3058 l
c
s
n
0.8065 0.2889 m
0.8065 0.2959 l
0.8135 0.2959 l
0.8135 0.2889 l
c
fill
n
0.8065 0.2889 m
0.8065 0.2959 l
0.8135 0.2959 l
0.8135 0.2889 l
0.8065 0.2889 l
c
s
n
0.8265 0.2856 m
0.8265 0.2926 l
0.8335 0.2926 l
0.8335 0.2856 l
c
fill
n
0.8265 0.2856 m
0.8265 0.2926 l
0.8335 0.2926 l
0.8335 0.2856 l
0.8265 0.2856 l
c
s
n
0.8465 0.2807 m
0.8465 0.2877 l
0.8535 0.2877 l
0.8535 0.2807 l
c
fill
n
0.8465 0.2807 m
0.8465 0.2877 l
0.8535 0.2877 l
0.8535 0.2807 l
0.8465 0.2807 l
c
s
n
0.8665 0.2737 m
0.8665 0.2806 l
0.8735 0.2806 l
0.8735 0.2737 l
c
fill
n
0.8665 0.2737 m
0.8665 0.2806 l
0.8735 0.2806 l
0.8735 0.2737 l
0.8665 0.2737 l
c
s
n
0.8865 0.2706 m
0.8865 0.2776 l
0.8935 0.2776 l
0.8935 0.2706 l
c
fill
n
0.8865 0.2706 m
0.8865 0.2776 l
0.8935 0.2776 l
0.8935 0.2706 l
0.8865 0.2706 l
c
s
n
0.9065 0.2648 m
0.9065 0.2718 l
0.9135 0.2718 l
0.9135 0.2648 l
c
fill
n
0.9065 0.2648 m
0.9065 0.2718 l
0.9135 0.2718 l
0.9135 0.2648 l
0.9065 0.2648 l
c
s
n
0.9265 0.2630 m
0.9265 0.2700 l
0.9335 0.2700 l
0.9335 0.2630 l
c
fill
n
0.9265 0.2630 m
0.9265 0.2700 l
0.9335 0.2700 l
0.9335 0.2630 l
0.9265 0.2630 l
c
s
n
0.9465 0.2555 m
0.9465 0.2625 l
0.9535 0.2625 l
0.9535 0.2555 l
c
fill
n
0.9465 0.2555 m
0.9465 0.2625 l
0.9535 0.2625 l
0.9535 0.2555 l
0.9465 0.2555 l
c
s
n
0.9665 0.2542 m
0.9665 0.2612 l
0.9735 0.2612 l
0.9735 0.2542 l
c
fill
n
0.9665 0.2542 m
0.9665 0.2612 l
0.9735 0.2612 l
0.9735 0.2542 l
0.9665 0.2542 l
c
s
n
0.9865 0.2508 m
0.9865 0.2578 l
0.9935 0.2578 l
0.9935 0.2508 l
c
fill
n
0.9865 0.2508 m
0.9865 0.2578 l
0.9935 0.2578 l
0.9935 0.2508 l
0.9865 0.2508 l
c
s
n
1.0065 0.2498 m
1.0065 0.2568 l
1.0135 0.2568 l
1.0135 0.2498 l
c
fill
n
1.0065 0.2498 m
1.0065 0.2568 l
1.0135 0.2568 l
1.0135 0.2498 l
1.0065 0.2498 l
c
s
n
1.0265 0.2456 m
1.0265 0.2526 l
1.0335 0.2526 l
1.0335 0.2456 l
c
fill
n
1.0265 0.2456 m
1.0265 0.2526 l
1.0335 0.2526 l
1.0335 0.2456 l
1.0265 0.2456 l
c
s
n
1.0465 0.2456 m
1.0465 0.2526 l
1.0535 0.2526 l
1.0535 0.2456 l
c
fill
n
1.0465 0.2456 m
1.0465 0.2526 l
1.0535 0.2526 l
1.0535 0.2456 l
1.0465 0.2456 l
c
s
n
1.0665 0.2438 m
1.0665 0.2508 l
1.0735 0.2508 l
1.0735 0.2438 l
c
fill
n
1.0665 0.2438 m
1.0665 0.2508 l
1.0735 0.2508 l
1.0735 0.2438 l
1.0665 0.2438 l
c
s
n
1.0865 0.2414 m
1.0865 0.2484 l
1.0935 0.2484 l
1.0935 0.2414 l
c
fill
n
1.0865 0.2414 m
1.0865 0.2484 l
1.0935 0.2484 l
1.0935 0.2414 l
1.0865 0.2414 l
c
s
n
1.1065 0.2380 m
1.1065 0.2450 l
1.1135 0.2450 l
1.1135 0.2380 l
c
fill
n
1.1065 0.2380 m
1.1065 0.2450 l
1.1135 0.2450 l
1.1135 0.2380 l
1.1065 0.2380 l
c
s
n
1.1265 0.2390 m
1.1265 0.2459 l
1.1335 0.2459 l
1.1335 0.2390 l
c
fill
n
1.1265 0.2390 m
1.1265 0.2459 l
1.1335 0.2459 l
1.1335 0.2390 l
1.1265 0.2390 l
c
s
n
1.1465 0.2377 m
1.1465 0.2447 l
1.1535 0.2447 l
1.1535 0.2377 l
c
fill
n
1.1465 0.2377 m
1.1465 0.2447 l
1.1535 0.2447 l
1.1535 0.2377 l
1.1465 0.2377 l
c
s
[/DeviceRGB] SCS
Color1 SC
n
0.1500 0.1500 m
1.1500 0.1500 l
s
n
0.1833 0.1500 m
0.1833 0.1600 l
s
n
0.2167 0.1500 m
0.2167 0.1600 l
s
n
0.2500 0.1500 m
0.2500 0.1600 l
s
n
0.2833 0.1500 m
0.2833 0.1600 l
s
n
0.3167 0.1500 m
0.3167 0.1600 l
s
n
0.3833 0.1500 m
0.3833 0.1600 l
s
n
0.4167 0.1500 m
0.4167 0.1600 l
s
n
0.4500 0.1500 m
0.4500 0.1600 l
s
n
0.4833 0.1500 m
0.4833 0.1600 l
s
n
0.5167 0.1500 m
0.5167 0.1600 l
s
n
0.5833 0.1500 m
0.5833 0.1600 l
s
n
0.6167 0.1500 m
0.6167 0.1600 l
s
n
0.6500 0.1500 m
0.6500 0.1600 l
s
n
0.6833 0.1500 m
0.6833 0.1600 l
s
n
0.7167 0.1500 m
0.7167 0.1600 l
s
n
0.7833 0.1500 m
0.7833 0.1600 l
s
n
0.8167 0.1500 m
0.8167 0.1600 l
s
n
0.8500 0.1500 m
0.8500 0.1600 l
s
n
0.8833 0.1500 m
0.8833 0.1600 l
s
n
0.9167 0.1500 m
0.9167 0.1600 l
s
n
0.9833 0.1500 m
0.9833 0.1600 l
s
n
1.0167 0.1500 m
1.0167 0.1600 l
s
n
1.0500 0.1500 m
1.0500 0.1600 l
s
n
1.0833 0.1500 m
1.0833 0.1600 l
s
n
1.1167 0.1500 m
1.1167 0.1600 l
s
n
0.1500 0.1500 m
0.1500 0.1700 l
s
n
0.3500 0.1500 m
0.3500 0.1700 l
s
n
0.5500 0.1500 m
0.5500 0.1700 l
s
n
0.7500 0.1500 m
0.7500 0.1700 l
s
n
0.9500 0.1500 m
0.9500 0.1700 l
s
n
1.1500 0.1500 m
1.1500 0.1700 l
s
/Times-Roman findfont
dup length dict begin
 {1 index /FID ne {def} {pop pop} ifelse} forall
 /Encoding DefEncoding def
 currentdict
end
/Font41 exch definefont pop
/Font41 FFSF
0.1433 0.1212 m
GS
[0.0280 0.0000 0.0000 0.0280 0 0] CC
(0) show
GR
/Font41 FFSF
0.3445 0.1212 m
GS
[0.0280 0.0000 0.0000 0.0280 0 0] CC
(1) show
GR
/Font41 FFSF
0.5433 0.1212 m
GS
[0.0280 0.0000 0.0000 0.0280 0 0] CC
(2) show
GR
/Font41 FFSF
0.7439 0.1212 m
GS
[0.0280 0.0000 0.0000 0.0280 0 0] CC
(3) show
GR
/Font41 FFSF
0.9433 0.1212 m
GS
[0.0280 0.0000 0.0000 0.0280 0 0] CC
(4) show
GR
/Font41 FFSF
1.1439 0.1208 m
GS
[0.0280 0.0000 0.0000 0.0280 0 0] CC
(5) show
GR
/Font41 FFSF
0.5869 0.0822 m
GS
[0.0420 0.0000 0.0000 0.0420 0 0] CC
(KBT\(J\)) show
GR
n
0.1500 0.1500 m
0.1500 0.8500 l
s
n
0.1500 0.2167 m
0.1600 0.2167 l
s
n
0.1500 0.3500 m
0.1600 0.3500 l
s
n
0.1500 0.4833 m
0.1600 0.4833 l
s
n
0.1500 0.6167 m
0.1600 0.6167 l
s
n
0.1500 0.7500 m
0.1600 0.7500 l
s
n
0.1500 0.1500 m
0.1700 0.1500 l
s
n
0.1500 0.2833 m
0.1700 0.2833 l
s
n
0.1500 0.4167 m
0.1700 0.4167 l
s
n
0.1500 0.5500 m
0.1700 0.5500 l
s
n
0.1500 0.6833 m
0.1700 0.6833 l
s
n
0.1500 0.8167 m
0.1700 0.8167 l
s
/Font41 FFSF
0.1267 0.1408 m
GS
[0.0280 0.0000 0.0000 0.0280 0 0] CC
(0) show
GR
/Font41 FFSF
0.1055 0.2759 m
GS
[0.0280 0.0000 0.0000 0.0280 0 0] CC
(0,2) show
GR
/Font41 FFSF
0.1055 0.4092 m
GS
[0.0280 0.0000 0.0000 0.0280 0 0] CC
(0,4) show
GR
/Font41 FFSF
0.1059 0.5424 m
GS
[0.0280 0.0000 0.0000 0.0280 0 0] CC
(0,6) show
GR
/Font41 FFSF
0.1063 0.6759 m
GS
[0.0280 0.0000 0.0000 0.0280 0 0] CC
(0,8) show
GR
/Font41 FFSF
0.1290 0.8073 m
GS
[0.0280 0.0000 0.0000 0.0280 0 0] CC
(1) show
GR
/Font41 FFSF
0.0865 0.3010 m
GS
[0.0000 0.0420 -0.0420 0.0000 0 0] CC
(Magnetización por sitio) show
GR
n
0.1500 0.1500 m
0.1500 0.8500 l
1.1500 0.8500 l
1.1500 0.1500 l
0.1500 0.1500 l
c
s
%%Trailer
%%BoundingBox: 34 44 709 522
%%DocumentNeededResources: font Times-Roman
%%EOF
