%!PS-Adobe-3.0 EPSF-3.0
%%BoundingBox: (atend)
%%LanguageLevel: 2
%%Creator: Grace-5.1.24
%%CreationDate: Mon Nov 28 22:54:18 2016
%%DocumentData: Clean8Bit
%%Orientation: Portrait
%%Title: /home/juanchoflo/Escritorio/UNAL2016-2/HerramientasComputacionales/ProyectoFinal/simulacion/ModeloIsing/Datos/L10/T23Equilibrio.agr
%%For: juanchoflo
%%DocumentNeededResources: (atend)
%%EndComments
%%BeginProlog
/m {moveto} def
/l {lineto} def
/s {stroke} def
/n {newpath} def
/c {closepath} def
/RL {rlineto} def
/SLW {setlinewidth} def
/GS {gsave} def
/GR {grestore} def
/SC {setcolor} def
/SGRY {setgray} def
/SRGB {setrgbcolor} def
/SD {setdash} def
/SLC {setlinecap} def
/SLJ {setlinejoin} def
/SCS {setcolorspace} def
/FFSF {findfont setfont} def
/CC {concat} def
/PXL {n m 0 0 RL s} def
/Color0 {1.0000 1.0000 1.0000} def
/Color1 {0.0000 0.0000 0.0000} def
/Color2 {1.0000 0.0000 0.0000} def
/Color3 {0.0000 1.0000 0.0000} def
/Color4 {0.0000 0.0000 1.0000} def
/Color5 {1.0000 1.0000 0.0000} def
/Color6 {0.7373 0.5608 0.5608} def
/Color7 {0.8627 0.8627 0.8627} def
/Color8 {0.5804 0.0000 0.8275} def
/Color9 {0.0000 1.0000 1.0000} def
/Color10 {1.0000 0.0000 1.0000} def
/Color11 {1.0000 0.6471 0.0000} def
/Color12 {0.4471 0.1294 0.7373} def
/Color13 {0.4039 0.0275 0.2824} def
/Color14 {0.2510 0.8784 0.8157} def
/Color15 {0.0000 0.5451 0.0000} def
/Color16 {0.7529 0.7529 0.7529} def
/Color17 {0.5059 0.5059 0.5059} def
/Color18 {0.2588 0.2588 0.2588} def
/PTRN {
 /pat_bits exch def 
 <<
  /PaintType 2
  /PatternType 1 /TilingType 1
  /BBox[0 0 16 16]
  /XStep 16 /YStep 16
  /PaintProc {
   pop
   16 16 true [-1 0 0 -1 16 16] pat_bits imagemask
  }
 >>
 [0.0016 0 0 0.0016 0 0]
 makepattern
} def
/Pattern0 {<0000000000000000000000000000000000000000000000000000000000000000> PTRN} bind def
/Pattern1 {<ffffffffffffffffffffffffffffffffffffffffffffffffffffffffffffffff> PTRN} bind def
/Pattern2 {<eeeeffffbbbbffffeeeeffffbbbbffffeeeeffffbbbbffffeeeeffffbbbbffff> PTRN} bind def
/Pattern3 {<eeeebbbbeeeebbbbeeeebbbbeeeebbbbeeeebbbbeeeebbbbeeeebbbbeeeebbbb> PTRN} bind def
/Pattern4 {<5555aaaa5555aaaa5555aaaa5555aaaa5555aaaa5555aaaa5555aaaa5555aaaa> PTRN} bind def
/Pattern5 {<1111444411114444111144441111444411114444111144441111444411114444> PTRN} bind def
/Pattern6 {<1111000044440000111100004444000011110000444400001111000044440000> PTRN} bind def
/Pattern7 {<1010000000000000010100000000000010100000000000000101000000000000> PTRN} bind def
/Pattern8 {<0000000000000000000000000000000000000000000000000000000000000000> PTRN} bind def
/Pattern9 {<1e1e0f0f8787c3c3e1e1f0f078783c3c1e1e0f0f8787c3c3e1e1f0f078783c3c> PTRN} bind def
/Pattern10 {<7878f0f0e1e1c3c387870f0f1e1e3c3c7878f0f0e1e1c3c387870f0f1e1e3c3c> PTRN} bind def
/Pattern11 {<3333333333333333333333333333333333333333333333333333333333333333> PTRN} bind def
/Pattern12 {<ffffffff00000000ffffffff00000000ffffffff00000000ffffffff00000000> PTRN} bind def
/Pattern13 {<8181424224241818181824244242818181814242242418181818242442428181> PTRN} bind def
/Pattern14 {<8080404020201010080804040202010180804040202010100808040402020101> PTRN} bind def
/Pattern15 {<0101020204040808101020204040808001010202040408081010202040408080> PTRN} bind def
/Pattern16 {<2222222222222222222222222222222222222222222222222222222222222222> PTRN} bind def
/Pattern17 {<0000ffff000000000000ffff000000000000ffff000000000000ffff00000000> PTRN} bind def
/Pattern18 {<2222ffff222222222222ffff222222222222ffff222222222222ffff22222222> PTRN} bind def
/Pattern19 {<ffffffff33333333ffffffff33333333ffffffff33333333ffffffff33333333> PTRN} bind def
/Pattern20 {<0f0f0f0f0f0f0f0ff0f0f0f0f0f0f0f00f0f0f0f0f0f0f0ff0f0f0f0f0f0f0f0> PTRN} bind def
/Pattern21 {<ff00ff00ff00ff00ff00ff00ff00ff0000ff00ff00ff00ff00ff00ff00ff00ff> PTRN} bind def
/Pattern22 {<8001800180018001800180018001ffffffff8001800180018001800180018001> PTRN} bind def
/Pattern23 {<c003c003c003c003c003c003ffffffffffffffffc003c003c003c003c003c003> PTRN} bind def
/Pattern24 {<040404040404ffff404040404040ffff040404040404ffff404040404040ffff> PTRN} bind def
/Pattern25 {<180018001800180018001800ffffffff001800180018001800180018ffffffff> PTRN} bind def
/Pattern26 {<1111b8b87c7c3a3a1111a3a3c7c78b8b1111b8b87c7c3a3a1111a3a3c7c78b8b> PTRN} bind def
/Pattern27 {<101010102828c7c70101010182827c7c101010102828c7c70101010182827c7c> PTRN} bind def
/Pattern28 {<1c1c121211112121c1c12121111112121c1c121211112121c1c1212111111212> PTRN} bind def
/Pattern29 {<3e3e414180808080e3e31414080808083e3e414180808080e3e3141408080808> PTRN} bind def
/Pattern30 {<4848888884848383848488884848383848488888848483838484888848483838> PTRN} bind def
/Pattern31 {<03030404080808080c0c12122121c0c003030404080808080c0c12122121c0c0> PTRN} bind def
/ellipsedict 8 dict def
ellipsedict /mtrx matrix put
/EARC {
 ellipsedict begin
  /endangle exch def
  /startangle exch def
  /yrad exch def
  /xrad exch def
  /y exch def
  /x exch def
  /savematrix mtrx currentmatrix def
  x y translate
  xrad yrad scale
  0 0 1 startangle endangle arc
  savematrix setmatrix
 end
} def
/TL {
  /kcomp exch def
  /linewidth exch def
  /offset exch def
  GS
  0 offset rmoveto
  linewidth SLW
  dup stringwidth exch kcomp add exch RL s
  GR
} def
/KINIT
{
 /kvector exch def
 /kid 0 def
} def
/KPROC
{
 pop pop
 kvector kid get
 0 rmoveto
 /kid 1 kid add def
} def
/DefEncoding [
 /.notdef
 /.notdef
 /.notdef
 /.notdef
 /.notdef
 /.notdef
 /.notdef
 /.notdef
 /.notdef
 /.notdef
 /.notdef
 /.notdef
 /.notdef
 /.notdef
 /.notdef
 /.notdef
 /.notdef
 /.notdef
 /.notdef
 /.notdef
 /.notdef
 /.notdef
 /.notdef
 /.notdef
 /.notdef
 /.notdef
 /.notdef
 /.notdef
 /.notdef
 /.notdef
 /.notdef
 /.notdef
 /space
 /exclam
 /quotedbl
 /numbersign
 /dollar
 /percent
 /ampersand
 /quoteright
 /parenleft
 /parenright
 /asterisk
 /plus
 /comma
 /hyphen
 /period
 /slash
 /zero
 /one
 /two
 /three
 /four
 /five
 /six
 /seven
 /eight
 /nine
 /colon
 /semicolon
 /less
 /equal
 /greater
 /question
 /at
 /A
 /B
 /C
 /D
 /E
 /F
 /G
 /H
 /I
 /J
 /K
 /L
 /M
 /N
 /O
 /P
 /Q
 /R
 /S
 /T
 /U
 /V
 /W
 /X
 /Y
 /Z
 /bracketleft
 /backslash
 /bracketright
 /asciicircum
 /underscore
 /grave
 /a
 /b
 /c
 /d
 /e
 /f
 /g
 /h
 /i
 /j
 /k
 /l
 /m
 /n
 /o
 /p
 /q
 /r
 /s
 /t
 /u
 /v
 /w
 /x
 /y
 /z
 /braceleft
 /bar
 /braceright
 /asciitilde
 /.notdef
 /.notdef
 /.notdef
 /.notdef
 /.notdef
 /.notdef
 /.notdef
 /.notdef
 /.notdef
 /.notdef
 /.notdef
 /.notdef
 /.notdef
 /.notdef
 /.notdef
 /.notdef
 /.notdef
 /.notdef
 /.notdef
 /.notdef
 /.notdef
 /.notdef
 /.notdef
 /.notdef
 /.notdef
 /.notdef
 /.notdef
 /.notdef
 /.notdef
 /.notdef
 /.notdef
 /.notdef
 /.notdef
 /space
 /exclamdown
 /cent
 /sterling
 /currency
 /yen
 /brokenbar
 /section
 /dieresis
 /copyright
 /ordfeminine
 /guillemotleft
 /logicalnot
 /hyphen
 /registered
 /macron
 /degree
 /plusminus
 /twosuperior
 /threesuperior
 /acute
 /mu
 /paragraph
 /periodcentered
 /cedilla
 /onesuperior
 /ordmasculine
 /guillemotright
 /onequarter
 /onehalf
 /threequarters
 /questiondown
 /Agrave
 /Aacute
 /Acircumflex
 /Atilde
 /Adieresis
 /Aring
 /AE
 /Ccedilla
 /Egrave
 /Eacute
 /Ecircumflex
 /Edieresis
 /Igrave
 /Iacute
 /Icircumflex
 /Idieresis
 /Eth
 /Ntilde
 /Ograve
 /Oacute
 /Ocircumflex
 /Otilde
 /Odieresis
 /multiply
 /Oslash
 /Ugrave
 /Uacute
 /Ucircumflex
 /Udieresis
 /Yacute
 /Thorn
 /germandbls
 /agrave
 /aacute
 /acircumflex
 /atilde
 /adieresis
 /aring
 /ae
 /ccedilla
 /egrave
 /eacute
 /ecircumflex
 /edieresis
 /igrave
 /iacute
 /icircumflex
 /idieresis
 /eth
 /ntilde
 /ograve
 /oacute
 /ocircumflex
 /otilde
 /odieresis
 /divide
 /oslash
 /ugrave
 /uacute
 /ucircumflex
 /udieresis
 /yacute
 /thorn
 /ydieresis
] def
%%EndProlog
%%BeginSetup
%%EndSetup
612.00 612.00 scale
n
0.0000 0.0000 m
0.0000 1.0000 l
1.2941 1.0000 l
1.2941 0.0000 l
c
[/DeviceRGB] SCS
Color0 SC
fill
[/DeviceRGB] SCS
Color1 SC
[] 0 SD
0.0015 SLW
0 SLC
0 SLJ
n
0.1500 0.3250 m
0.1510 0.3215 l
0.1520 0.3110 l
0.1530 0.3040 l
0.1540 0.3075 l
0.1550 0.3145 l
0.1560 0.3145 l
0.1570 0.3180 l
0.1580 0.3180 l
0.1590 0.3040 l
0.1600 0.2970 l
0.1610 0.2970 l
0.1620 0.2900 l
0.1630 0.3005 l
0.1640 0.2970 l
0.1650 0.3145 l
0.1660 0.3040 l
0.1670 0.3075 l
0.1680 0.2970 l
0.1690 0.3075 l
0.1700 0.3110 l
0.1710 0.3145 l
0.1720 0.3110 l
0.1730 0.3110 l
0.1740 0.2900 l
0.1750 0.2795 l
0.1760 0.2410 l
0.1770 0.2655 l
0.1780 0.2515 l
0.1790 0.2655 l
0.1800 0.2795 l
0.1810 0.2970 l
0.1820 0.2970 l
0.1830 0.2970 l
0.1840 0.3110 l
0.1850 0.3110 l
0.1860 0.3180 l
0.1870 0.3180 l
0.1880 0.3075 l
0.1890 0.3180 l
0.1900 0.3040 l
0.1910 0.3005 l
0.1920 0.2935 l
0.1930 0.3005 l
0.1940 0.2970 l
0.1950 0.2970 l
0.1960 0.2935 l
0.1970 0.2725 l
0.1980 0.2760 l
0.1990 0.2585 l
0.2000 0.2655 l
0.2010 0.2690 l
0.2020 0.2515 l
0.2030 0.2620 l
0.2040 0.2655 l
0.2050 0.2725 l
0.2060 0.2795 l
0.2070 0.2865 l
0.2080 0.2795 l
0.2090 0.2970 l
0.2100 0.3145 l
0.2110 0.3110 l
0.2120 0.3040 l
0.2130 0.2970 l
0.2140 0.2970 l
0.2150 0.3110 l
0.2160 0.3005 l
0.2170 0.2935 l
0.2180 0.3075 l
0.2190 0.2935 l
0.2200 0.2970 l
0.2210 0.2935 l
0.2220 0.3005 l
0.2230 0.3040 l
0.2240 0.2970 l
0.2250 0.2900 l
0.2260 0.2865 l
0.2270 0.2795 l
0.2280 0.2830 l
0.2290 0.2760 l
0.2300 0.2900 l
0.2310 0.3075 l
0.2320 0.3145 l
0.2330 0.3075 l
0.2340 0.3040 l
0.2350 0.2900 l
0.2360 0.2795 l
0.2370 0.2830 l
0.2380 0.2935 l
0.2390 0.2795 l
0.2400 0.2865 l
0.2410 0.2900 l
0.2420 0.2900 l
0.2430 0.2760 l
0.2440 0.2655 l
0.2450 0.2760 l
0.2460 0.2795 l
0.2470 0.2830 l
0.2480 0.2830 l
0.2490 0.2865 l
0.2500 0.3040 l
0.2510 0.3075 l
0.2520 0.2865 l
0.2530 0.2935 l
0.2540 0.2725 l
0.2550 0.2970 l
0.2560 0.2935 l
0.2570 0.2725 l
0.2580 0.2620 l
0.2590 0.2760 l
0.2600 0.2760 l
0.2610 0.2830 l
0.2620 0.2970 l
0.2630 0.3075 l
0.2640 0.3075 l
0.2650 0.2970 l
0.2660 0.3075 l
0.2670 0.3110 l
0.2680 0.3180 l
0.2690 0.3180 l
0.2700 0.3180 l
0.2710 0.3145 l
0.2720 0.3215 l
0.2730 0.3075 l
0.2740 0.3040 l
0.2750 0.3040 l
0.2760 0.3180 l
0.2770 0.2865 l
0.2780 0.2935 l
0.2790 0.2900 l
0.2800 0.2935 l
0.2810 0.2935 l
0.2820 0.2830 l
0.2830 0.2900 l
0.2840 0.2865 l
0.2850 0.2795 l
0.2860 0.3075 l
0.2870 0.2970 l
0.2880 0.2865 l
0.2890 0.2795 l
0.2900 0.2690 l
0.2910 0.2620 l
0.2920 0.2515 l
0.2930 0.2375 l
0.2940 0.1710 l
0.2950 0.1955 l
0.2960 0.1955 l
0.2970 0.1990 l
0.2980 0.2480 l
0.2990 0.2585 l
0.3000 0.2725 l
0.3010 0.2725 l
0.3020 0.2620 l
0.3030 0.2725 l
0.3040 0.2865 l
0.3050 0.3180 l
0.3060 0.3145 l
0.3070 0.3075 l
0.3080 0.3110 l
0.3090 0.3040 l
0.3100 0.3005 l
0.3110 0.3180 l
0.3120 0.3005 l
0.3130 0.2935 l
0.3140 0.3005 l
0.3150 0.2900 l
0.3160 0.3005 l
0.3170 0.2970 l
0.3180 0.3005 l
0.3190 0.2830 l
0.3200 0.2585 l
0.3210 0.2655 l
0.3220 0.2305 l
0.3230 0.2235 l
0.3240 0.2270 l
0.3250 0.1990 l
0.3260 0.2025 l
0.3270 0.2095 l
0.3280 0.1675 l
0.3290 0.2025 l
0.3300 0.2200 l
0.3310 0.1990 l
0.3320 0.2305 l
0.3330 0.2060 l
0.3340 0.2060 l
0.3350 0.2025 l
0.3360 0.1815 l
0.3370 0.1850 l
0.3380 0.1570 l
0.3390 0.1605 l
0.3400 0.1710 l
0.3410 0.1920 l
0.3420 0.1745 l
0.3430 0.1885 l
0.3440 0.2480 l
0.3450 0.2340 l
0.3460 0.2165 l
0.3470 0.2235 l
0.3480 0.2620 l
0.3490 0.2480 l
0.3500 0.2305 l
0.3510 0.2235 l
0.3520 0.2095 l
0.3530 0.1885 l
0.3540 0.1570 l
0.3550 0.1570 l
0.3560 0.1780 l
0.3570 0.1570 l
0.3580 0.1535 l
0.3590 0.1500 l
0.3600 0.1605 l
0.3610 0.1535 l
0.3620 0.1640 l
0.3630 0.1780 l
0.3640 0.1850 l
0.3650 0.1955 l
0.3660 0.1780 l
0.3670 0.1955 l
0.3680 0.1990 l
0.3690 0.1990 l
0.3700 0.1850 l
0.3710 0.1780 l
0.3720 0.1990 l
0.3730 0.2200 l
0.3740 0.2025 l
0.3750 0.2445 l
0.3760 0.2340 l
0.3770 0.2270 l
0.3780 0.2410 l
0.3790 0.2340 l
0.3800 0.2270 l
0.3810 0.2515 l
0.3820 0.2620 l
0.3830 0.2585 l
0.3840 0.2445 l
0.3850 0.2270 l
0.3860 0.2305 l
0.3870 0.2550 l
0.3880 0.2620 l
0.3890 0.2375 l
0.3900 0.2130 l
0.3910 0.2235 l
0.3920 0.1745 l
0.3930 0.2025 l
0.3940 0.2095 l
0.3950 0.2200 l
0.3960 0.2340 l
0.3970 0.2340 l
0.3980 0.2270 l
0.3990 0.2410 l
0.4000 0.2480 l
0.4010 0.2410 l
0.4020 0.2655 l
0.4030 0.2690 l
0.4040 0.2445 l
0.4050 0.2655 l
0.4060 0.2480 l
0.4070 0.2410 l
0.4080 0.2550 l
0.4090 0.2760 l
0.4100 0.2865 l
0.4110 0.2795 l
0.4120 0.2620 l
0.4130 0.2760 l
0.4140 0.2935 l
0.4150 0.3005 l
0.4160 0.3075 l
0.4170 0.2970 l
0.4180 0.3005 l
0.4190 0.2900 l
0.4200 0.2935 l
0.4210 0.3005 l
0.4220 0.3075 l
0.4230 0.3180 l
0.4240 0.3110 l
0.4250 0.3040 l
0.4260 0.3110 l
0.4270 0.2935 l
0.4280 0.2655 l
0.4290 0.2655 l
0.4300 0.2795 l
0.4310 0.2830 l
0.4320 0.2935 l
0.4330 0.2900 l
0.4340 0.2970 l
0.4350 0.3075 l
0.4360 0.3145 l
0.4370 0.2935 l
0.4380 0.2725 l
0.4390 0.2725 l
0.4400 0.2655 l
0.4410 0.2935 l
0.4420 0.2865 l
0.4430 0.3145 l
0.4440 0.3145 l
0.4450 0.3110 l
0.4460 0.2830 l
0.4470 0.2900 l
0.4480 0.2900 l
0.4490 0.3040 l
0.4500 0.2970 l
0.4510 0.2935 l
0.4520 0.2655 l
0.4530 0.2690 l
0.4540 0.3040 l
0.4550 0.3215 l
0.4560 0.3180 l
0.4570 0.3110 l
0.4580 0.3005 l
0.4590 0.3145 l
0.4600 0.3005 l
0.4610 0.3075 l
0.4620 0.3005 l
0.4630 0.3005 l
0.4640 0.3040 l
0.4650 0.2900 l
0.4660 0.2795 l
0.4670 0.2620 l
0.4680 0.2550 l
0.4690 0.2725 l
0.4700 0.2830 l
0.4710 0.2970 l
0.4720 0.3145 l
0.4730 0.3040 l
0.4740 0.3005 l
0.4750 0.3110 l
0.4760 0.3040 l
0.4770 0.3040 l
0.4780 0.2935 l
0.4790 0.2865 l
0.4800 0.3005 l
0.4810 0.2900 l
0.4820 0.3005 l
0.4830 0.3040 l
0.4840 0.2760 l
0.4850 0.2935 l
0.4860 0.2935 l
0.4870 0.2900 l
0.4880 0.2900 l
0.4890 0.2935 l
0.4900 0.2935 l
0.4910 0.2795 l
0.4920 0.2690 l
0.4930 0.2480 l
0.4940 0.2515 l
0.4950 0.2620 l
0.4960 0.2620 l
0.4970 0.2655 l
0.4980 0.2935 l
0.4990 0.2900 l
0.5000 0.2935 l
0.5010 0.3110 l
0.5020 0.2900 l
0.5030 0.2830 l
0.5040 0.2970 l
0.5050 0.2935 l
0.5060 0.3075 l
0.5070 0.3040 l
0.5080 0.3110 l
0.5090 0.3180 l
0.5100 0.2935 l
0.5110 0.2795 l
0.5120 0.2795 l
0.5130 0.3040 l
0.5140 0.3040 l
0.5150 0.3075 l
0.5160 0.3040 l
0.5170 0.3110 l
0.5180 0.3110 l
0.5190 0.3110 l
0.5200 0.2935 l
0.5210 0.3075 l
0.5220 0.3110 l
0.5230 0.3180 l
0.5240 0.3145 l
0.5250 0.3040 l
0.5260 0.3110 l
0.5270 0.3075 l
0.5280 0.3075 l
0.5290 0.2970 l
0.5300 0.2795 l
0.5310 0.2480 l
0.5320 0.2235 l
0.5330 0.2165 l
0.5340 0.1990 l
0.5350 0.2235 l
0.5360 0.2340 l
0.5370 0.2095 l
0.5380 0.2270 l
0.5390 0.2130 l
0.5400 0.1955 l
0.5410 0.1815 l
0.5420 0.1885 l
0.5430 0.1570 l
0.5440 0.1885 l
0.5450 0.1535 l
0.5460 0.1920 l
0.5470 0.1885 l
0.5480 0.1745 l
0.5490 0.2060 l
0.5500 0.1850 l
0.5510 0.1920 l
0.5520 0.1885 l
0.5530 0.1815 l
0.5540 0.2515 l
0.5550 0.2375 l
0.5560 0.2130 l
0.5570 0.1780 l
0.5580 0.2060 l
0.5590 0.2095 l
0.5600 0.2445 l
0.5610 0.2270 l
0.5620 0.2445 l
0.5630 0.2305 l
0.5640 0.2095 l
0.5650 0.2340 l
0.5660 0.2515 l
0.5670 0.2445 l
0.5680 0.2410 l
0.5690 0.2410 l
0.5700 0.2480 l
0.5710 0.2515 l
0.5720 0.2690 l
0.5730 0.2550 l
0.5740 0.2655 l
0.5750 0.2865 l
0.5760 0.2935 l
0.5770 0.2830 l
0.5780 0.2935 l
0.5790 0.3005 l
0.5800 0.3040 l
0.5810 0.2970 l
0.5820 0.2935 l
0.5830 0.2935 l
0.5840 0.3110 l
0.5850 0.2865 l
0.5860 0.2900 l
0.5870 0.3005 l
0.5880 0.2935 l
0.5890 0.2970 l
0.5900 0.2830 l
0.5910 0.2900 l
0.5920 0.2760 l
0.5930 0.3145 l
0.5940 0.3005 l
0.5950 0.2760 l
0.5960 0.2725 l
0.5970 0.2725 l
0.5980 0.2830 l
0.5990 0.2830 l
0.6000 0.2760 l
0.6010 0.2830 l
0.6020 0.2900 l
0.6030 0.2760 l
0.6040 0.3040 l
0.6050 0.2935 l
0.6060 0.2725 l
0.6070 0.2795 l
0.6080 0.2690 l
0.6090 0.2830 l
0.6100 0.2900 l
0.6110 0.2865 l
0.6120 0.3075 l
0.6130 0.3145 l
0.6140 0.3110 l
0.6150 0.2725 l
0.6160 0.2410 l
0.6170 0.2375 l
0.6180 0.2725 l
0.6190 0.2865 l
0.6200 0.3005 l
0.6210 0.3040 l
0.6220 0.3145 l
0.6230 0.3110 l
0.6240 0.2900 l
0.6250 0.2725 l
0.6260 0.2760 l
0.6270 0.2620 l
0.6280 0.2795 l
0.6290 0.2935 l
0.6300 0.3180 l
0.6310 0.3215 l
0.6320 0.3180 l
0.6330 0.3110 l
0.6340 0.3145 l
0.6350 0.2865 l
0.6360 0.2655 l
0.6370 0.2725 l
0.6380 0.2620 l
0.6390 0.2585 l
0.6400 0.2270 l
0.6410 0.2270 l
0.6420 0.2410 l
0.6430 0.2410 l
0.6440 0.2550 l
0.6450 0.2900 l
0.6460 0.2830 l
0.6470 0.2830 l
0.6480 0.2830 l
0.6490 0.2900 l
0.6500 0.2935 l
0.6510 0.2970 l
0.6520 0.3040 l
0.6530 0.2935 l
0.6540 0.3110 l
0.6550 0.3180 l
0.6560 0.3180 l
0.6570 0.3215 l
0.6580 0.3110 l
0.6590 0.3145 l
0.6600 0.3180 l
0.6610 0.3040 l
0.6620 0.3180 l
0.6630 0.3145 l
0.6640 0.3110 l
0.6650 0.3005 l
0.6660 0.2900 l
0.6670 0.2865 l
0.6680 0.2935 l
0.6690 0.2865 l
0.6700 0.2970 l
0.6710 0.2760 l
0.6720 0.2795 l
0.6730 0.2690 l
0.6740 0.2515 l
0.6750 0.2445 l
0.6760 0.2095 l
0.6770 0.2025 l
0.6780 0.1955 l
0.6790 0.2095 l
0.6800 0.2095 l
0.6810 0.2515 l
0.6820 0.2585 l
0.6830 0.2795 l
0.6840 0.2795 l
0.6850 0.2795 l
0.6860 0.2550 l
0.6870 0.2655 l
0.6880 0.2375 l
0.6890 0.2480 l
0.6900 0.2480 l
0.6910 0.2480 l
0.6920 0.2340 l
0.6930 0.2305 l
0.6940 0.2480 l
0.6950 0.2410 l
0.6960 0.2550 l
0.6970 0.2130 l
0.6980 0.2165 l
0.6990 0.2200 l
0.7000 0.2340 l
0.7010 0.2235 l
0.7020 0.2025 l
0.7030 0.2305 l
0.7040 0.2445 l
0.7050 0.2305 l
0.7060 0.2340 l
0.7070 0.2375 l
0.7080 0.2200 l
0.7090 0.2375 l
0.7100 0.2340 l
0.7110 0.2305 l
0.7120 0.2410 l
0.7130 0.2270 l
0.7140 0.2550 l
0.7150 0.2480 l
0.7160 0.2515 l
0.7170 0.2725 l
0.7180 0.2725 l
0.7190 0.2865 l
0.7200 0.3005 l
0.7210 0.3040 l
0.7220 0.2865 l
0.7230 0.2760 l
0.7240 0.2725 l
0.7250 0.2480 l
0.7260 0.2795 l
0.7270 0.2830 l
0.7280 0.3040 l
0.7290 0.3075 l
0.7300 0.3110 l
0.7310 0.3110 l
0.7320 0.3040 l
0.7330 0.3040 l
0.7340 0.2970 l
0.7350 0.3075 l
0.7360 0.3005 l
0.7370 0.3005 l
0.7380 0.3005 l
0.7390 0.2935 l
0.7400 0.2830 l
0.7410 0.2725 l
0.7420 0.2935 l
0.7430 0.3005 l
0.7440 0.2970 l
0.7450 0.3145 l
0.7460 0.3145 l
0.7470 0.3145 l
0.7480 0.3110 l
0.7490 0.2900 l
0.7500 0.2760 l
0.7510 0.2935 l
0.7520 0.2970 l
0.7530 0.2865 l
0.7540 0.2865 l
0.7550 0.2970 l
0.7560 0.2935 l
0.7570 0.3180 l
0.7580 0.3110 l
0.7590 0.3110 l
0.7600 0.2970 l
0.7610 0.2970 l
0.7620 0.3005 l
0.7630 0.3040 l
0.7640 0.3040 l
0.7650 0.2760 l
0.7660 0.2795 l
0.7670 0.2830 l
0.7680 0.3040 l
0.7690 0.2970 l
0.7700 0.2935 l
0.7710 0.2970 l
0.7720 0.2865 l
0.7730 0.3075 l
0.7740 0.3215 l
0.7750 0.3075 l
0.7760 0.3075 l
0.7770 0.3110 l
0.7780 0.3005 l
0.7790 0.2935 l
0.7800 0.2725 l
0.7810 0.2935 l
0.7820 0.3005 l
0.7830 0.3145 l
0.7840 0.3180 l
0.7850 0.3145 l
0.7860 0.3005 l
0.7870 0.3040 l
0.7880 0.2970 l
0.7890 0.3005 l
0.7900 0.3040 l
0.7910 0.2865 l
0.7920 0.3005 l
0.7930 0.2900 l
0.7940 0.2935 l
0.7950 0.2655 l
0.7960 0.2655 l
0.7970 0.2865 l
0.7980 0.2830 l
0.7990 0.2970 l
0.8000 0.2935 l
0.8010 0.2935 l
0.8020 0.3040 l
0.8030 0.2935 l
0.8040 0.2900 l
0.8050 0.2970 l
0.8060 0.3040 l
0.8070 0.3215 l
0.8080 0.3075 l
0.8090 0.2725 l
0.8100 0.2690 l
0.8110 0.2935 l
0.8120 0.2970 l
0.8130 0.2935 l
0.8140 0.3145 l
0.8150 0.3005 l
0.8160 0.3005 l
0.8170 0.3180 l
0.8180 0.3110 l
0.8190 0.3110 l
0.8200 0.3145 l
0.8210 0.3110 l
0.8220 0.3040 l
0.8230 0.3110 l
0.8240 0.3075 l
0.8250 0.2830 l
0.8260 0.2655 l
0.8270 0.2655 l
0.8280 0.2620 l
0.8290 0.2480 l
0.8300 0.2375 l
0.8310 0.2515 l
0.8320 0.2480 l
0.8330 0.2235 l
0.8340 0.2095 l
0.8350 0.2165 l
0.8360 0.2515 l
0.8370 0.2655 l
0.8380 0.2830 l
0.8390 0.2795 l
0.8400 0.2760 l
0.8410 0.2760 l
0.8420 0.2585 l
0.8430 0.2515 l
0.8440 0.2585 l
0.8450 0.2760 l
0.8460 0.2830 l
0.8470 0.2620 l
0.8480 0.2620 l
0.8490 0.2690 l
0.8500 0.2725 l
0.8510 0.2690 l
0.8520 0.2725 l
0.8530 0.2760 l
0.8540 0.2935 l
0.8550 0.2970 l
0.8560 0.3040 l
0.8570 0.3145 l
0.8580 0.3040 l
0.8590 0.2655 l
0.8600 0.2935 l
0.8610 0.2935 l
0.8620 0.3040 l
0.8630 0.3005 l
0.8640 0.2900 l
0.8650 0.3040 l
0.8660 0.3075 l
0.8670 0.3040 l
0.8680 0.2970 l
0.8690 0.2760 l
0.8700 0.2935 l
0.8710 0.2970 l
0.8720 0.2865 l
0.8730 0.3075 l
0.8740 0.3075 l
0.8750 0.3110 l
0.8760 0.3180 l
0.8770 0.3215 l
0.8780 0.3215 l
0.8790 0.3075 l
0.8800 0.3075 l
0.8810 0.3075 l
0.8820 0.3110 l
0.8830 0.3110 l
0.8840 0.2900 l
0.8850 0.2865 l
0.8860 0.2690 l
0.8870 0.2725 l
0.8880 0.2690 l
0.8890 0.2725 l
0.8900 0.2865 l
0.8910 0.2760 l
0.8920 0.2585 l
0.8930 0.2690 l
0.8940 0.2830 l
0.8950 0.2760 l
0.8960 0.2585 l
0.8970 0.2655 l
0.8980 0.2690 l
0.8990 0.2585 l
0.9000 0.2690 l
0.9010 0.2760 l
0.9020 0.2865 l
0.9030 0.2760 l
0.9040 0.2865 l
0.9050 0.2935 l
0.9060 0.2970 l
0.9070 0.3040 l
0.9080 0.3040 l
0.9090 0.3040 l
0.9100 0.3180 l
0.9110 0.3215 l
0.9120 0.3145 l
0.9130 0.3180 l
0.9140 0.3180 l
0.9150 0.3145 l
0.9160 0.3110 l
0.9170 0.3110 l
0.9180 0.2935 l
0.9190 0.2795 l
0.9200 0.2865 l
0.9210 0.2725 l
0.9220 0.2830 l
0.9230 0.2550 l
0.9240 0.2550 l
0.9250 0.2585 l
0.9260 0.2515 l
0.9270 0.2445 l
0.9280 0.2655 l
0.9290 0.2865 l
0.9300 0.2865 l
0.9310 0.2655 l
0.9320 0.2900 l
0.9330 0.2830 l
0.9340 0.2795 l
0.9350 0.2830 l
0.9360 0.2830 l
0.9370 0.2760 l
0.9380 0.2970 l
0.9390 0.3005 l
0.9400 0.3005 l
0.9410 0.2795 l
0.9420 0.2935 l
0.9430 0.2935 l
0.9440 0.2935 l
0.9450 0.2935 l
0.9460 0.2655 l
0.9470 0.2760 l
0.9480 0.2690 l
0.9490 0.2760 l
0.9500 0.3040 l
0.9510 0.3040 l
0.9520 0.3145 l
0.9530 0.3110 l
0.9540 0.3145 l
0.9550 0.3040 l
0.9560 0.3215 l
0.9570 0.3180 l
0.9580 0.3145 l
0.9590 0.3075 l
0.9600 0.3110 l
0.9610 0.3040 l
0.9620 0.3040 l
0.9630 0.3075 l
0.9640 0.2970 l
0.9650 0.2935 l
0.9660 0.2935 l
0.9670 0.2935 l
0.9680 0.2830 l
0.9690 0.2725 l
0.9700 0.2760 l
0.9710 0.2515 l
0.9720 0.2305 l
0.9730 0.2585 l
0.9740 0.2375 l
0.9750 0.2340 l
0.9760 0.2095 l
0.9770 0.2235 l
0.9780 0.2445 l
0.9790 0.2445 l
0.9800 0.2410 l
0.9810 0.2340 l
0.9820 0.2445 l
0.9830 0.2550 l
0.9840 0.2480 l
0.9850 0.2550 l
0.9860 0.2725 l
0.9870 0.2550 l
0.9880 0.2375 l
0.9890 0.2585 l
0.9900 0.2585 l
0.9910 0.2445 l
0.9920 0.2620 l
0.9930 0.2410 l
0.9940 0.2410 l
0.9950 0.2305 l
0.9960 0.2690 l
0.9970 0.2795 l
0.9980 0.2550 l
0.9990 0.2830 l
1.0000 0.2795 l
1.0010 0.2935 l
1.0020 0.2900 l
1.0030 0.2900 l
1.0040 0.3110 l
1.0050 0.2970 l
1.0060 0.3040 l
1.0070 0.3110 l
1.0080 0.3145 l
1.0090 0.3180 l
1.0100 0.3075 l
1.0110 0.2970 l
1.0120 0.2865 l
1.0130 0.3005 l
1.0140 0.2970 l
1.0150 0.2900 l
1.0160 0.3110 l
1.0170 0.2900 l
1.0180 0.2760 l
1.0190 0.2690 l
1.0200 0.2900 l
1.0210 0.2795 l
1.0220 0.2760 l
1.0230 0.2935 l
1.0240 0.2865 l
1.0250 0.2865 l
1.0260 0.3110 l
1.0270 0.3145 l
1.0280 0.2935 l
1.0290 0.2935 l
1.0300 0.3075 l
1.0310 0.3145 l
1.0320 0.3180 l
1.0330 0.3180 l
1.0340 0.3145 l
1.0350 0.3110 l
1.0360 0.3145 l
1.0370 0.3145 l
1.0380 0.3110 l
1.0390 0.3145 l
1.0400 0.3145 l
1.0410 0.3005 l
1.0420 0.3180 l
1.0430 0.3215 l
1.0440 0.3075 l
1.0450 0.3180 l
1.0460 0.3075 l
1.0470 0.2935 l
1.0480 0.2935 l
1.0490 0.2865 l
1.0500 0.3040 l
1.0510 0.2865 l
1.0520 0.3005 l
1.0530 0.3075 l
1.0540 0.3145 l
1.0550 0.3005 l
1.0560 0.3005 l
1.0570 0.3040 l
1.0580 0.3110 l
1.0590 0.3145 l
1.0600 0.3040 l
1.0610 0.3145 l
1.0620 0.3145 l
1.0630 0.3110 l
1.0640 0.3145 l
1.0650 0.3040 l
1.0660 0.2970 l
1.0670 0.2900 l
1.0680 0.3040 l
1.0690 0.3005 l
1.0700 0.2970 l
1.0710 0.2970 l
1.0720 0.3110 l
1.0730 0.3215 l
1.0740 0.3075 l
1.0750 0.2935 l
1.0760 0.2585 l
1.0770 0.2655 l
1.0780 0.2795 l
1.0790 0.2725 l
1.0800 0.2725 l
1.0810 0.3040 l
1.0820 0.3005 l
1.0830 0.3145 l
1.0840 0.3075 l
1.0850 0.2935 l
1.0860 0.2830 l
1.0870 0.2830 l
1.0880 0.2725 l
1.0890 0.2865 l
1.0900 0.2935 l
1.0910 0.3040 l
1.0920 0.2900 l
1.0930 0.2795 l
1.0940 0.2865 l
1.0950 0.2900 l
1.0960 0.2970 l
1.0970 0.3110 l
1.0980 0.2830 l
1.0990 0.3040 l
1.1000 0.2935 l
1.1010 0.2830 l
1.1020 0.2690 l
1.1030 0.2620 l
1.1040 0.2200 l
1.1050 0.2480 l
1.1060 0.2655 l
1.1070 0.2375 l
1.1080 0.2480 l
1.1090 0.2235 l
1.1100 0.2200 l
1.1110 0.2410 l
1.1120 0.2375 l
1.1130 0.2130 l
1.1140 0.2165 l
1.1150 0.2130 l
1.1160 0.2130 l
1.1170 0.2130 l
1.1180 0.2165 l
1.1190 0.2375 l
1.1200 0.2865 l
1.1210 0.2830 l
1.1220 0.2830 l
1.1230 0.2410 l
1.1240 0.2620 l
1.1250 0.2690 l
1.1260 0.2340 l
1.1270 0.2445 l
1.1280 0.2760 l
1.1290 0.2760 l
1.1300 0.2725 l
1.1310 0.2480 l
1.1320 0.2690 l
1.1330 0.2515 l
1.1340 0.2480 l
1.1350 0.2375 l
1.1360 0.2375 l
1.1370 0.2550 l
1.1380 0.2480 l
1.1390 0.2550 l
1.1400 0.2375 l
1.1410 0.2725 l
1.1420 0.2760 l
1.1430 0.2935 l
1.1440 0.2830 l
1.1450 0.2655 l
1.1460 0.2655 l
1.1470 0.2690 l
1.1480 0.2935 l
1.1490 0.3110 l
1.1500 0.3075 l
1.1501 0.3068 l
s
[/DeviceRGB] SCS
Color2 SC
n
0.1500 0.5000 m
0.1510 0.5140 l
0.1520 0.5420 l
0.1530 0.5560 l
0.1540 0.5630 l
0.1550 0.5350 l
0.1560 0.5280 l
0.1570 0.5210 l
0.1580 0.5280 l
0.1590 0.5700 l
0.1600 0.5910 l
0.1610 0.5910 l
0.1620 0.6050 l
0.1630 0.5910 l
0.1640 0.5910 l
0.1650 0.5420 l
0.1660 0.5700 l
0.1670 0.5560 l
0.1680 0.5770 l
0.1690 0.5490 l
0.1700 0.5560 l
0.1710 0.5350 l
0.1720 0.5490 l
0.1730 0.5560 l
0.1740 0.6050 l
0.1750 0.5840 l
0.1760 0.6470 l
0.1770 0.6680 l
0.1780 0.6330 l
0.1790 0.6400 l
0.1800 0.6190 l
0.1810 0.5700 l
0.1820 0.5910 l
0.1830 0.5770 l
0.1840 0.5420 l
0.1850 0.5490 l
0.1860 0.5280 l
0.1870 0.5280 l
0.1880 0.5630 l
0.1890 0.5280 l
0.1900 0.5700 l
0.1910 0.5630 l
0.1920 0.6120 l
0.1930 0.5840 l
0.1940 0.5840 l
0.1950 0.6050 l
0.1960 0.6120 l
0.1970 0.6190 l
0.1980 0.6120 l
0.1990 0.6540 l
0.2000 0.6330 l
0.2010 0.6470 l
0.2020 0.6540 l
0.2030 0.6190 l
0.2040 0.6120 l
0.2050 0.6260 l
0.2060 0.5980 l
0.2070 0.6120 l
0.2080 0.6260 l
0.2090 0.5770 l
0.2100 0.5350 l
0.2110 0.5350 l
0.2120 0.5420 l
0.2130 0.5910 l
0.2140 0.5770 l
0.2150 0.5420 l
0.2160 0.5840 l
0.2170 0.6120 l
0.2180 0.5560 l
0.2190 0.5840 l
0.2200 0.5840 l
0.2210 0.5840 l
0.2220 0.5770 l
0.2230 0.5560 l
0.2240 0.5840 l
0.2250 0.5910 l
0.2260 0.5910 l
0.2270 0.6120 l
0.2280 0.6050 l
0.2290 0.6190 l
0.2300 0.5910 l
0.2310 0.5560 l
0.2320 0.5350 l
0.2330 0.5490 l
0.2340 0.5560 l
0.2350 0.5630 l
0.2360 0.5980 l
0.2370 0.5630 l
0.2380 0.5490 l
0.2390 0.6050 l
0.2400 0.5770 l
0.2410 0.5980 l
0.2420 0.6050 l
0.2430 0.6330 l
0.2440 0.6400 l
0.2450 0.6190 l
0.2460 0.6470 l
0.2470 0.6330 l
0.2480 0.6330 l
0.2490 0.5980 l
0.2500 0.5630 l
0.2510 0.5560 l
0.2520 0.6120 l
0.2530 0.5910 l
0.2540 0.6610 l
0.2550 0.5560 l
0.2560 0.5700 l
0.2570 0.6260 l
0.2580 0.6120 l
0.2590 0.6260 l
0.2600 0.5840 l
0.2610 0.6050 l
0.2620 0.5840 l
0.2630 0.5630 l
0.2640 0.5700 l
0.2650 0.5910 l
0.2660 0.5560 l
0.2670 0.5420 l
0.2680 0.5210 l
0.2690 0.5280 l
0.2700 0.5280 l
0.2710 0.5350 l
0.2720 0.5140 l
0.2730 0.5350 l
0.2740 0.5560 l
0.2750 0.5560 l
0.2760 0.5280 l
0.2770 0.6120 l
0.2780 0.5910 l
0.2790 0.6120 l
0.2800 0.6190 l
0.2810 0.6050 l
0.2820 0.6260 l
0.2830 0.5910 l
0.2840 0.6050 l
0.2850 0.6260 l
0.2860 0.5700 l
0.2870 0.5910 l
0.2880 0.5840 l
0.2890 0.6120 l
0.2900 0.5910 l
0.2910 0.6750 l
0.2920 0.6820 l
0.2930 0.6820 l
0.2940 0.6820 l
0.2950 0.6540 l
0.2960 0.6540 l
0.2970 0.6610 l
0.2980 0.5840 l
0.2990 0.5980 l
0.3000 0.6050 l
0.3010 0.6260 l
0.3020 0.6400 l
0.3030 0.6190 l
0.3040 0.6120 l
0.3050 0.5280 l
0.3060 0.5350 l
0.3070 0.5560 l
0.3080 0.5490 l
0.3090 0.5770 l
0.3100 0.5700 l
0.3110 0.5280 l
0.3120 0.5840 l
0.3130 0.6050 l
0.3140 0.5770 l
0.3150 0.5700 l
0.3160 0.5560 l
0.3170 0.5700 l
0.3180 0.5770 l
0.3190 0.5980 l
0.3200 0.6120 l
0.3210 0.6190 l
0.3220 0.6890 l
0.3230 0.6960 l
0.3240 0.6960 l
0.3250 0.7170 l
0.3260 0.6890 l
0.3270 0.7030 l
0.3280 0.7380 l
0.3290 0.6400 l
0.3300 0.6680 l
0.3310 0.6890 l
0.3320 0.6820 l
0.3330 0.6960 l
0.3340 0.7030 l
0.3350 0.6750 l
0.3360 0.6470 l
0.3370 0.6330 l
0.3380 0.6610 l
0.3390 0.6470 l
0.3400 0.6470 l
0.3410 0.6540 l
0.3420 0.6540 l
0.3430 0.6470 l
0.3440 0.6540 l
0.3450 0.6190 l
0.3460 0.6890 l
0.3470 0.6680 l
0.3480 0.6120 l
0.3490 0.6260 l
0.3500 0.6190 l
0.3510 0.6190 l
0.3520 0.6260 l
0.3530 0.6470 l
0.3540 0.6750 l
0.3550 0.6680 l
0.3560 0.6750 l
0.3570 0.6820 l
0.3580 0.7450 l
0.3590 0.6680 l
0.3600 0.6680 l
0.3610 0.6260 l
0.3620 0.6400 l
0.3630 0.6820 l
0.3640 0.6540 l
0.3650 0.6540 l
0.3660 0.6330 l
0.3670 0.6960 l
0.3680 0.6470 l
0.3690 0.6890 l
0.3700 0.6890 l
0.3710 0.6820 l
0.3720 0.6890 l
0.3730 0.6470 l
0.3740 0.6540 l
0.3750 0.6260 l
0.3760 0.6260 l
0.3770 0.6540 l
0.3780 0.6260 l
0.3790 0.6470 l
0.3800 0.6400 l
0.3810 0.6120 l
0.3820 0.6190 l
0.3830 0.6470 l
0.3840 0.6610 l
0.3850 0.6820 l
0.3860 0.6610 l
0.3870 0.6540 l
0.3880 0.6610 l
0.3890 0.6470 l
0.3900 0.6890 l
0.3910 0.6470 l
0.3920 0.6820 l
0.3930 0.6680 l
0.3940 0.6540 l
0.3950 0.6470 l
0.3960 0.6190 l
0.3970 0.6120 l
0.3980 0.6050 l
0.3990 0.6190 l
0.4000 0.6050 l
0.4010 0.6400 l
0.4020 0.6330 l
0.4030 0.6470 l
0.4040 0.6680 l
0.4050 0.6470 l
0.4060 0.6610 l
0.4070 0.6680 l
0.4080 0.6260 l
0.4090 0.6330 l
0.4100 0.6050 l
0.4110 0.6120 l
0.4120 0.6540 l
0.4130 0.6330 l
0.4140 0.5910 l
0.4150 0.5770 l
0.4160 0.5700 l
0.4170 0.5770 l
0.4180 0.5910 l
0.4190 0.5910 l
0.4200 0.5910 l
0.4210 0.5840 l
0.4220 0.5700 l
0.4230 0.5280 l
0.4240 0.5490 l
0.4250 0.5630 l
0.4260 0.5420 l
0.4270 0.5980 l
0.4280 0.6400 l
0.4290 0.6260 l
0.4300 0.6400 l
0.4310 0.6120 l
0.4320 0.5770 l
0.4330 0.5910 l
0.4340 0.5840 l
0.4350 0.5630 l
0.4360 0.5420 l
0.4370 0.5910 l
0.4380 0.6190 l
0.4390 0.6330 l
0.4400 0.6050 l
0.4410 0.6050 l
0.4420 0.6190 l
0.4430 0.5420 l
0.4440 0.5350 l
0.4450 0.5490 l
0.4460 0.6260 l
0.4470 0.6120 l
0.4480 0.5910 l
0.4490 0.5630 l
0.4500 0.5980 l
0.4510 0.6050 l
0.4520 0.6470 l
0.4530 0.6540 l
0.4540 0.5700 l
0.4550 0.5140 l
0.4560 0.5210 l
0.4570 0.5490 l
0.4580 0.5770 l
0.4590 0.5420 l
0.4600 0.5980 l
0.4610 0.5560 l
0.4620 0.5630 l
0.4630 0.5840 l
0.4640 0.5630 l
0.4650 0.6120 l
0.4660 0.6470 l
0.4670 0.6330 l
0.4680 0.6540 l
0.4690 0.6260 l
0.4700 0.6400 l
0.4710 0.6050 l
0.4720 0.5420 l
0.4730 0.5770 l
0.4740 0.5560 l
0.4750 0.5350 l
0.4760 0.5490 l
0.4770 0.5560 l
0.4780 0.5910 l
0.4790 0.5980 l
0.4800 0.5490 l
0.4810 0.5840 l
0.4820 0.5700 l
0.4830 0.5630 l
0.4840 0.6120 l
0.4850 0.5840 l
0.4860 0.5980 l
0.4870 0.5980 l
0.4880 0.6050 l
0.4890 0.5840 l
0.4900 0.5840 l
0.4910 0.5910 l
0.4920 0.6050 l
0.4930 0.6470 l
0.4940 0.6190 l
0.4950 0.6470 l
0.4960 0.6050 l
0.4970 0.6190 l
0.4980 0.5910 l
0.4990 0.5770 l
0.5000 0.5980 l
0.5010 0.5560 l
0.5020 0.6120 l
0.5030 0.5910 l
0.5040 0.5910 l
0.5050 0.5910 l
0.5060 0.5630 l
0.5070 0.5560 l
0.5080 0.5490 l
0.5090 0.5280 l
0.5100 0.5700 l
0.5110 0.6120 l
0.5120 0.6050 l
0.5130 0.5630 l
0.5140 0.5630 l
0.5150 0.5490 l
0.5160 0.5630 l
0.5170 0.5420 l
0.5180 0.5490 l
0.5190 0.5560 l
0.5200 0.5980 l
0.5210 0.5630 l
0.5220 0.5350 l
0.5230 0.5280 l
0.5240 0.5420 l
0.5250 0.5700 l
0.5260 0.5560 l
0.5270 0.5350 l
0.5280 0.5560 l
0.5290 0.5700 l
0.5300 0.6050 l
0.5310 0.6260 l
0.5320 0.6400 l
0.5330 0.6540 l
0.5340 0.6540 l
0.5350 0.6890 l
0.5360 0.6610 l
0.5370 0.6890 l
0.5380 0.6330 l
0.5390 0.6820 l
0.5400 0.6750 l
0.5410 0.6890 l
0.5420 0.6750 l
0.5430 0.7100 l
0.5440 0.7450 l
0.5450 0.7100 l
0.5460 0.6680 l
0.5470 0.6890 l
0.5480 0.6610 l
0.5490 0.6470 l
0.5500 0.7310 l
0.5510 0.6890 l
0.5520 0.7450 l
0.5530 0.6820 l
0.5540 0.6470 l
0.5550 0.6470 l
0.5560 0.7100 l
0.5570 0.6890 l
0.5580 0.6750 l
0.5590 0.6750 l
0.5600 0.6330 l
0.5610 0.6330 l
0.5620 0.6610 l
0.5630 0.6890 l
0.5640 0.6680 l
0.5650 0.6750 l
0.5660 0.6470 l
0.5670 0.6400 l
0.5680 0.6470 l
0.5690 0.6400 l
0.5700 0.6050 l
0.5710 0.6050 l
0.5720 0.5840 l
0.5730 0.6190 l
0.5740 0.6190 l
0.5750 0.5840 l
0.5760 0.5910 l
0.5770 0.6120 l
0.5780 0.5910 l
0.5790 0.5770 l
0.5800 0.5770 l
0.5810 0.5910 l
0.5820 0.5700 l
0.5830 0.5910 l
0.5840 0.5420 l
0.5850 0.6120 l
0.5860 0.6190 l
0.5870 0.5840 l
0.5880 0.5490 l
0.5890 0.5630 l
0.5900 0.6050 l
0.5910 0.6050 l
0.5920 0.6260 l
0.5930 0.5420 l
0.5940 0.5630 l
0.5950 0.6190 l
0.5960 0.6470 l
0.5970 0.6330 l
0.5980 0.5980 l
0.5990 0.6050 l
0.6000 0.6120 l
0.6010 0.6190 l
0.6020 0.6050 l
0.6030 0.5840 l
0.6040 0.5770 l
0.6050 0.5910 l
0.6060 0.6330 l
0.6070 0.6260 l
0.6080 0.6330 l
0.6090 0.6190 l
0.6100 0.6050 l
0.6110 0.5980 l
0.6120 0.5630 l
0.6130 0.5350 l
0.6140 0.5420 l
0.6150 0.6400 l
0.6160 0.6610 l
0.6170 0.7030 l
0.6180 0.6120 l
0.6190 0.6050 l
0.6200 0.5840 l
0.6210 0.5630 l
0.6220 0.5350 l
0.6230 0.5490 l
0.6240 0.5980 l
0.6250 0.6190 l
0.6260 0.6120 l
0.6270 0.6330 l
0.6280 0.5980 l
0.6290 0.5840 l
0.6300 0.5280 l
0.6310 0.5140 l
0.6320 0.5280 l
0.6330 0.5560 l
0.6340 0.5420 l
0.6350 0.6050 l
0.6360 0.6330 l
0.6370 0.6260 l
0.6380 0.6400 l
0.6390 0.6540 l
0.6400 0.7030 l
0.6410 0.6400 l
0.6420 0.6120 l
0.6430 0.6680 l
0.6440 0.6610 l
0.6450 0.6120 l
0.6460 0.6050 l
0.6470 0.6190 l
0.6480 0.6330 l
0.6490 0.6050 l
0.6500 0.6050 l
0.6510 0.5910 l
0.6520 0.5770 l
0.6530 0.6050 l
0.6540 0.5490 l
0.6550 0.5280 l
0.6560 0.5280 l
0.6570 0.5140 l
0.6580 0.5560 l
0.6590 0.5350 l
0.6600 0.5280 l
0.6610 0.5630 l
0.6620 0.5210 l
0.6630 0.5420 l
0.6640 0.5420 l
0.6650 0.5840 l
0.6660 0.6050 l
0.6670 0.5980 l
0.6680 0.5910 l
0.6690 0.6260 l
0.6700 0.5910 l
0.6710 0.6190 l
0.6720 0.6120 l
0.6730 0.6610 l
0.6740 0.6470 l
0.6750 0.6330 l
0.6760 0.6400 l
0.6770 0.6610 l
0.6780 0.6750 l
0.6790 0.6190 l
0.6800 0.6260 l
0.6810 0.5980 l
0.6820 0.5840 l
0.6830 0.5910 l
0.6840 0.6050 l
0.6850 0.6050 l
0.6860 0.6400 l
0.6870 0.6050 l
0.6880 0.6540 l
0.6890 0.6540 l
0.6900 0.6540 l
0.6910 0.6330 l
0.6920 0.6470 l
0.6930 0.6400 l
0.6940 0.6120 l
0.6950 0.6330 l
0.6960 0.6470 l
0.6970 0.6470 l
0.6980 0.6470 l
0.6990 0.6470 l
0.7000 0.6680 l
0.7010 0.6540 l
0.7020 0.6890 l
0.7030 0.6470 l
0.7040 0.6330 l
0.7050 0.6260 l
0.7060 0.6470 l
0.7070 0.6260 l
0.7080 0.6330 l
0.7090 0.6330 l
0.7100 0.6470 l
0.7110 0.6680 l
0.7120 0.6400 l
0.7130 0.6890 l
0.7140 0.6610 l
0.7150 0.6540 l
0.7160 0.6120 l
0.7170 0.6190 l
0.7180 0.6610 l
0.7190 0.5980 l
0.7200 0.5910 l
0.7210 0.5700 l
0.7220 0.6120 l
0.7230 0.6330 l
0.7240 0.6330 l
0.7250 0.6540 l
0.7260 0.6400 l
0.7270 0.6120 l
0.7280 0.5770 l
0.7290 0.5700 l
0.7300 0.5490 l
0.7310 0.5560 l
0.7320 0.5700 l
0.7330 0.5840 l
0.7340 0.5910 l
0.7350 0.5420 l
0.7360 0.5840 l
0.7370 0.5840 l
0.7380 0.5840 l
0.7390 0.6120 l
0.7400 0.6330 l
0.7410 0.6050 l
0.7420 0.5910 l
0.7430 0.5700 l
0.7440 0.5840 l
0.7450 0.5420 l
0.7460 0.5420 l
0.7470 0.5350 l
0.7480 0.5490 l
0.7490 0.5980 l
0.7500 0.6330 l
0.7510 0.5770 l
0.7520 0.5770 l
0.7530 0.6190 l
0.7540 0.6260 l
0.7550 0.5980 l
0.7560 0.5980 l
0.7570 0.5280 l
0.7580 0.5490 l
0.7590 0.5490 l
0.7600 0.5910 l
0.7610 0.5700 l
0.7620 0.5560 l
0.7630 0.5630 l
0.7640 0.5630 l
0.7650 0.5980 l
0.7660 0.6190 l
0.7670 0.6260 l
0.7680 0.5700 l
0.7690 0.5770 l
0.7700 0.5840 l
0.7710 0.5630 l
0.7720 0.5980 l
0.7730 0.5630 l
0.7740 0.5140 l
0.7750 0.5630 l
0.7760 0.5630 l
0.7770 0.5420 l
0.7780 0.5700 l
0.7790 0.5910 l
0.7800 0.6120 l
0.7810 0.5840 l
0.7820 0.5840 l
0.7830 0.5350 l
0.7840 0.5280 l
0.7850 0.5420 l
0.7860 0.5840 l
0.7870 0.5770 l
0.7880 0.5910 l
0.7890 0.5770 l
0.7900 0.5700 l
0.7910 0.6260 l
0.7920 0.5770 l
0.7930 0.6050 l
0.7940 0.6050 l
0.7950 0.6470 l
0.7960 0.6330 l
0.7970 0.5840 l
0.7980 0.5910 l
0.7990 0.5700 l
0.8000 0.5980 l
0.8010 0.6120 l
0.8020 0.5700 l
0.8030 0.5770 l
0.8040 0.6050 l
0.8050 0.5840 l
0.8060 0.5560 l
0.8070 0.5140 l
0.8080 0.5490 l
0.8090 0.6330 l
0.8100 0.6260 l
0.8110 0.5840 l
0.8120 0.5840 l
0.8130 0.5910 l
0.8140 0.5280 l
0.8150 0.5770 l
0.8160 0.5770 l
0.8170 0.5280 l
0.8180 0.5490 l
0.8190 0.5490 l
0.8200 0.5420 l
0.8210 0.5420 l
0.8220 0.5700 l
0.8230 0.5420 l
0.8240 0.5700 l
0.8250 0.6190 l
0.8260 0.6260 l
0.8270 0.6050 l
0.8280 0.6190 l
0.8290 0.6540 l
0.8300 0.6330 l
0.8310 0.6190 l
0.8320 0.5910 l
0.8330 0.6050 l
0.8340 0.6540 l
0.8350 0.6540 l
0.8360 0.6050 l
0.8370 0.5980 l
0.8380 0.5910 l
0.8390 0.6050 l
0.8400 0.6050 l
0.8410 0.5840 l
0.8420 0.6260 l
0.8430 0.6610 l
0.8440 0.6610 l
0.8450 0.6330 l
0.8460 0.5910 l
0.8470 0.6190 l
0.8480 0.6050 l
0.8490 0.6190 l
0.8500 0.6120 l
0.8510 0.6400 l
0.8520 0.6470 l
0.8530 0.6120 l
0.8540 0.5980 l
0.8550 0.5840 l
0.8560 0.5770 l
0.8570 0.5420 l
0.8580 0.5770 l
0.8590 0.6540 l
0.8600 0.6050 l
0.8610 0.5910 l
0.8620 0.5630 l
0.8630 0.5980 l
0.8640 0.6050 l
0.8650 0.5630 l
0.8660 0.5560 l
0.8670 0.5630 l
0.8680 0.5910 l
0.8690 0.6470 l
0.8700 0.5980 l
0.8710 0.5980 l
0.8720 0.6050 l
0.8730 0.5630 l
0.8740 0.5630 l
0.8750 0.5560 l
0.8760 0.5280 l
0.8770 0.5140 l
0.8780 0.5140 l
0.8790 0.5630 l
0.8800 0.5420 l
0.8810 0.5630 l
0.8820 0.5490 l
0.8830 0.5490 l
0.8840 0.6050 l
0.8850 0.6190 l
0.8860 0.6190 l
0.8870 0.6190 l
0.8880 0.6050 l
0.8890 0.5980 l
0.8900 0.5980 l
0.8910 0.6260 l
0.8920 0.6400 l
0.8930 0.6260 l
0.8940 0.6260 l
0.8950 0.6120 l
0.8960 0.6260 l
0.8970 0.6260 l
0.8980 0.5980 l
0.8990 0.5980 l
0.9000 0.5630 l
0.9010 0.6190 l
0.9020 0.5910 l
0.9030 0.6190 l
0.9040 0.5840 l
0.9050 0.5770 l
0.9060 0.5630 l
0.9070 0.5700 l
0.9080 0.5840 l
0.9090 0.5630 l
0.9100 0.5210 l
0.9110 0.5140 l
0.9120 0.5420 l
0.9130 0.5280 l
0.9140 0.5280 l
0.9150 0.5420 l
0.9160 0.5420 l
0.9170 0.5560 l
0.9180 0.5770 l
0.9190 0.6190 l
0.9200 0.5910 l
0.9210 0.6190 l
0.9220 0.6120 l
0.9230 0.6190 l
0.9240 0.5910 l
0.9250 0.6330 l
0.9260 0.6330 l
0.9270 0.6540 l
0.9280 0.6330 l
0.9290 0.6330 l
0.9300 0.5980 l
0.9310 0.6470 l
0.9320 0.5980 l
0.9330 0.6120 l
0.9340 0.6190 l
0.9350 0.6050 l
0.9360 0.6190 l
0.9370 0.6330 l
0.9380 0.5980 l
0.9390 0.5910 l
0.9400 0.5770 l
0.9410 0.5980 l
0.9420 0.5910 l
0.9430 0.5770 l
0.9440 0.6050 l
0.9450 0.5770 l
0.9460 0.6050 l
0.9470 0.5700 l
0.9480 0.5910 l
0.9490 0.5910 l
0.9500 0.5560 l
0.9510 0.5560 l
0.9520 0.5350 l
0.9530 0.5420 l
0.9540 0.5350 l
0.9550 0.5560 l
0.9560 0.5140 l
0.9570 0.5210 l
0.9580 0.5420 l
0.9590 0.5630 l
0.9600 0.5490 l
0.9610 0.5770 l
0.9620 0.5770 l
0.9630 0.5700 l
0.9640 0.5980 l
0.9650 0.5770 l
0.9660 0.5840 l
0.9670 0.5770 l
0.9680 0.5980 l
0.9690 0.5910 l
0.9700 0.5840 l
0.9710 0.6190 l
0.9720 0.6260 l
0.9730 0.5980 l
0.9740 0.6400 l
0.9750 0.6120 l
0.9760 0.6540 l
0.9770 0.6190 l
0.9780 0.6470 l
0.9790 0.6330 l
0.9800 0.6610 l
0.9810 0.6610 l
0.9820 0.6820 l
0.9830 0.6260 l
0.9840 0.6330 l
0.9850 0.6750 l
0.9860 0.6050 l
0.9870 0.6400 l
0.9880 0.6820 l
0.9890 0.6330 l
0.9900 0.6330 l
0.9910 0.6400 l
0.9920 0.6470 l
0.9930 0.6610 l
0.9940 0.6540 l
0.9950 0.6400 l
0.9960 0.6400 l
0.9970 0.6400 l
0.9980 0.6680 l
0.9990 0.6260 l
1.0000 0.6330 l
1.0010 0.5840 l
1.0020 0.5910 l
1.0030 0.5910 l
1.0040 0.5420 l
1.0050 0.5560 l
1.0060 0.5350 l
1.0070 0.5280 l
1.0080 0.5350 l
1.0090 0.5280 l
1.0100 0.5560 l
1.0110 0.5770 l
1.0120 0.5910 l
1.0130 0.5840 l
1.0140 0.5910 l
1.0150 0.5910 l
1.0160 0.5490 l
1.0170 0.5910 l
1.0180 0.5770 l
1.0190 0.6120 l
1.0200 0.5980 l
1.0210 0.5980 l
1.0220 0.6120 l
1.0230 0.5840 l
1.0240 0.6050 l
1.0250 0.6120 l
1.0260 0.5560 l
1.0270 0.5280 l
1.0280 0.5910 l
1.0290 0.5910 l
1.0300 0.5420 l
1.0310 0.5350 l
1.0320 0.5280 l
1.0330 0.5280 l
1.0340 0.5420 l
1.0350 0.5560 l
1.0360 0.5350 l
1.0370 0.5420 l
1.0380 0.5560 l
1.0390 0.5350 l
1.0400 0.5420 l
1.0410 0.5840 l
1.0420 0.5210 l
1.0430 0.5140 l
1.0440 0.5560 l
1.0450 0.5280 l
1.0460 0.5560 l
1.0470 0.5770 l
1.0480 0.5980 l
1.0490 0.5910 l
1.0500 0.5630 l
1.0510 0.6190 l
1.0520 0.5770 l
1.0530 0.5490 l
1.0540 0.5350 l
1.0550 0.5770 l
1.0560 0.5630 l
1.0570 0.5630 l
1.0580 0.5490 l
1.0590 0.5420 l
1.0600 0.5630 l
1.0610 0.5420 l
1.0620 0.5420 l
1.0630 0.5490 l
1.0640 0.5420 l
1.0650 0.5700 l
1.0660 0.5770 l
1.0670 0.6120 l
1.0680 0.5630 l
1.0690 0.5770 l
1.0700 0.5910 l
1.0710 0.6120 l
1.0720 0.5560 l
1.0730 0.5140 l
1.0740 0.5490 l
1.0750 0.5770 l
1.0760 0.5910 l
1.0770 0.6120 l
1.0780 0.6050 l
1.0790 0.6120 l
1.0800 0.6400 l
1.0810 0.5700 l
1.0820 0.5770 l
1.0830 0.5350 l
1.0840 0.5700 l
1.0850 0.5910 l
1.0860 0.6050 l
1.0870 0.5910 l
1.0880 0.6050 l
1.0890 0.5980 l
1.0900 0.5980 l
1.0910 0.5770 l
1.0920 0.5980 l
1.0930 0.6120 l
1.0940 0.5980 l
1.0950 0.5910 l
1.0960 0.5840 l
1.0970 0.5560 l
1.0980 0.6190 l
1.0990 0.5630 l
1.1000 0.5910 l
1.1010 0.6050 l
1.1020 0.6260 l
1.1030 0.6400 l
1.1040 0.6400 l
1.1050 0.6400 l
1.1060 0.6190 l
1.1070 0.6470 l
1.1080 0.6190 l
1.1090 0.6190 l
1.1100 0.6470 l
1.1110 0.6260 l
1.1120 0.6610 l
1.1130 0.6960 l
1.1140 0.6820 l
1.1150 0.6890 l
1.1160 0.7100 l
1.1170 0.7100 l
1.1180 0.6610 l
1.1190 0.6190 l
1.1200 0.5980 l
1.1210 0.5700 l
1.1220 0.5770 l
1.1230 0.6400 l
1.1240 0.6120 l
1.1250 0.6050 l
1.1260 0.6470 l
1.1270 0.6680 l
1.1280 0.5910 l
1.1290 0.6260 l
1.1300 0.6190 l
1.1310 0.6050 l
1.1320 0.5980 l
1.1330 0.6260 l
1.1340 0.6330 l
1.1350 0.6260 l
1.1360 0.6470 l
1.1370 0.6400 l
1.1380 0.6750 l
1.1390 0.6610 l
1.1400 0.6470 l
1.1410 0.6190 l
1.1420 0.6330 l
1.1430 0.5840 l
1.1440 0.6190 l
1.1450 0.6470 l
1.1460 0.6680 l
1.1470 0.6540 l
1.1480 0.5770 l
1.1490 0.5490 l
1.1500 0.5560 l
1.1501 0.5574 l
s
[/DeviceRGB] SCS
Color3 SC
n
0.1500 0.8500 m
0.1510 0.7310 l
0.1520 0.7660 l
0.1530 0.6890 l
0.1540 0.6820 l
0.1550 0.6750 l
0.1560 0.6960 l
0.1570 0.6750 l
0.1580 0.6890 l
0.1590 0.6960 l
0.1600 0.6960 l
0.1610 0.6890 l
0.1620 0.6540 l
0.1630 0.6750 l
0.1640 0.6540 l
0.1650 0.6330 l
0.1660 0.6050 l
0.1670 0.5840 l
0.1680 0.6470 l
0.1690 0.6540 l
0.1700 0.6960 l
0.1710 0.6750 l
0.1720 0.6330 l
0.1730 0.6330 l
0.1740 0.5840 l
0.1750 0.5840 l
0.1760 0.5770 l
0.1770 0.5770 l
0.1780 0.5420 l
0.1790 0.6190 l
0.1800 0.5980 l
0.1810 0.6400 l
0.1820 0.6680 l
0.1830 0.6190 l
0.1840 0.6330 l
0.1850 0.5840 l
0.1860 0.5490 l
0.1870 0.5630 l
0.1880 0.5770 l
0.1890 0.5770 l
0.1900 0.5630 l
0.1910 0.6050 l
0.1920 0.5980 l
0.1930 0.6050 l
0.1940 0.5560 l
0.1950 0.5630 l
0.1960 0.5490 l
0.1970 0.5350 l
0.1980 0.5910 l
0.1990 0.5490 l
0.2000 0.5770 l
0.2010 0.5490 l
0.2020 0.5980 l
0.2030 0.5560 l
0.2040 0.5630 l
0.2050 0.5140 l
0.2060 0.5210 l
0.2070 0.5210 l
0.2080 0.5000 l
0.2090 0.5140 l
0.2100 0.5630 l
0.2110 0.5280 l
0.2120 0.6120 l
0.2130 0.5840 l
0.2140 0.5560 l
0.2150 0.5770 l
0.2160 0.6120 l
0.2170 0.6050 l
0.2180 0.5630 l
0.2190 0.5560 l
0.2200 0.5700 l
0.2210 0.6050 l
0.2220 0.5560 l
0.2230 0.5910 l
0.2240 0.6190 l
0.2250 0.5770 l
0.2260 0.5910 l
0.2270 0.6120 l
0.2280 0.6120 l
0.2290 0.5770 l
0.2300 0.5560 l
0.2310 0.5840 l
0.2320 0.6050 l
0.2330 0.6120 l
0.2340 0.6330 l
0.2350 0.6260 l
0.2360 0.6330 l
0.2370 0.5700 l
0.2380 0.5910 l
0.2390 0.5980 l
0.2400 0.6260 l
0.2410 0.5980 l
0.2420 0.6050 l
0.2430 0.6470 l
0.2440 0.6330 l
0.2450 0.5910 l
0.2460 0.6260 l
0.2470 0.5980 l
0.2480 0.5910 l
0.2490 0.5910 l
0.2500 0.5980 l
0.2510 0.5770 l
0.2520 0.6190 l
0.2530 0.6190 l
0.2540 0.6260 l
0.2550 0.6120 l
0.2560 0.6330 l
0.2570 0.6120 l
0.2580 0.6190 l
0.2590 0.5840 l
0.2600 0.5840 l
0.2610 0.5910 l
0.2620 0.6540 l
0.2630 0.6400 l
0.2640 0.6120 l
0.2650 0.6190 l
0.2660 0.6120 l
0.2670 0.6470 l
0.2680 0.5980 l
0.2690 0.6400 l
0.2700 0.6400 l
0.2710 0.5980 l
0.2720 0.5770 l
0.2730 0.5560 l
0.2740 0.5910 l
0.2750 0.5840 l
0.2760 0.5910 l
0.2770 0.6260 l
0.2780 0.6190 l
0.2790 0.5910 l
0.2800 0.5840 l
0.2810 0.5910 l
0.2820 0.6260 l
0.2830 0.6050 l
0.2840 0.6470 l
0.2850 0.6120 l
0.2860 0.6260 l
0.2870 0.6190 l
0.2880 0.6260 l
0.2890 0.6890 l
0.2900 0.6750 l
0.2910 0.7030 l
0.2920 0.6890 l
0.2930 0.6190 l
0.2940 0.5980 l
0.2950 0.6120 l
0.2960 0.6400 l
0.2970 0.6260 l
0.2980 0.5560 l
0.2990 0.5140 l
0.3000 0.5140 l
0.3010 0.5350 l
0.3020 0.5280 l
0.3030 0.5490 l
0.3040 0.5560 l
0.3050 0.5350 l
0.3060 0.5140 l
0.3070 0.5350 l
0.3080 0.5490 l
0.3090 0.5560 l
0.3100 0.6260 l
0.3110 0.6400 l
0.3120 0.6190 l
0.3130 0.6050 l
0.3140 0.6330 l
0.3150 0.5910 l
0.3160 0.5840 l
0.3170 0.6400 l
0.3180 0.6190 l
0.3190 0.7100 l
0.3200 0.6260 l
0.3210 0.6190 l
0.3220 0.6120 l
0.3230 0.5840 l
0.3240 0.6050 l
0.3250 0.5770 l
0.3260 0.5490 l
0.3270 0.5560 l
0.3280 0.5560 l
0.3290 0.5560 l
0.3300 0.5630 l
0.3310 0.5840 l
0.3320 0.6050 l
0.3330 0.5980 l
0.3340 0.6260 l
0.3350 0.6260 l
0.3360 0.6820 l
0.3370 0.6400 l
0.3380 0.5700 l
0.3390 0.5840 l
0.3400 0.5700 l
0.3410 0.5700 l
0.3420 0.5770 l
0.3430 0.5700 l
0.3440 0.6050 l
0.3450 0.6190 l
0.3460 0.5910 l
0.3470 0.6400 l
0.3480 0.6330 l
0.3490 0.6260 l
0.3500 0.6260 l
0.3510 0.6540 l
0.3520 0.6260 l
0.3530 0.6330 l
0.3540 0.6470 l
0.3550 0.6120 l
0.3560 0.6120 l
0.3570 0.5840 l
0.3580 0.5630 l
0.3590 0.5350 l
0.3600 0.5840 l
0.3610 0.5630 l
0.3620 0.5490 l
0.3630 0.5700 l
0.3640 0.5980 l
0.3650 0.6050 l
0.3660 0.5700 l
0.3670 0.5770 l
0.3680 0.5420 l
0.3690 0.5770 l
0.3700 0.6190 l
0.3710 0.5700 l
0.3720 0.5420 l
0.3730 0.5140 l
0.3740 0.5280 l
0.3750 0.5770 l
0.3760 0.5560 l
0.3770 0.6260 l
0.3780 0.5980 l
0.3790 0.6190 l
0.3800 0.5980 l
0.3810 0.6330 l
0.3820 0.5910 l
0.3830 0.6400 l
0.3840 0.5770 l
0.3850 0.5700 l
0.3860 0.5770 l
0.3870 0.5560 l
0.3880 0.5420 l
0.3890 0.5140 l
0.3900 0.5280 l
0.3910 0.5280 l
0.3920 0.5630 l
0.3930 0.5350 l
0.3940 0.5490 l
0.3950 0.5560 l
0.3960 0.5630 l
0.3970 0.5700 l
0.3980 0.5770 l
0.3990 0.5910 l
0.4000 0.5700 l
0.4010 0.5700 l
0.4020 0.6120 l
0.4030 0.5700 l
0.4040 0.5420 l
0.4050 0.5560 l
0.4060 0.6050 l
0.4070 0.6120 l
0.4080 0.5770 l
0.4090 0.5770 l
0.4100 0.6120 l
0.4110 0.5840 l
0.4120 0.5490 l
0.4130 0.5140 l
0.4140 0.5560 l
0.4150 0.5630 l
0.4160 0.5770 l
0.4170 0.5560 l
0.4180 0.5770 l
0.4190 0.6050 l
0.4200 0.6260 l
0.4210 0.5840 l
0.4220 0.5700 l
0.4230 0.5770 l
0.4240 0.5980 l
0.4250 0.5770 l
0.4260 0.5840 l
0.4270 0.5770 l
0.4280 0.6120 l
0.4290 0.6050 l
0.4300 0.5910 l
0.4310 0.6120 l
0.4320 0.5770 l
0.4330 0.5630 l
0.4340 0.5700 l
0.4350 0.5770 l
0.4360 0.5840 l
0.4370 0.5770 l
0.4380 0.5840 l
0.4390 0.6050 l
0.4400 0.6050 l
0.4410 0.6330 l
0.4420 0.5910 l
0.4430 0.5560 l
0.4440 0.5560 l
0.4450 0.5630 l
0.4460 0.5700 l
0.4470 0.5630 l
0.4480 0.5420 l
0.4490 0.5420 l
0.4500 0.5420 l
0.4510 0.5560 l
0.4520 0.5210 l
0.4530 0.5700 l
0.4540 0.5210 l
0.4550 0.5560 l
0.4560 0.5840 l
0.4570 0.5910 l
0.4580 0.6190 l
0.4590 0.6470 l
0.4600 0.6400 l
0.4610 0.6400 l
0.4620 0.6190 l
0.4630 0.6190 l
0.4640 0.5980 l
0.4650 0.6050 l
0.4660 0.5840 l
0.4670 0.6120 l
0.4680 0.5980 l
0.4690 0.5770 l
0.4700 0.5980 l
0.4710 0.5840 l
0.4720 0.6260 l
0.4730 0.5700 l
0.4740 0.5910 l
0.4750 0.5840 l
0.4760 0.5490 l
0.4770 0.6050 l
0.4780 0.5980 l
0.4790 0.6260 l
0.4800 0.5840 l
0.4810 0.5770 l
0.4820 0.5490 l
0.4830 0.5280 l
0.4840 0.5350 l
0.4850 0.5420 l
0.4860 0.5420 l
0.4870 0.6050 l
0.4880 0.5910 l
0.4890 0.5700 l
0.4900 0.5630 l
0.4910 0.5630 l
0.4920 0.5700 l
0.4930 0.5770 l
0.4940 0.5560 l
0.4950 0.5280 l
0.4960 0.5350 l
0.4970 0.5350 l
0.4980 0.5280 l
0.4990 0.5350 l
0.5000 0.5000 l
0.5010 0.5350 l
0.5020 0.5630 l
0.5030 0.5770 l
0.5040 0.5840 l
0.5050 0.5700 l
0.5060 0.5280 l
0.5070 0.5770 l
0.5080 0.5700 l
0.5090 0.5700 l
0.5100 0.5770 l
0.5110 0.5840 l
0.5120 0.5560 l
0.5130 0.5910 l
0.5140 0.6190 l
0.5150 0.6050 l
0.5160 0.5770 l
0.5170 0.6050 l
0.5180 0.5770 l
0.5190 0.5980 l
0.5200 0.6260 l
0.5210 0.5700 l
0.5220 0.5700 l
0.5230 0.5770 l
0.5240 0.5770 l
0.5250 0.5910 l
0.5260 0.6470 l
0.5270 0.5630 l
0.5280 0.5700 l
0.5290 0.5840 l
0.5300 0.5420 l
0.5310 0.5490 l
0.5320 0.6260 l
0.5330 0.6120 l
0.5340 0.5840 l
0.5350 0.5630 l
0.5360 0.5910 l
0.5370 0.5420 l
0.5380 0.5560 l
0.5390 0.6050 l
0.5400 0.6120 l
0.5410 0.5630 l
0.5420 0.5770 l
0.5430 0.5630 l
0.5440 0.5490 l
0.5450 0.5630 l
0.5460 0.5770 l
0.5470 0.5210 l
0.5480 0.5770 l
0.5490 0.6260 l
0.5500 0.6260 l
0.5510 0.6120 l
0.5520 0.6330 l
0.5530 0.5980 l
0.5540 0.5630 l
0.5550 0.5700 l
0.5560 0.5700 l
0.5570 0.6120 l
0.5580 0.5910 l
0.5590 0.5980 l
0.5600 0.5840 l
0.5610 0.5560 l
0.5620 0.5490 l
0.5630 0.5770 l
0.5640 0.5630 l
0.5650 0.5280 l
0.5660 0.5490 l
0.5670 0.5630 l
0.5680 0.5280 l
0.5690 0.5560 l
0.5700 0.5560 l
0.5710 0.5910 l
0.5720 0.5700 l
0.5730 0.6260 l
0.5740 0.6120 l
0.5750 0.6400 l
0.5760 0.6540 l
0.5770 0.6470 l
0.5780 0.5980 l
0.5790 0.6120 l
0.5800 0.5420 l
0.5810 0.5630 l
0.5820 0.5700 l
0.5830 0.5700 l
0.5840 0.5420 l
0.5850 0.5280 l
0.5860 0.5420 l
0.5870 0.5560 l
0.5880 0.5980 l
0.5890 0.5560 l
0.5900 0.5350 l
0.5910 0.5910 l
0.5920 0.6190 l
0.5930 0.5630 l
0.5940 0.5700 l
0.5950 0.5770 l
0.5960 0.5980 l
0.5970 0.5490 l
0.5980 0.5840 l
0.5990 0.5980 l
0.6000 0.5560 l
0.6010 0.5770 l
0.6020 0.5840 l
0.6030 0.5910 l
0.6040 0.5700 l
0.6050 0.5700 l
0.6060 0.5980 l
0.6070 0.5910 l
0.6080 0.5980 l
0.6090 0.6050 l
0.6100 0.5840 l
0.6110 0.5980 l
0.6120 0.5840 l
0.6130 0.5770 l
0.6140 0.6050 l
0.6150 0.5700 l
0.6160 0.5770 l
0.6170 0.5770 l
0.6180 0.5560 l
0.6190 0.5490 l
0.6200 0.5910 l
0.6210 0.5840 l
0.6220 0.5840 l
0.6230 0.5560 l
0.6240 0.5490 l
0.6250 0.5700 l
0.6260 0.5560 l
0.6270 0.5210 l
0.6280 0.5140 l
0.6290 0.5840 l
0.6300 0.6050 l
0.6310 0.5630 l
0.6320 0.5840 l
0.6330 0.5280 l
0.6340 0.5000 l
0.6350 0.5700 l
0.6360 0.5840 l
0.6370 0.5560 l
0.6380 0.5700 l
0.6390 0.5980 l
0.6400 0.5770 l
0.6410 0.5770 l
0.6420 0.5910 l
0.6430 0.6120 l
0.6440 0.6470 l
0.6450 0.6260 l
0.6460 0.6330 l
0.6470 0.6330 l
0.6480 0.5980 l
0.6490 0.5770 l
0.6500 0.5980 l
0.6510 0.5910 l
0.6520 0.5490 l
0.6530 0.6120 l
0.6540 0.5840 l
0.6550 0.5840 l
0.6560 0.6330 l
0.6570 0.6330 l
0.6580 0.6400 l
0.6590 0.6190 l
0.6600 0.6330 l
0.6610 0.5560 l
0.6620 0.5630 l
0.6630 0.6050 l
0.6640 0.6050 l
0.6650 0.5840 l
0.6660 0.5980 l
0.6670 0.5630 l
0.6680 0.5700 l
0.6690 0.5630 l
0.6700 0.5700 l
0.6710 0.5700 l
0.6720 0.5420 l
0.6730 0.5560 l
0.6740 0.5630 l
0.6750 0.5770 l
0.6760 0.5980 l
0.6770 0.5630 l
0.6780 0.5630 l
0.6790 0.5910 l
0.6800 0.6330 l
0.6810 0.6540 l
0.6820 0.6260 l
0.6830 0.5630 l
0.6840 0.5350 l
0.6850 0.5770 l
0.6860 0.6260 l
0.6870 0.6260 l
0.6880 0.6750 l
0.6890 0.6400 l
0.6900 0.6470 l
0.6910 0.6050 l
0.6920 0.6470 l
0.6930 0.6960 l
0.6940 0.6470 l
0.6950 0.5630 l
0.6960 0.6120 l
0.6970 0.6470 l
0.6980 0.5770 l
0.6990 0.5630 l
0.7000 0.6190 l
0.7010 0.5840 l
0.7020 0.5840 l
0.7030 0.5700 l
0.7040 0.6050 l
0.7050 0.6330 l
0.7060 0.6330 l
0.7070 0.6610 l
0.7080 0.6750 l
0.7090 0.6400 l
0.7100 0.6610 l
0.7110 0.6610 l
0.7120 0.6400 l
0.7130 0.6470 l
0.7140 0.6540 l
0.7150 0.6260 l
0.7160 0.6330 l
0.7170 0.6050 l
0.7180 0.6190 l
0.7190 0.6540 l
0.7200 0.6540 l
0.7210 0.6400 l
0.7220 0.6680 l
0.7230 0.6330 l
0.7240 0.6470 l
0.7250 0.6470 l
0.7260 0.6680 l
0.7270 0.6540 l
0.7280 0.6260 l
0.7290 0.5910 l
0.7300 0.5630 l
0.7310 0.5700 l
0.7320 0.5770 l
0.7330 0.5770 l
0.7340 0.5560 l
0.7350 0.5840 l
0.7360 0.6050 l
0.7370 0.5420 l
0.7380 0.5140 l
0.7390 0.5490 l
0.7400 0.5490 l
0.7410 0.5560 l
0.7420 0.5700 l
0.7430 0.5420 l
0.7440 0.5280 l
0.7450 0.5000 l
0.7460 0.5560 l
0.7470 0.5770 l
0.7480 0.5910 l
0.7490 0.6260 l
0.7500 0.7030 l
0.7510 0.6400 l
0.7520 0.6750 l
0.7530 0.6540 l
0.7540 0.7100 l
0.7550 0.6820 l
0.7560 0.6470 l
0.7570 0.6610 l
0.7580 0.6960 l
0.7590 0.6960 l
0.7600 0.6960 l
0.7610 0.6890 l
0.7620 0.6540 l
0.7630 0.6750 l
0.7640 0.6750 l
0.7650 0.6750 l
0.7660 0.6120 l
0.7670 0.6260 l
0.7680 0.6120 l
0.7690 0.5910 l
0.7700 0.5280 l
0.7710 0.5560 l
0.7720 0.5210 l
0.7730 0.5490 l
0.7740 0.5980 l
0.7750 0.6050 l
0.7760 0.6260 l
0.7770 0.6610 l
0.7780 0.6400 l
0.7790 0.6400 l
0.7800 0.5980 l
0.7810 0.5980 l
0.7820 0.5910 l
0.7830 0.5840 l
0.7840 0.6470 l
0.7850 0.6190 l
0.7860 0.6120 l
0.7870 0.5980 l
0.7880 0.6190 l
0.7890 0.6120 l
0.7900 0.6260 l
0.7910 0.6400 l
0.7920 0.6120 l
0.7930 0.6540 l
0.7940 0.6470 l
0.7950 0.6610 l
0.7960 0.6120 l
0.7970 0.6330 l
0.7980 0.6260 l
0.7990 0.6820 l
0.8000 0.7100 l
0.8010 0.6890 l
0.8020 0.7030 l
0.8030 0.6960 l
0.8040 0.7100 l
0.8050 0.7310 l
0.8060 0.6890 l
0.8070 0.6750 l
0.8080 0.6680 l
0.8090 0.6470 l
0.8100 0.6470 l
0.8110 0.6190 l
0.8120 0.6400 l
0.8130 0.6680 l
0.8140 0.6610 l
0.8150 0.6260 l
0.8160 0.6470 l
0.8170 0.6400 l
0.8180 0.6610 l
0.8190 0.6260 l
0.8200 0.6190 l
0.8210 0.6260 l
0.8220 0.6120 l
0.8230 0.6190 l
0.8240 0.6540 l
0.8250 0.6820 l
0.8260 0.6540 l
0.8270 0.5980 l
0.8280 0.5980 l
0.8290 0.5770 l
0.8300 0.5560 l
0.8310 0.5980 l
0.8320 0.5630 l
0.8330 0.5350 l
0.8340 0.5210 l
0.8350 0.5910 l
0.8360 0.5770 l
0.8370 0.6260 l
0.8380 0.6540 l
0.8390 0.6470 l
0.8400 0.6260 l
0.8410 0.5910 l
0.8420 0.6190 l
0.8430 0.6260 l
0.8440 0.6120 l
0.8450 0.5980 l
0.8460 0.5910 l
0.8470 0.5490 l
0.8480 0.5560 l
0.8490 0.5210 l
0.8500 0.5910 l
0.8510 0.5630 l
0.8520 0.5420 l
0.8530 0.5840 l
0.8540 0.5700 l
0.8550 0.6050 l
0.8560 0.5560 l
0.8570 0.5770 l
0.8580 0.5350 l
0.8590 0.5350 l
0.8600 0.5910 l
0.8610 0.6260 l
0.8620 0.5840 l
0.8630 0.5910 l
0.8640 0.5770 l
0.8650 0.5630 l
0.8660 0.5560 l
0.8670 0.5910 l
0.8680 0.5840 l
0.8690 0.5560 l
0.8700 0.5700 l
0.8710 0.5630 l
0.8720 0.6190 l
0.8730 0.5490 l
0.8740 0.5140 l
0.8750 0.5770 l
0.8760 0.5490 l
0.8770 0.5140 l
0.8780 0.5000 l
0.8790 0.5000 l
0.8800 0.5280 l
0.8810 0.5490 l
0.8820 0.5280 l
0.8830 0.5140 l
0.8840 0.5140 l
0.8850 0.5560 l
0.8860 0.5840 l
0.8870 0.5980 l
0.8880 0.6050 l
0.8890 0.6470 l
0.8900 0.5980 l
0.8910 0.5770 l
0.8920 0.5700 l
0.8930 0.5770 l
0.8940 0.5840 l
0.8950 0.6190 l
0.8960 0.6050 l
0.8970 0.6120 l
0.8980 0.5980 l
0.8990 0.5700 l
0.9000 0.5140 l
0.9010 0.5560 l
0.9020 0.5770 l
0.9030 0.6120 l
0.9040 0.6120 l
0.9050 0.6120 l
0.9060 0.5980 l
0.9070 0.5770 l
0.9080 0.6120 l
0.9090 0.5770 l
0.9100 0.5630 l
0.9110 0.5700 l
0.9120 0.5420 l
0.9130 0.5140 l
0.9140 0.5280 l
0.9150 0.5280 l
0.9160 0.5420 l
0.9170 0.5770 l
0.9180 0.6260 l
0.9190 0.6190 l
0.9200 0.5980 l
0.9210 0.5560 l
0.9220 0.5700 l
0.9230 0.5980 l
0.9240 0.5840 l
0.9250 0.6050 l
0.9260 0.6190 l
0.9270 0.5980 l
0.9280 0.5770 l
0.9290 0.6120 l
0.9300 0.5490 l
0.9310 0.6400 l
0.9320 0.6120 l
0.9330 0.6050 l
0.9340 0.5770 l
0.9350 0.5630 l
0.9360 0.5560 l
0.9370 0.5770 l
0.9380 0.5980 l
0.9390 0.6400 l
0.9400 0.5840 l
0.9410 0.5490 l
0.9420 0.5280 l
0.9430 0.5280 l
0.9440 0.5490 l
0.9450 0.5910 l
0.9460 0.5490 l
0.9470 0.5420 l
0.9480 0.5490 l
0.9490 0.5770 l
0.9500 0.5560 l
0.9510 0.5420 l
0.9520 0.5420 l
0.9530 0.5700 l
0.9540 0.6120 l
0.9550 0.6050 l
0.9560 0.5560 l
0.9570 0.5490 l
0.9580 0.5350 l
0.9590 0.5840 l
0.9600 0.5980 l
0.9610 0.5140 l
0.9620 0.5490 l
0.9630 0.5350 l
0.9640 0.5910 l
0.9650 0.5910 l
0.9660 0.5980 l
0.9670 0.6470 l
0.9680 0.6470 l
0.9690 0.6470 l
0.9700 0.6050 l
0.9710 0.6400 l
0.9720 0.5980 l
0.9730 0.5910 l
0.9740 0.6120 l
0.9750 0.6260 l
0.9760 0.6120 l
0.9770 0.5840 l
0.9780 0.5560 l
0.9790 0.5700 l
0.9800 0.5700 l
0.9810 0.5770 l
0.9820 0.6050 l
0.9830 0.5770 l
0.9840 0.5980 l
0.9850 0.5770 l
0.9860 0.6190 l
0.9870 0.6120 l
0.9880 0.6120 l
0.9890 0.5770 l
0.9900 0.5420 l
0.9910 0.6120 l
0.9920 0.5840 l
0.9930 0.5980 l
0.9940 0.6330 l
0.9950 0.6330 l
0.9960 0.6540 l
0.9970 0.6190 l
0.9980 0.5700 l
0.9990 0.5910 l
1.0000 0.6120 l
1.0010 0.6120 l
1.0020 0.5560 l
1.0030 0.5840 l
1.0040 0.5560 l
1.0050 0.5770 l
1.0060 0.5980 l
1.0070 0.6260 l
1.0080 0.5910 l
1.0090 0.6050 l
1.0100 0.5840 l
1.0110 0.5630 l
1.0120 0.5560 l
1.0130 0.6330 l
1.0140 0.6120 l
1.0150 0.6540 l
1.0160 0.6260 l
1.0170 0.6400 l
1.0180 0.6680 l
1.0190 0.6540 l
1.0200 0.6050 l
1.0210 0.6050 l
1.0220 0.6820 l
1.0230 0.6400 l
1.0240 0.6470 l
1.0250 0.6680 l
1.0260 0.6750 l
1.0270 0.6750 l
1.0280 0.6470 l
1.0290 0.6120 l
1.0300 0.6190 l
1.0310 0.5420 l
1.0320 0.5840 l
1.0330 0.6260 l
1.0340 0.6190 l
1.0350 0.5980 l
1.0360 0.5770 l
1.0370 0.6120 l
1.0380 0.6330 l
1.0390 0.6050 l
1.0400 0.5840 l
1.0410 0.6050 l
1.0420 0.6540 l
1.0430 0.5910 l
1.0440 0.6260 l
1.0450 0.6610 l
1.0460 0.6400 l
1.0470 0.6890 l
1.0480 0.6260 l
1.0490 0.6120 l
1.0500 0.6400 l
1.0510 0.6330 l
1.0520 0.6260 l
1.0530 0.6610 l
1.0540 0.6190 l
1.0550 0.6330 l
1.0560 0.5840 l
1.0570 0.5840 l
1.0580 0.5420 l
1.0590 0.5350 l
1.0600 0.5840 l
1.0610 0.5700 l
1.0620 0.5980 l
1.0630 0.5980 l
1.0640 0.6190 l
1.0650 0.5910 l
1.0660 0.5770 l
1.0670 0.6120 l
1.0680 0.5840 l
1.0690 0.5980 l
1.0700 0.6330 l
1.0710 0.6330 l
1.0720 0.6050 l
1.0730 0.5910 l
1.0740 0.5420 l
1.0750 0.5560 l
1.0760 0.5490 l
1.0770 0.5770 l
1.0780 0.6120 l
1.0790 0.5980 l
1.0800 0.5770 l
1.0810 0.5140 l
1.0820 0.5210 l
1.0830 0.5420 l
1.0840 0.5140 l
1.0850 0.5350 l
1.0860 0.5280 l
1.0870 0.5490 l
1.0880 0.5420 l
1.0890 0.5490 l
1.0900 0.5560 l
1.0910 0.5350 l
1.0920 0.5630 l
1.0930 0.5560 l
1.0940 0.5000 l
1.0950 0.5350 l
1.0960 0.5350 l
1.0970 0.5630 l
1.0980 0.5350 l
1.0990 0.5280 l
1.1000 0.5280 l
1.1010 0.5490 l
1.1020 0.5000 l
1.1030 0.5910 l
1.1040 0.5700 l
1.1050 0.5840 l
1.1060 0.5770 l
1.1070 0.6050 l
1.1080 0.6120 l
1.1090 0.5840 l
1.1100 0.6330 l
1.1110 0.6260 l
1.1120 0.5910 l
1.1130 0.5840 l
1.1140 0.5980 l
1.1150 0.6050 l
1.1160 0.5840 l
1.1170 0.5770 l
1.1180 0.6400 l
1.1190 0.5980 l
1.1200 0.6120 l
1.1210 0.6330 l
1.1220 0.6260 l
1.1230 0.6470 l
1.1240 0.6890 l
1.1250 0.6400 l
1.1260 0.6400 l
1.1270 0.5840 l
1.1280 0.5910 l
1.1290 0.5910 l
1.1300 0.6050 l
1.1310 0.6750 l
1.1320 0.6470 l
1.1330 0.6470 l
1.1340 0.6890 l
1.1350 0.6680 l
1.1360 0.6540 l
1.1370 0.6680 l
1.1380 0.6610 l
1.1390 0.6820 l
1.1400 0.6540 l
1.1410 0.6610 l
1.1420 0.5980 l
1.1430 0.6260 l
1.1440 0.6050 l
1.1450 0.6120 l
1.1460 0.5840 l
1.1470 0.5560 l
1.1480 0.6050 l
1.1490 0.6400 l
1.1500 0.6330 l
1.1501 0.6288 l
s
[/DeviceRGB] SCS
Color4 SC
n
0.1500 0.1570 m
0.1510 0.1815 l
0.1520 0.1675 l
0.1530 0.1675 l
0.1540 0.1640 l
0.1550 0.1710 l
0.1560 0.1920 l
0.1570 0.1920 l
0.1580 0.1850 l
0.1590 0.1780 l
0.1600 0.1780 l
0.1610 0.1850 l
0.1620 0.1850 l
0.1630 0.2095 l
0.1640 0.2200 l
0.1650 0.2270 l
0.1660 0.2480 l
0.1670 0.2550 l
0.1680 0.2340 l
0.1690 0.2445 l
0.1700 0.2340 l
0.1710 0.2480 l
0.1720 0.2620 l
0.1730 0.2760 l
0.1740 0.3005 l
0.1750 0.3040 l
0.1760 0.3005 l
0.1770 0.3040 l
0.1780 0.3110 l
0.1790 0.2900 l
0.1800 0.2760 l
0.1810 0.2480 l
0.1820 0.2305 l
0.1830 0.2585 l
0.1840 0.2760 l
0.1850 0.2900 l
0.1860 0.3110 l
0.1870 0.3040 l
0.1880 0.2970 l
0.1890 0.3005 l
0.1900 0.3005 l
0.1910 0.2935 l
0.1920 0.2970 l
0.1930 0.2935 l
0.1940 0.3075 l
0.1950 0.3040 l
0.1960 0.3110 l
0.1970 0.3145 l
0.1980 0.2970 l
0.1990 0.3110 l
0.2000 0.3005 l
0.2010 0.3110 l
0.2020 0.3005 l
0.2030 0.3075 l
0.2040 0.3040 l
0.2050 0.3215 l
0.2060 0.3180 l
0.2070 0.3180 l
0.2080 0.3250 l
0.2090 0.3215 l
0.2100 0.3040 l
0.2110 0.3180 l
0.2120 0.2830 l
0.2130 0.2935 l
0.2140 0.2970 l
0.2150 0.2865 l
0.2160 0.2865 l
0.2170 0.2900 l
0.2180 0.3040 l
0.2190 0.3040 l
0.2200 0.2935 l
0.2210 0.2935 l
0.2220 0.3075 l
0.2230 0.2970 l
0.2240 0.2935 l
0.2250 0.3040 l
0.2260 0.2970 l
0.2270 0.2690 l
0.2280 0.2690 l
0.2290 0.2970 l
0.2300 0.3040 l
0.2310 0.2830 l
0.2320 0.2795 l
0.2330 0.2655 l
0.2340 0.2375 l
0.2350 0.2410 l
0.2360 0.2550 l
0.2370 0.2900 l
0.2380 0.2830 l
0.2390 0.2760 l
0.2400 0.2760 l
0.2410 0.2970 l
0.2420 0.2935 l
0.2430 0.2725 l
0.2440 0.2655 l
0.2450 0.2865 l
0.2460 0.2760 l
0.2470 0.2760 l
0.2480 0.2725 l
0.2490 0.2620 l
0.2500 0.2620 l
0.2510 0.2830 l
0.2520 0.2550 l
0.2530 0.2655 l
0.2540 0.2690 l
0.2550 0.2620 l
0.2560 0.2305 l
0.2570 0.2270 l
0.2580 0.2480 l
0.2590 0.2515 l
0.2600 0.2655 l
0.2610 0.2620 l
0.2620 0.2410 l
0.2630 0.2690 l
0.2640 0.2690 l
0.2650 0.2585 l
0.2660 0.2760 l
0.2670 0.2655 l
0.2680 0.2900 l
0.2690 0.2760 l
0.2700 0.2725 l
0.2710 0.2900 l
0.2720 0.2900 l
0.2730 0.3005 l
0.2740 0.2970 l
0.2750 0.3005 l
0.2760 0.2935 l
0.2770 0.2690 l
0.2780 0.2830 l
0.2790 0.2865 l
0.2800 0.2970 l
0.2810 0.2830 l
0.2820 0.2725 l
0.2830 0.2900 l
0.2840 0.2585 l
0.2850 0.2760 l
0.2860 0.2725 l
0.2870 0.2655 l
0.2880 0.2725 l
0.2890 0.2200 l
0.2900 0.2515 l
0.2910 0.2340 l
0.2920 0.2585 l
0.2930 0.2760 l
0.2940 0.2550 l
0.2950 0.2620 l
0.2960 0.2585 l
0.2970 0.2865 l
0.2980 0.3075 l
0.2990 0.3215 l
0.3000 0.3215 l
0.3010 0.3145 l
0.3020 0.3180 l
0.3030 0.3075 l
0.3040 0.3075 l
0.3050 0.3110 l
0.3060 0.3215 l
0.3070 0.3145 l
0.3080 0.3075 l
0.3090 0.3075 l
0.3100 0.2655 l
0.3110 0.2620 l
0.3120 0.2760 l
0.3130 0.2900 l
0.3140 0.2725 l
0.3150 0.2900 l
0.3160 0.2935 l
0.3170 0.2795 l
0.3180 0.2795 l
0.3190 0.2305 l
0.3200 0.2375 l
0.3210 0.2550 l
0.3220 0.2725 l
0.3230 0.2900 l
0.3240 0.2690 l
0.3250 0.2935 l
0.3260 0.3040 l
0.3270 0.3040 l
0.3280 0.2935 l
0.3290 0.3005 l
0.3300 0.2935 l
0.3310 0.2865 l
0.3320 0.2795 l
0.3330 0.2865 l
0.3340 0.2655 l
0.3350 0.2620 l
0.3360 0.2375 l
0.3370 0.2690 l
0.3380 0.2935 l
0.3390 0.2970 l
0.3400 0.2900 l
0.3410 0.2935 l
0.3420 0.2830 l
0.3430 0.2865 l
0.3440 0.2760 l
0.3450 0.2655 l
0.3460 0.2760 l
0.3470 0.2690 l
0.3480 0.2725 l
0.3490 0.2795 l
0.3500 0.2725 l
0.3510 0.2620 l
0.3520 0.2620 l
0.3530 0.2690 l
0.3540 0.2515 l
0.3550 0.2795 l
0.3560 0.2900 l
0.3570 0.3005 l
0.3580 0.3075 l
0.3590 0.3145 l
0.3600 0.3005 l
0.3610 0.3075 l
0.3620 0.3110 l
0.3630 0.3075 l
0.3640 0.2935 l
0.3650 0.2900 l
0.3660 0.3005 l
0.3670 0.3005 l
0.3680 0.3110 l
0.3690 0.2900 l
0.3700 0.2760 l
0.3710 0.3040 l
0.3720 0.3145 l
0.3730 0.3215 l
0.3740 0.3180 l
0.3750 0.3040 l
0.3760 0.3075 l
0.3770 0.2795 l
0.3780 0.2935 l
0.3790 0.2865 l
0.3800 0.2900 l
0.3810 0.2690 l
0.3820 0.2970 l
0.3830 0.2725 l
0.3840 0.2970 l
0.3850 0.3005 l
0.3860 0.3040 l
0.3870 0.3075 l
0.3880 0.3145 l
0.3890 0.3215 l
0.3900 0.3180 l
0.3910 0.3180 l
0.3920 0.3075 l
0.3930 0.3145 l
0.3940 0.3110 l
0.3950 0.3075 l
0.3960 0.3040 l
0.3970 0.2970 l
0.3980 0.2935 l
0.3990 0.2935 l
0.4000 0.3005 l
0.4010 0.3005 l
0.4020 0.2830 l
0.4030 0.3075 l
0.4040 0.3145 l
0.4050 0.3075 l
0.4060 0.2935 l
0.4070 0.2900 l
0.4080 0.2935 l
0.4090 0.2830 l
0.4100 0.2900 l
0.4110 0.3005 l
0.4120 0.3110 l
0.4130 0.3215 l
0.4140 0.3040 l
0.4150 0.2935 l
0.4160 0.2935 l
0.4170 0.3075 l
0.4180 0.3040 l
0.4190 0.2900 l
0.4200 0.2795 l
0.4210 0.2900 l
0.4220 0.2900 l
0.4230 0.2760 l
0.4240 0.2655 l
0.4250 0.2900 l
0.4260 0.2760 l
0.4270 0.2690 l
0.4280 0.2655 l
0.4290 0.2655 l
0.4300 0.2865 l
0.4310 0.2865 l
0.4320 0.2970 l
0.4330 0.3005 l
0.4340 0.3005 l
0.4350 0.2935 l
0.4360 0.3005 l
0.4370 0.3005 l
0.4380 0.2795 l
0.4390 0.2795 l
0.4400 0.2865 l
0.4410 0.2725 l
0.4420 0.2900 l
0.4430 0.3005 l
0.4440 0.3040 l
0.4450 0.3075 l
0.4460 0.3075 l
0.4470 0.3075 l
0.4480 0.3110 l
0.4490 0.3110 l
0.4500 0.3110 l
0.4510 0.3040 l
0.4520 0.3180 l
0.4530 0.3075 l
0.4540 0.3180 l
0.4550 0.3040 l
0.4560 0.3005 l
0.4570 0.2760 l
0.4580 0.2620 l
0.4590 0.2655 l
0.4600 0.2725 l
0.4610 0.2690 l
0.4620 0.2830 l
0.4630 0.2795 l
0.4640 0.2935 l
0.4650 0.2900 l
0.4660 0.2935 l
0.4670 0.2900 l
0.4680 0.2760 l
0.4690 0.2970 l
0.4700 0.2830 l
0.4710 0.2900 l
0.4720 0.2795 l
0.4730 0.2970 l
0.4740 0.2935 l
0.4750 0.2830 l
0.4760 0.3075 l
0.4770 0.2900 l
0.4780 0.2900 l
0.4790 0.2865 l
0.4800 0.3005 l
0.4810 0.2935 l
0.4820 0.3040 l
0.4830 0.3180 l
0.4840 0.3145 l
0.4850 0.3075 l
0.4860 0.3110 l
0.4870 0.2935 l
0.4880 0.2970 l
0.4890 0.3040 l
0.4900 0.3040 l
0.4910 0.3005 l
0.4920 0.2970 l
0.4930 0.3040 l
0.4940 0.3110 l
0.4950 0.3180 l
0.4960 0.3145 l
0.4970 0.3145 l
0.4980 0.3180 l
0.4990 0.3145 l
0.5000 0.3250 l
0.5010 0.3145 l
0.5020 0.3040 l
0.5030 0.2970 l
0.5040 0.3005 l
0.5050 0.3075 l
0.5060 0.3145 l
0.5070 0.3005 l
0.5080 0.2970 l
0.5090 0.2935 l
0.5100 0.3040 l
0.5110 0.3005 l
0.5120 0.3075 l
0.5130 0.2970 l
0.5140 0.2830 l
0.5150 0.2795 l
0.5160 0.3040 l
0.5170 0.2970 l
0.5180 0.3040 l
0.5190 0.2900 l
0.5200 0.2830 l
0.5210 0.3005 l
0.5220 0.2935 l
0.5230 0.2865 l
0.5240 0.2935 l
0.5250 0.2900 l
0.5260 0.2760 l
0.5270 0.3075 l
0.5280 0.3005 l
0.5290 0.3005 l
0.5300 0.3145 l
0.5310 0.3075 l
0.5320 0.2830 l
0.5330 0.2830 l
0.5340 0.3005 l
0.5350 0.3075 l
0.5360 0.2970 l
0.5370 0.3145 l
0.5380 0.3075 l
0.5390 0.2900 l
0.5400 0.2865 l
0.5410 0.3040 l
0.5420 0.3005 l
0.5430 0.3040 l
0.5440 0.3005 l
0.5450 0.2970 l
0.5460 0.3040 l
0.5470 0.3180 l
0.5480 0.3040 l
0.5490 0.2795 l
0.5500 0.2760 l
0.5510 0.2830 l
0.5520 0.2795 l
0.5530 0.2900 l
0.5540 0.3040 l
0.5550 0.3040 l
0.5560 0.2935 l
0.5570 0.2865 l
0.5580 0.2935 l
0.5590 0.2970 l
0.5600 0.2970 l
0.5610 0.3040 l
0.5620 0.3110 l
0.5630 0.3005 l
0.5640 0.3075 l
0.5650 0.3180 l
0.5660 0.3110 l
0.5670 0.3040 l
0.5680 0.3180 l
0.5690 0.3075 l
0.5700 0.3005 l
0.5710 0.2935 l
0.5720 0.3005 l
0.5730 0.2865 l
0.5740 0.2830 l
0.5750 0.2725 l
0.5760 0.2725 l
0.5770 0.2690 l
0.5780 0.2830 l
0.5790 0.2760 l
0.5800 0.3005 l
0.5810 0.3075 l
0.5820 0.3040 l
0.5830 0.3040 l
0.5840 0.3145 l
0.5850 0.3180 l
0.5860 0.3075 l
0.5870 0.3005 l
0.5880 0.2970 l
0.5890 0.3110 l
0.5900 0.3145 l
0.5910 0.3005 l
0.5920 0.2865 l
0.5930 0.3075 l
0.5940 0.3005 l
0.5950 0.2935 l
0.5960 0.2900 l
0.5970 0.3110 l
0.5980 0.2970 l
0.5990 0.2830 l
0.6000 0.3075 l
0.6010 0.3040 l
0.6020 0.2970 l
0.6030 0.2865 l
0.6040 0.2970 l
0.6050 0.3040 l
0.6060 0.3005 l
0.6070 0.2935 l
0.6080 0.2900 l
0.6090 0.2900 l
0.6100 0.2935 l
0.6110 0.2900 l
0.6120 0.3005 l
0.6130 0.3040 l
0.6140 0.2900 l
0.6150 0.3005 l
0.6160 0.2970 l
0.6170 0.2900 l
0.6180 0.3075 l
0.6190 0.3110 l
0.6200 0.3005 l
0.6210 0.3005 l
0.6220 0.2970 l
0.6230 0.3110 l
0.6240 0.3075 l
0.6250 0.2970 l
0.6260 0.3040 l
0.6270 0.3180 l
0.6280 0.3215 l
0.6290 0.2970 l
0.6300 0.2865 l
0.6310 0.3040 l
0.6320 0.2970 l
0.6330 0.3180 l
0.6340 0.3250 l
0.6350 0.3040 l
0.6360 0.2900 l
0.6370 0.3005 l
0.6380 0.2935 l
0.6390 0.2865 l
0.6400 0.3040 l
0.6410 0.2970 l
0.6420 0.2865 l
0.6430 0.2690 l
0.6440 0.2550 l
0.6450 0.2760 l
0.6460 0.2760 l
0.6470 0.2725 l
0.6480 0.2865 l
0.6490 0.2970 l
0.6500 0.2900 l
0.6510 0.2935 l
0.6520 0.3005 l
0.6530 0.2935 l
0.6540 0.3040 l
0.6550 0.2970 l
0.6560 0.2760 l
0.6570 0.2795 l
0.6580 0.2585 l
0.6590 0.2795 l
0.6600 0.2760 l
0.6610 0.3075 l
0.6620 0.3075 l
0.6630 0.2900 l
0.6640 0.2830 l
0.6650 0.3005 l
0.6660 0.2935 l
0.6670 0.3075 l
0.6680 0.3040 l
0.6690 0.3040 l
0.6700 0.3040 l
0.6710 0.3040 l
0.6720 0.3110 l
0.6730 0.3075 l
0.6740 0.3075 l
0.6750 0.2900 l
0.6760 0.2970 l
0.6770 0.3075 l
0.6780 0.3075 l
0.6790 0.2865 l
0.6800 0.2690 l
0.6810 0.2725 l
0.6820 0.2760 l
0.6830 0.3005 l
0.6840 0.3145 l
0.6850 0.3005 l
0.6860 0.2795 l
0.6870 0.2795 l
0.6880 0.2305 l
0.6890 0.2515 l
0.6900 0.2515 l
0.6910 0.2760 l
0.6920 0.2585 l
0.6930 0.2515 l
0.6940 0.2620 l
0.6950 0.2935 l
0.6960 0.2900 l
0.6970 0.2690 l
0.6980 0.3005 l
0.6990 0.3040 l
0.7000 0.2830 l
0.7010 0.2970 l
0.7020 0.2970 l
0.7030 0.2900 l
0.7040 0.2515 l
0.7050 0.2375 l
0.7060 0.2235 l
0.7070 0.2025 l
0.7080 0.2130 l
0.7090 0.2095 l
0.7100 0.2410 l
0.7110 0.2375 l
0.7120 0.2270 l
0.7130 0.2130 l
0.7140 0.2445 l
0.7150 0.2515 l
0.7160 0.2725 l
0.7170 0.2830 l
0.7180 0.2760 l
0.7190 0.2655 l
0.7200 0.2620 l
0.7210 0.2515 l
0.7220 0.2445 l
0.7230 0.2655 l
0.7240 0.2550 l
0.7250 0.2515 l
0.7260 0.2480 l
0.7270 0.2480 l
0.7280 0.2725 l
0.7290 0.2970 l
0.7300 0.3075 l
0.7310 0.3075 l
0.7320 0.3040 l
0.7330 0.3005 l
0.7340 0.3110 l
0.7350 0.3040 l
0.7360 0.2900 l
0.7370 0.3110 l
0.7380 0.3215 l
0.7390 0.3110 l
0.7400 0.3110 l
0.7410 0.3110 l
0.7420 0.3040 l
0.7430 0.3110 l
0.7440 0.3180 l
0.7450 0.3250 l
0.7460 0.3110 l
0.7470 0.3005 l
0.7480 0.2900 l
0.7490 0.2620 l
0.7500 0.2445 l
0.7510 0.2445 l
0.7520 0.2095 l
0.7530 0.2025 l
0.7540 0.1920 l
0.7550 0.2130 l
0.7560 0.2515 l
0.7570 0.2515 l
0.7580 0.2515 l
0.7590 0.1920 l
0.7600 0.2130 l
0.7610 0.2130 l
0.7620 0.2235 l
0.7630 0.1955 l
0.7640 0.1955 l
0.7650 0.1955 l
0.7660 0.2235 l
0.7670 0.2550 l
0.7680 0.2690 l
0.7690 0.2830 l
0.7700 0.3180 l
0.7710 0.3110 l
0.7720 0.3180 l
0.7730 0.3110 l
0.7740 0.3005 l
0.7750 0.2935 l
0.7760 0.2865 l
0.7770 0.2655 l
0.7780 0.2655 l
0.7790 0.2585 l
0.7800 0.2795 l
0.7810 0.2935 l
0.7820 0.2900 l
0.7830 0.2830 l
0.7840 0.2655 l
0.7850 0.2830 l
0.7860 0.2830 l
0.7870 0.2865 l
0.7880 0.2655 l
0.7890 0.2620 l
0.7900 0.2480 l
0.7910 0.2585 l
0.7920 0.2655 l
0.7930 0.2585 l
0.7940 0.2200 l
0.7950 0.2235 l
0.7960 0.2305 l
0.7970 0.2025 l
0.7980 0.2025 l
0.7990 0.2095 l
0.8000 0.2060 l
0.8010 0.2060 l
0.8020 0.1745 l
0.8030 0.1745 l
0.8040 0.1710 l
0.8050 0.1815 l
0.8060 0.2235 l
0.8070 0.2165 l
0.8080 0.2025 l
0.8090 0.1815 l
0.8100 0.2305 l
0.8110 0.2340 l
0.8120 0.2235 l
0.8130 0.1955 l
0.8140 0.2375 l
0.8150 0.2550 l
0.8160 0.2550 l
0.8170 0.2655 l
0.8180 0.2585 l
0.8190 0.2865 l
0.8200 0.2830 l
0.8210 0.2830 l
0.8220 0.2865 l
0.8230 0.2795 l
0.8240 0.2550 l
0.8250 0.2375 l
0.8260 0.2585 l
0.8270 0.2935 l
0.8280 0.2970 l
0.8290 0.3040 l
0.8300 0.3075 l
0.8310 0.2935 l
0.8320 0.3040 l
0.8330 0.3145 l
0.8340 0.3180 l
0.8350 0.2970 l
0.8360 0.3040 l
0.8370 0.2830 l
0.8380 0.2725 l
0.8390 0.2655 l
0.8400 0.2690 l
0.8410 0.2795 l
0.8420 0.2655 l
0.8430 0.2690 l
0.8440 0.2830 l
0.8450 0.2865 l
0.8460 0.2865 l
0.8470 0.3040 l
0.8480 0.3110 l
0.8490 0.3180 l
0.8500 0.2900 l
0.8510 0.3075 l
0.8520 0.3145 l
0.8530 0.2935 l
0.8540 0.3005 l
0.8550 0.2865 l
0.8560 0.3075 l
0.8570 0.3040 l
0.8580 0.3145 l
0.8590 0.3145 l
0.8600 0.2935 l
0.8610 0.2760 l
0.8620 0.2900 l
0.8630 0.2865 l
0.8640 0.2935 l
0.8650 0.3040 l
0.8660 0.3110 l
0.8670 0.3005 l
0.8680 0.3005 l
0.8690 0.3075 l
0.8700 0.3040 l
0.8710 0.3075 l
0.8720 0.2900 l
0.8730 0.3110 l
0.8740 0.3215 l
0.8750 0.3005 l
0.8760 0.3110 l
0.8770 0.3215 l
0.8780 0.3250 l
0.8790 0.3250 l
0.8800 0.3180 l
0.8810 0.3110 l
0.8820 0.3180 l
0.8830 0.3215 l
0.8840 0.3215 l
0.8850 0.2970 l
0.8860 0.2935 l
0.8870 0.2795 l
0.8880 0.2830 l
0.8890 0.2620 l
0.8900 0.2830 l
0.8910 0.2970 l
0.8920 0.3040 l
0.8930 0.2970 l
0.8940 0.2970 l
0.8950 0.2725 l
0.8960 0.2760 l
0.8970 0.2760 l
0.8980 0.2830 l
0.8990 0.3005 l
0.9000 0.3215 l
0.9010 0.3075 l
0.9020 0.3005 l
0.9030 0.2935 l
0.9040 0.2935 l
0.9050 0.2865 l
0.9060 0.2900 l
0.9070 0.3005 l
0.9080 0.2865 l
0.9090 0.2900 l
0.9100 0.3075 l
0.9110 0.3040 l
0.9120 0.3145 l
0.9130 0.3215 l
0.9140 0.3180 l
0.9150 0.3180 l
0.9160 0.3110 l
0.9170 0.3005 l
0.9180 0.2725 l
0.9190 0.2900 l
0.9200 0.2900 l
0.9210 0.3005 l
0.9220 0.2970 l
0.9230 0.2795 l
0.9240 0.2865 l
0.9250 0.2830 l
0.9260 0.2760 l
0.9270 0.2970 l
0.9280 0.3040 l
0.9290 0.2830 l
0.9300 0.3075 l
0.9310 0.2760 l
0.9320 0.2900 l
0.9330 0.2900 l
0.9340 0.3005 l
0.9350 0.3040 l
0.9360 0.3005 l
0.9370 0.3005 l
0.9380 0.2830 l
0.9390 0.2795 l
0.9400 0.2970 l
0.9410 0.3110 l
0.9420 0.3110 l
0.9430 0.3180 l
0.9440 0.3075 l
0.9450 0.2900 l
0.9460 0.3110 l
0.9470 0.3145 l
0.9480 0.3110 l
0.9490 0.3005 l
0.9500 0.3075 l
0.9510 0.3110 l
0.9520 0.3145 l
0.9530 0.2935 l
0.9540 0.2900 l
0.9550 0.2970 l
0.9560 0.3075 l
0.9570 0.3075 l
0.9580 0.3145 l
0.9590 0.3005 l
0.9600 0.2935 l
0.9610 0.3215 l
0.9620 0.3075 l
0.9630 0.3110 l
0.9640 0.2795 l
0.9650 0.2760 l
0.9660 0.2725 l
0.9670 0.2550 l
0.9680 0.2585 l
0.9690 0.2515 l
0.9700 0.2690 l
0.9710 0.2690 l
0.9720 0.2865 l
0.9730 0.2970 l
0.9740 0.2900 l
0.9750 0.2865 l
0.9760 0.2935 l
0.9770 0.3005 l
0.9780 0.3040 l
0.9790 0.2970 l
0.9800 0.3005 l
0.9810 0.3005 l
0.9820 0.2935 l
0.9830 0.3040 l
0.9840 0.2970 l
0.9850 0.3005 l
0.9860 0.2795 l
0.9870 0.2725 l
0.9880 0.2655 l
0.9890 0.2900 l
0.9900 0.3145 l
0.9910 0.2935 l
0.9920 0.2970 l
0.9930 0.2795 l
0.9940 0.2795 l
0.9950 0.2865 l
0.9960 0.2655 l
0.9970 0.2830 l
0.9980 0.3040 l
0.9990 0.3005 l
1.0000 0.2970 l
1.0010 0.2900 l
1.0020 0.3075 l
1.0030 0.3005 l
1.0040 0.3110 l
1.0050 0.3005 l
1.0060 0.2970 l
1.0070 0.2830 l
1.0080 0.2900 l
1.0090 0.2900 l
1.0100 0.2830 l
1.0110 0.2935 l
1.0120 0.3075 l
1.0130 0.2830 l
1.0140 0.2760 l
1.0150 0.2480 l
1.0160 0.2480 l
1.0170 0.2340 l
1.0180 0.2410 l
1.0190 0.2690 l
1.0200 0.2830 l
1.0210 0.2690 l
1.0220 0.2340 l
1.0230 0.2340 l
1.0240 0.2410 l
1.0250 0.2235 l
1.0260 0.2270 l
1.0270 0.2165 l
1.0280 0.2550 l
1.0290 0.2795 l
1.0300 0.2865 l
1.0310 0.3145 l
1.0320 0.2970 l
1.0330 0.2830 l
1.0340 0.2760 l
1.0350 0.2830 l
1.0360 0.2935 l
1.0370 0.2655 l
1.0380 0.2550 l
1.0390 0.2865 l
1.0400 0.2760 l
1.0410 0.2655 l
1.0420 0.2375 l
1.0430 0.2865 l
1.0440 0.2620 l
1.0450 0.2410 l
1.0460 0.2410 l
1.0470 0.2480 l
1.0480 0.2830 l
1.0490 0.2900 l
1.0500 0.2725 l
1.0510 0.2690 l
1.0520 0.2690 l
1.0530 0.2655 l
1.0540 0.2760 l
1.0550 0.2830 l
1.0560 0.3005 l
1.0570 0.2970 l
1.0580 0.3145 l
1.0590 0.3145 l
1.0600 0.3005 l
1.0610 0.2935 l
1.0620 0.2830 l
1.0630 0.2900 l
1.0640 0.2795 l
1.0650 0.2900 l
1.0660 0.3005 l
1.0670 0.2830 l
1.0680 0.2935 l
1.0690 0.2935 l
1.0700 0.2585 l
1.0710 0.2760 l
1.0720 0.2935 l
1.0730 0.3005 l
1.0740 0.3110 l
1.0750 0.3040 l
1.0760 0.3040 l
1.0770 0.2935 l
1.0780 0.2900 l
1.0790 0.2830 l
1.0800 0.3040 l
1.0810 0.3215 l
1.0820 0.3180 l
1.0830 0.3145 l
1.0840 0.3215 l
1.0850 0.3145 l
1.0860 0.3180 l
1.0870 0.3110 l
1.0880 0.3145 l
1.0890 0.3110 l
1.0900 0.3110 l
1.0910 0.3145 l
1.0920 0.3040 l
1.0930 0.3110 l
1.0940 0.3250 l
1.0950 0.3145 l
1.0960 0.3145 l
1.0970 0.3075 l
1.0980 0.3145 l
1.0990 0.3145 l
1.1000 0.3180 l
1.1010 0.3110 l
1.1020 0.3250 l
1.1030 0.2970 l
1.1040 0.2935 l
1.1050 0.2865 l
1.1060 0.2865 l
1.1070 0.2760 l
1.1080 0.2690 l
1.1090 0.2830 l
1.1100 0.2550 l
1.1110 0.2480 l
1.1120 0.2550 l
1.1130 0.2655 l
1.1140 0.2760 l
1.1150 0.2655 l
1.1160 0.2900 l
1.1170 0.2970 l
1.1180 0.2690 l
1.1190 0.2830 l
1.1200 0.2515 l
1.1210 0.2515 l
1.1220 0.2585 l
1.1230 0.2445 l
1.1240 0.2550 l
1.1250 0.2725 l
1.1260 0.2655 l
1.1270 0.2865 l
1.1280 0.2655 l
1.1290 0.2515 l
1.1300 0.2410 l
1.1310 0.2200 l
1.1320 0.2515 l
1.1330 0.2515 l
1.1340 0.2270 l
1.1350 0.2410 l
1.1360 0.2340 l
1.1370 0.1990 l
1.1380 0.2025 l
1.1390 0.2165 l
1.1400 0.2375 l
1.1410 0.2585 l
1.1420 0.2725 l
1.1430 0.2480 l
1.1440 0.2410 l
1.1450 0.2445 l
1.1460 0.2690 l
1.1470 0.2795 l
1.1480 0.2795 l
1.1490 0.2760 l
1.1500 0.2795 l
1.1501 0.2812 l
s
[/DeviceRGB] SCS
Color1 SC
n
0.1500 0.1500 m
1.1500 0.1500 l
s
n
0.1833 0.1500 m
0.1833 0.1600 l
s
n
0.2167 0.1500 m
0.2167 0.1600 l
s
n
0.2500 0.1500 m
0.2500 0.1600 l
s
n
0.2833 0.1500 m
0.2833 0.1600 l
s
n
0.3167 0.1500 m
0.3167 0.1600 l
s
n
0.3833 0.1500 m
0.3833 0.1600 l
s
n
0.4167 0.1500 m
0.4167 0.1600 l
s
n
0.4500 0.1500 m
0.4500 0.1600 l
s
n
0.4833 0.1500 m
0.4833 0.1600 l
s
n
0.5167 0.1500 m
0.5167 0.1600 l
s
n
0.5833 0.1500 m
0.5833 0.1600 l
s
n
0.6167 0.1500 m
0.6167 0.1600 l
s
n
0.6500 0.1500 m
0.6500 0.1600 l
s
n
0.6833 0.1500 m
0.6833 0.1600 l
s
n
0.7167 0.1500 m
0.7167 0.1600 l
s
n
0.7833 0.1500 m
0.7833 0.1600 l
s
n
0.8167 0.1500 m
0.8167 0.1600 l
s
n
0.8500 0.1500 m
0.8500 0.1600 l
s
n
0.8833 0.1500 m
0.8833 0.1600 l
s
n
0.9167 0.1500 m
0.9167 0.1600 l
s
n
0.9833 0.1500 m
0.9833 0.1600 l
s
n
1.0167 0.1500 m
1.0167 0.1600 l
s
n
1.0500 0.1500 m
1.0500 0.1600 l
s
n
1.0833 0.1500 m
1.0833 0.1600 l
s
n
1.1167 0.1500 m
1.1167 0.1600 l
s
n
0.1500 0.1500 m
0.1500 0.1700 l
s
n
0.3500 0.1500 m
0.3500 0.1700 l
s
n
0.5500 0.1500 m
0.5500 0.1700 l
s
n
0.7500 0.1500 m
0.7500 0.1700 l
s
n
0.9500 0.1500 m
0.9500 0.1700 l
s
n
1.1500 0.1500 m
1.1500 0.1700 l
s
/Times-Roman findfont
dup length dict begin
 {1 index /FID ne {def} {pop pop} ifelse} forall
 /Encoding DefEncoding def
 currentdict
end
/Font41 exch definefont pop
/Font41 FFSF
0.1433 0.1212 m
GS
[0.0280 0.0000 0.0000 0.0280 0 0] CC
(0) show
GR
/Font41 FFSF
0.3294 0.1212 m
GS
[0.0280 0.0000 0.0000 0.0280 0 0] CC
(200) show
GR
/Font41 FFSF
0.5294 0.1212 m
GS
[0.0280 0.0000 0.0000 0.0280 0 0] CC
(400) show
GR
/Font41 FFSF
0.7294 0.1208 m
GS
[0.0280 0.0000 0.0000 0.0280 0 0] CC
(600) show
GR
/Font41 FFSF
0.9294 0.1212 m
GS
[0.0280 0.0000 0.0000 0.0280 0 0] CC
(800) show
GR
/Font41 FFSF
1.1224 0.1212 m
GS
[0.0280 0.0000 0.0000 0.0280 0 0] CC
(1000) show
GR
/Font41 FFSF
0.4055 0.0818 m
GS
[0.0420 0.0000 0.0000 0.0420 0 0] CC
(Pasos de Metropolis por sitio) show
GR
n
0.1500 0.1500 m
0.1500 0.8500 l
s
n
0.1500 0.2375 m
0.1600 0.2375 l
s
n
0.1500 0.4125 m
0.1600 0.4125 l
s
n
0.1500 0.5875 m
0.1600 0.5875 l
s
n
0.1500 0.7625 m
0.1600 0.7625 l
s
n
0.1500 0.1500 m
0.1700 0.1500 l
s
n
0.1500 0.3250 m
0.1700 0.3250 l
s
n
0.1500 0.5000 m
0.1700 0.5000 l
s
n
0.1500 0.6750 m
0.1700 0.6750 l
s
n
0.1500 0.8500 m
0.1700 0.8500 l
s
/Font41 FFSF
0.1267 0.1408 m
GS
[0.0280 0.0000 0.0000 0.0280 0 0] CC
(0) show
GR
/Font41 FFSF
0.1290 0.3156 m
GS
[0.0280 0.0000 0.0000 0.0280 0 0] CC
(1) show
GR
/Font41 FFSF
0.1267 0.4906 m
GS
[0.0280 0.0000 0.0000 0.0280 0 0] CC
(2) show
GR
/Font41 FFSF
0.1278 0.6658 m
GS
[0.0280 0.0000 0.0000 0.0280 0 0] CC
(3) show
GR
/Font41 FFSF
0.1267 0.8406 m
GS
[0.0280 0.0000 0.0000 0.0280 0 0] CC
(4) show
GR
n
0.1500 0.1500 m
0.1500 0.8500 l
1.1500 0.8500 l
1.1500 0.1500 l
0.1500 0.1500 l
c
s
n
0.5000 0.5000 m
0.5000 0.3436 l
0.9357 0.3436 l
0.9357 0.5000 l
c
[/DeviceRGB] SCS
Color0 SC
fill
[/DeviceRGB] SCS
Color1 SC
n
0.5000 0.5000 m
0.5000 0.3436 l
0.9357 0.3436 l
0.9357 0.5000 l
0.5000 0.5000 l
c
s
/Font41 FFSF
0.5707 0.4731 m
GS
[0.0244 0.0000 0.0000 0.0244 0 0] CC
(Magnetización por sitio \(T) show
GR
/Font41 FFSF
0.8311 0.4634 m
GS
[0.0172 0.0000 0.0000 0.0172 0 0] CC
(incial) show
GR
/Font41 FFSF
0.8696 0.4731 m
GS
[0.0244 0.0000 0.0000 0.0244 0 0] CC
( = 0\)) show
GR
n
0.5107 0.4767 m
0.5507 0.4767 l
s
/Font41 FFSF
0.5707 0.4365 m
GS
[0.0244 0.0000 0.0000 0.0244 0 0] CC
(Energía por sitio \(T) show
GR
/Font41 FFSF
0.7621 0.4268 m
GS
[0.0172 0.0000 0.0000 0.0172 0 0] CC
(incial) show
GR
/Font41 FFSF
0.8006 0.4365 m
GS
[0.0244 0.0000 0.0000 0.0244 0 0] CC
( = 0\)) show
GR
[/DeviceRGB] SCS
Color2 SC
n
0.5107 0.4401 m
0.5507 0.4401 l
s
/Font41 FFSF
[/DeviceRGB] SCS
Color1 SC
0.5707 0.3999 m
GS
[0.0244 0.0000 0.0000 0.0244 0 0] CC
(Energía por sitio \(T) show
GR
/Font41 FFSF
0.7621 0.3902 m
GS
[0.0172 0.0000 0.0000 0.0172 0 0] CC
(incial) show
GR
/Font41 FFSF
0.8006 0.3999 m
GS
[0.0244 0.0000 0.0000 0.0244 0 0] CC
( = ) show
GR
/Symbol findfont
/Font37 exch definefont pop
/Font37 FFSF
0.8264 0.3999 m
GS
[0.0244 0.0000 0.0000 0.0244 0 0] CC
(¥ \)) show
GR
[/DeviceRGB] SCS
Color3 SC
n
0.5107 0.4035 m
0.5507 0.4035 l
s
/Font41 FFSF
[/DeviceRGB] SCS
Color1 SC
0.5707 0.3633 m
GS
[0.0244 0.0000 0.0000 0.0244 0 0] CC
(Magnetización por sitio \(T) show
GR
/Font41 FFSF
0.8311 0.3536 m
GS
[0.0172 0.0000 0.0000 0.0172 0 0] CC
(incial) show
GR
/Font41 FFSF
0.8696 0.3633 m
GS
[0.0244 0.0000 0.0000 0.0244 0 0] CC
( = ) show
GR
/Font37 FFSF
0.8955 0.3633 m
GS
[0.0244 0.0000 0.0000 0.0244 0 0] CC
(¥ \)) show
GR
[/DeviceRGB] SCS
Color4 SC
n
0.5107 0.3669 m
0.5507 0.3669 l
s
/Font41 FFSF
[/DeviceRGB] SCS
Color1 SC
0.3763 0.9108 m
GS
[0.0560 0.0000 0.0000 0.0560 0 0] CC
(Termalización KBT=2.3) show
GR
/Font41 FFSF
0.3037 0.8816 m
GS
[0.0280 0.0000 0.0000 0.0280 0 0] CC
(Estado cercano a la temperatura crítica \(T) show
GR
/Font41 FFSF
0.7720 0.8704 m
GS
[0.0198 0.0000 0.0000 0.0198 0 0] CC
(cr) show
GR
/Font37 FFSF
0.7943 0.8816 m
GS
[0.0280 0.0000 0.0000 0.0280 0 0] CC
(» 2.26\), ) show
GR
/Font41 FFSF
0.8888 0.8816 m
GS
[0.0280 0.0000 0.0000 0.0280 0 0] CC
( Teq ) show
GR
/Font37 FFSF
0.9465 0.8816 m
GS
[0.0280 0.0000 0.0000 0.0280 0 0] CC
(» 60) show
GR
%%Trailer
%%BoundingBox: 76 43 722 582
%%DocumentNeededResources: font Symbol
%%+ font Times-Roman
%%EOF
