%!PS-Adobe-3.0 EPSF-3.0
%%BoundingBox: (atend)
%%LanguageLevel: 2
%%Creator: Grace-5.1.24
%%CreationDate: Mon Nov 28 23:07:55 2016
%%DocumentData: Clean8Bit
%%Orientation: Portrait
%%Title: /home/juanchoflo/Escritorio/UNAL2016-2/HerramientasComputacionales/ProyectoFinal/simulacion/ModeloIsing/Datos/L10/T41Equilibrio.agr
%%For: juanchoflo
%%DocumentNeededResources: (atend)
%%EndComments
%%BeginProlog
/m {moveto} def
/l {lineto} def
/s {stroke} def
/n {newpath} def
/c {closepath} def
/RL {rlineto} def
/SLW {setlinewidth} def
/GS {gsave} def
/GR {grestore} def
/SC {setcolor} def
/SGRY {setgray} def
/SRGB {setrgbcolor} def
/SD {setdash} def
/SLC {setlinecap} def
/SLJ {setlinejoin} def
/SCS {setcolorspace} def
/FFSF {findfont setfont} def
/CC {concat} def
/PXL {n m 0 0 RL s} def
/Color0 {1.0000 1.0000 1.0000} def
/Color1 {0.0000 0.0000 0.0000} def
/Color2 {1.0000 0.0000 0.0000} def
/Color3 {0.0000 1.0000 0.0000} def
/Color4 {0.0000 0.0000 1.0000} def
/Color5 {1.0000 1.0000 0.0000} def
/Color6 {0.7373 0.5608 0.5608} def
/Color7 {0.8627 0.8627 0.8627} def
/Color8 {0.5804 0.0000 0.8275} def
/Color9 {0.0000 1.0000 1.0000} def
/Color10 {1.0000 0.0000 1.0000} def
/Color11 {1.0000 0.6471 0.0000} def
/Color12 {0.4471 0.1294 0.7373} def
/Color13 {0.4039 0.0275 0.2824} def
/Color14 {0.2510 0.8784 0.8157} def
/Color15 {0.0000 0.5451 0.0000} def
/Color16 {0.7529 0.7529 0.7529} def
/Color17 {0.5059 0.5059 0.5059} def
/Color18 {0.2588 0.2588 0.2588} def
/PTRN {
 /pat_bits exch def 
 <<
  /PaintType 2
  /PatternType 1 /TilingType 1
  /BBox[0 0 16 16]
  /XStep 16 /YStep 16
  /PaintProc {
   pop
   16 16 true [-1 0 0 -1 16 16] pat_bits imagemask
  }
 >>
 [0.0016 0 0 0.0016 0 0]
 makepattern
} def
/Pattern0 {<0000000000000000000000000000000000000000000000000000000000000000> PTRN} bind def
/Pattern1 {<ffffffffffffffffffffffffffffffffffffffffffffffffffffffffffffffff> PTRN} bind def
/Pattern2 {<eeeeffffbbbbffffeeeeffffbbbbffffeeeeffffbbbbffffeeeeffffbbbbffff> PTRN} bind def
/Pattern3 {<eeeebbbbeeeebbbbeeeebbbbeeeebbbbeeeebbbbeeeebbbbeeeebbbbeeeebbbb> PTRN} bind def
/Pattern4 {<5555aaaa5555aaaa5555aaaa5555aaaa5555aaaa5555aaaa5555aaaa5555aaaa> PTRN} bind def
/Pattern5 {<1111444411114444111144441111444411114444111144441111444411114444> PTRN} bind def
/Pattern6 {<1111000044440000111100004444000011110000444400001111000044440000> PTRN} bind def
/Pattern7 {<1010000000000000010100000000000010100000000000000101000000000000> PTRN} bind def
/Pattern8 {<0000000000000000000000000000000000000000000000000000000000000000> PTRN} bind def
/Pattern9 {<1e1e0f0f8787c3c3e1e1f0f078783c3c1e1e0f0f8787c3c3e1e1f0f078783c3c> PTRN} bind def
/Pattern10 {<7878f0f0e1e1c3c387870f0f1e1e3c3c7878f0f0e1e1c3c387870f0f1e1e3c3c> PTRN} bind def
/Pattern11 {<3333333333333333333333333333333333333333333333333333333333333333> PTRN} bind def
/Pattern12 {<ffffffff00000000ffffffff00000000ffffffff00000000ffffffff00000000> PTRN} bind def
/Pattern13 {<8181424224241818181824244242818181814242242418181818242442428181> PTRN} bind def
/Pattern14 {<8080404020201010080804040202010180804040202010100808040402020101> PTRN} bind def
/Pattern15 {<0101020204040808101020204040808001010202040408081010202040408080> PTRN} bind def
/Pattern16 {<2222222222222222222222222222222222222222222222222222222222222222> PTRN} bind def
/Pattern17 {<0000ffff000000000000ffff000000000000ffff000000000000ffff00000000> PTRN} bind def
/Pattern18 {<2222ffff222222222222ffff222222222222ffff222222222222ffff22222222> PTRN} bind def
/Pattern19 {<ffffffff33333333ffffffff33333333ffffffff33333333ffffffff33333333> PTRN} bind def
/Pattern20 {<0f0f0f0f0f0f0f0ff0f0f0f0f0f0f0f00f0f0f0f0f0f0f0ff0f0f0f0f0f0f0f0> PTRN} bind def
/Pattern21 {<ff00ff00ff00ff00ff00ff00ff00ff0000ff00ff00ff00ff00ff00ff00ff00ff> PTRN} bind def
/Pattern22 {<8001800180018001800180018001ffffffff8001800180018001800180018001> PTRN} bind def
/Pattern23 {<c003c003c003c003c003c003ffffffffffffffffc003c003c003c003c003c003> PTRN} bind def
/Pattern24 {<040404040404ffff404040404040ffff040404040404ffff404040404040ffff> PTRN} bind def
/Pattern25 {<180018001800180018001800ffffffff001800180018001800180018ffffffff> PTRN} bind def
/Pattern26 {<1111b8b87c7c3a3a1111a3a3c7c78b8b1111b8b87c7c3a3a1111a3a3c7c78b8b> PTRN} bind def
/Pattern27 {<101010102828c7c70101010182827c7c101010102828c7c70101010182827c7c> PTRN} bind def
/Pattern28 {<1c1c121211112121c1c12121111112121c1c121211112121c1c1212111111212> PTRN} bind def
/Pattern29 {<3e3e414180808080e3e31414080808083e3e414180808080e3e3141408080808> PTRN} bind def
/Pattern30 {<4848888884848383848488884848383848488888848483838484888848483838> PTRN} bind def
/Pattern31 {<03030404080808080c0c12122121c0c003030404080808080c0c12122121c0c0> PTRN} bind def
/ellipsedict 8 dict def
ellipsedict /mtrx matrix put
/EARC {
 ellipsedict begin
  /endangle exch def
  /startangle exch def
  /yrad exch def
  /xrad exch def
  /y exch def
  /x exch def
  /savematrix mtrx currentmatrix def
  x y translate
  xrad yrad scale
  0 0 1 startangle endangle arc
  savematrix setmatrix
 end
} def
/TL {
  /kcomp exch def
  /linewidth exch def
  /offset exch def
  GS
  0 offset rmoveto
  linewidth SLW
  dup stringwidth exch kcomp add exch RL s
  GR
} def
/KINIT
{
 /kvector exch def
 /kid 0 def
} def
/KPROC
{
 pop pop
 kvector kid get
 0 rmoveto
 /kid 1 kid add def
} def
/DefEncoding [
 /.notdef
 /.notdef
 /.notdef
 /.notdef
 /.notdef
 /.notdef
 /.notdef
 /.notdef
 /.notdef
 /.notdef
 /.notdef
 /.notdef
 /.notdef
 /.notdef
 /.notdef
 /.notdef
 /.notdef
 /.notdef
 /.notdef
 /.notdef
 /.notdef
 /.notdef
 /.notdef
 /.notdef
 /.notdef
 /.notdef
 /.notdef
 /.notdef
 /.notdef
 /.notdef
 /.notdef
 /.notdef
 /space
 /exclam
 /quotedbl
 /numbersign
 /dollar
 /percent
 /ampersand
 /quoteright
 /parenleft
 /parenright
 /asterisk
 /plus
 /comma
 /hyphen
 /period
 /slash
 /zero
 /one
 /two
 /three
 /four
 /five
 /six
 /seven
 /eight
 /nine
 /colon
 /semicolon
 /less
 /equal
 /greater
 /question
 /at
 /A
 /B
 /C
 /D
 /E
 /F
 /G
 /H
 /I
 /J
 /K
 /L
 /M
 /N
 /O
 /P
 /Q
 /R
 /S
 /T
 /U
 /V
 /W
 /X
 /Y
 /Z
 /bracketleft
 /backslash
 /bracketright
 /asciicircum
 /underscore
 /grave
 /a
 /b
 /c
 /d
 /e
 /f
 /g
 /h
 /i
 /j
 /k
 /l
 /m
 /n
 /o
 /p
 /q
 /r
 /s
 /t
 /u
 /v
 /w
 /x
 /y
 /z
 /braceleft
 /bar
 /braceright
 /asciitilde
 /.notdef
 /.notdef
 /.notdef
 /.notdef
 /.notdef
 /.notdef
 /.notdef
 /.notdef
 /.notdef
 /.notdef
 /.notdef
 /.notdef
 /.notdef
 /.notdef
 /.notdef
 /.notdef
 /.notdef
 /.notdef
 /.notdef
 /.notdef
 /.notdef
 /.notdef
 /.notdef
 /.notdef
 /.notdef
 /.notdef
 /.notdef
 /.notdef
 /.notdef
 /.notdef
 /.notdef
 /.notdef
 /.notdef
 /space
 /exclamdown
 /cent
 /sterling
 /currency
 /yen
 /brokenbar
 /section
 /dieresis
 /copyright
 /ordfeminine
 /guillemotleft
 /logicalnot
 /hyphen
 /registered
 /macron
 /degree
 /plusminus
 /twosuperior
 /threesuperior
 /acute
 /mu
 /paragraph
 /periodcentered
 /cedilla
 /onesuperior
 /ordmasculine
 /guillemotright
 /onequarter
 /onehalf
 /threequarters
 /questiondown
 /Agrave
 /Aacute
 /Acircumflex
 /Atilde
 /Adieresis
 /Aring
 /AE
 /Ccedilla
 /Egrave
 /Eacute
 /Ecircumflex
 /Edieresis
 /Igrave
 /Iacute
 /Icircumflex
 /Idieresis
 /Eth
 /Ntilde
 /Ograve
 /Oacute
 /Ocircumflex
 /Otilde
 /Odieresis
 /multiply
 /Oslash
 /Ugrave
 /Uacute
 /Ucircumflex
 /Udieresis
 /Yacute
 /Thorn
 /germandbls
 /agrave
 /aacute
 /acircumflex
 /atilde
 /adieresis
 /aring
 /ae
 /ccedilla
 /egrave
 /eacute
 /ecircumflex
 /edieresis
 /igrave
 /iacute
 /icircumflex
 /idieresis
 /eth
 /ntilde
 /ograve
 /oacute
 /ocircumflex
 /otilde
 /odieresis
 /divide
 /oslash
 /ugrave
 /uacute
 /ucircumflex
 /udieresis
 /yacute
 /thorn
 /ydieresis
] def
%%EndProlog
%%BeginSetup
%%EndSetup
612.00 612.00 scale
n
0.0000 0.0000 m
0.0000 1.0000 l
1.2941 1.0000 l
1.2941 0.0000 l
c
[/DeviceRGB] SCS
Color0 SC
fill
[/DeviceRGB] SCS
Color1 SC
[] 0 SD
0.0030 SLW
0 SLC
0 SLJ
n
0.1510 0.4462 m
0.1560 0.5162 l
0.1610 0.5862 l
0.1660 0.6723 l
0.1710 0.6562 l
0.1760 0.6400 l
0.1810 0.6346 l
0.1860 0.6508 l
0.1910 0.6885 l
0.1960 0.6669 l
0.2009 0.6508 l
0.2059 0.6615 l
0.2109 0.6400 l
0.2159 0.6669 l
0.2209 0.6292 l
0.2259 0.6400 l
0.2309 0.6615 l
0.2359 0.6777 l
0.2409 0.6346 l
0.2459 0.6615 l
0.2509 0.6238 l
0.2559 0.6777 l
0.2609 0.6346 l
0.2659 0.6562 l
0.2709 0.6669 l
0.2759 0.6831 l
0.2809 0.6292 l
0.2859 0.6077 l
0.2909 0.6238 l
0.2959 0.6185 l
0.3008 0.5862 l
0.3058 0.5808 l
0.3108 0.6292 l
0.3158 0.6669 l
0.3208 0.6185 l
0.3258 0.6508 l
0.3308 0.6562 l
0.3358 0.6400 l
0.3408 0.6723 l
0.3458 0.6454 l
0.3508 0.6508 l
0.3558 0.6615 l
0.3608 0.6508 l
0.3658 0.6669 l
0.3708 0.6885 l
0.3758 0.6454 l
0.3808 0.6292 l
0.3858 0.6508 l
0.3908 0.6723 l
0.3958 0.6723 l
0.4007 0.6831 l
0.4057 0.6723 l
0.4107 0.6292 l
0.4157 0.6185 l
0.4207 0.6346 l
0.4257 0.6562 l
0.4307 0.6615 l
0.4357 0.6346 l
0.4407 0.6400 l
0.4457 0.6346 l
0.4507 0.6023 l
0.4557 0.6185 l
0.4607 0.6400 l
0.4657 0.6615 l
0.4707 0.6615 l
0.4757 0.6562 l
0.4807 0.6454 l
0.4857 0.6615 l
0.4907 0.6346 l
0.4957 0.6562 l
0.5006 0.6669 l
0.5056 0.6562 l
0.5106 0.6777 l
0.5156 0.6777 l
0.5206 0.6292 l
0.5256 0.6454 l
0.5306 0.6292 l
0.5356 0.6454 l
0.5406 0.6292 l
0.5456 0.6723 l
0.5506 0.6615 l
0.5556 0.6400 l
0.5606 0.6238 l
0.5656 0.6400 l
0.5706 0.6346 l
0.5756 0.6292 l
0.5806 0.6615 l
0.5856 0.6238 l
0.5906 0.6508 l
0.5956 0.6454 l
0.6005 0.6185 l
0.6055 0.6562 l
0.6105 0.6400 l
0.6155 0.6508 l
0.6205 0.6615 l
0.6255 0.6454 l
0.6305 0.6077 l
0.6355 0.6508 l
0.6405 0.6185 l
0.6455 0.6508 l
0.6505 0.6885 l
0.6555 0.6615 l
0.6605 0.6238 l
0.6655 0.6454 l
0.6705 0.6346 l
0.6755 0.6508 l
0.6805 0.6023 l
0.6855 0.6562 l
0.6905 0.6508 l
0.6955 0.6615 l
0.7004 0.6777 l
0.7054 0.6508 l
0.7104 0.6777 l
0.7154 0.6562 l
0.7204 0.6346 l
0.7254 0.6023 l
0.7304 0.6292 l
0.7354 0.6346 l
0.7404 0.6508 l
0.7454 0.6615 l
0.7504 0.6454 l
0.7554 0.6400 l
0.7604 0.6292 l
0.7654 0.6615 l
0.7704 0.6562 l
0.7754 0.6508 l
0.7804 0.6508 l
0.7854 0.6346 l
0.7904 0.5969 l
0.7954 0.6077 l
0.8003 0.6346 l
0.8053 0.6777 l
0.8103 0.6885 l
0.8153 0.6562 l
0.8203 0.6562 l
0.8253 0.6723 l
0.8303 0.6508 l
0.8353 0.6777 l
0.8403 0.6454 l
0.8453 0.6562 l
0.8503 0.6777 l
0.8553 0.6885 l
0.8603 0.6400 l
0.8653 0.6346 l
0.8703 0.6562 l
0.8753 0.6508 l
0.8803 0.6508 l
0.8853 0.6400 l
0.8903 0.6562 l
0.8953 0.6454 l
0.9002 0.6723 l
0.9052 0.6400 l
0.9102 0.6077 l
0.9152 0.6238 l
0.9202 0.6562 l
0.9252 0.6292 l
0.9302 0.5915 l
0.9352 0.6400 l
0.9402 0.6723 l
0.9452 0.6723 l
0.9502 0.6615 l
0.9552 0.6723 l
0.9602 0.6885 l
0.9652 0.6669 l
0.9702 0.6615 l
0.9752 0.6185 l
0.9802 0.6185 l
0.9852 0.6400 l
0.9902 0.6292 l
0.9952 0.6400 l
1.0001 0.6400 l
1.0051 0.6562 l
1.0101 0.6454 l
1.0151 0.6723 l
1.0201 0.6185 l
1.0251 0.6400 l
1.0301 0.6562 l
1.0351 0.6346 l
1.0401 0.6400 l
1.0451 0.6185 l
1.0501 0.6346 l
1.0551 0.6562 l
1.0601 0.6669 l
1.0651 0.6615 l
1.0701 0.6615 l
1.0751 0.5969 l
1.0801 0.6023 l
1.0851 0.6131 l
1.0901 0.6346 l
1.0951 0.6615 l
1.1000 0.6292 l
1.1050 0.6131 l
1.1100 0.6562 l
1.1150 0.6185 l
1.1200 0.6454 l
1.1250 0.6292 l
1.1300 0.6185 l
1.1350 0.6400 l
1.1400 0.6131 l
1.1450 0.6400 l
1.1500 0.6562 l
1.1501 0.6556 l
s
[/DeviceRGB] SCS
Color2 SC
n
0.1510 0.3115 m
0.1560 0.2900 l
0.1610 0.2550 l
0.1660 0.1985 l
0.1710 0.1931 l
0.1760 0.1796 l
0.1810 0.1850 l
0.1860 0.2038 l
0.1910 0.1958 l
0.1960 0.1850 l
0.2009 0.2038 l
0.2059 0.1904 l
0.2109 0.1877 l
0.2159 0.1823 l
0.2209 0.2012 l
0.2259 0.1850 l
0.2309 0.1877 l
0.2359 0.1850 l
0.2409 0.1769 l
0.2459 0.1796 l
0.2509 0.2012 l
0.2559 0.1796 l
0.2609 0.1985 l
0.2659 0.1769 l
0.2709 0.1985 l
0.2759 0.2065 l
0.2809 0.1985 l
0.2859 0.2119 l
0.2909 0.2442 l
0.2959 0.2362 l
0.3008 0.2550 l
0.3058 0.2658 l
0.3108 0.2308 l
0.3158 0.2038 l
0.3208 0.2012 l
0.3258 0.1931 l
0.3308 0.1769 l
0.3358 0.2038 l
0.3408 0.2146 l
0.3458 0.2038 l
0.3508 0.1877 l
0.3558 0.1823 l
0.3608 0.1904 l
0.3658 0.1931 l
0.3708 0.1904 l
0.3758 0.1823 l
0.3808 0.2038 l
0.3858 0.1904 l
0.3908 0.1850 l
0.3958 0.2012 l
0.4007 0.1850 l
0.4057 0.1769 l
0.4107 0.2012 l
0.4157 0.1958 l
0.4207 0.1850 l
0.4257 0.1877 l
0.4307 0.1877 l
0.4357 0.1850 l
0.4407 0.2065 l
0.4457 0.1796 l
0.4507 0.1931 l
0.4557 0.1877 l
0.4607 0.1904 l
0.4657 0.1877 l
0.4707 0.1823 l
0.4757 0.1850 l
0.4807 0.1850 l
0.4857 0.1877 l
0.4907 0.1796 l
0.4957 0.1958 l
0.5006 0.1931 l
0.5056 0.1931 l
0.5106 0.1904 l
0.5156 0.1985 l
0.5206 0.1958 l
0.5256 0.2200 l
0.5306 0.1958 l
0.5356 0.1877 l
0.5406 0.2038 l
0.5456 0.1877 l
0.5506 0.1769 l
0.5556 0.1823 l
0.5606 0.1904 l
0.5656 0.2119 l
0.5706 0.2227 l
0.5756 0.1958 l
0.5806 0.1904 l
0.5856 0.2038 l
0.5906 0.2065 l
0.5956 0.1958 l
0.6005 0.2335 l
0.6055 0.2119 l
0.6105 0.1904 l
0.6155 0.1904 l
0.6205 0.1823 l
0.6255 0.2012 l
0.6305 0.2119 l
0.6355 0.2119 l
0.6405 0.2146 l
0.6455 0.2119 l
0.6505 0.2012 l
0.6555 0.2200 l
0.6605 0.1877 l
0.6655 0.1985 l
0.6705 0.1877 l
0.6755 0.1823 l
0.6805 0.1850 l
0.6855 0.1769 l
0.6905 0.1850 l
0.6955 0.1904 l
0.7004 0.1877 l
0.7054 0.1796 l
0.7104 0.1904 l
0.7154 0.1823 l
0.7204 0.1904 l
0.7254 0.2012 l
0.7304 0.1958 l
0.7354 0.1877 l
0.7404 0.2065 l
0.7454 0.1877 l
0.7504 0.1850 l
0.7554 0.1877 l
0.7604 0.1769 l
0.7654 0.1796 l
0.7704 0.1958 l
0.7754 0.1904 l
0.7804 0.1904 l
0.7854 0.1985 l
0.7904 0.1985 l
0.7954 0.1904 l
0.8003 0.1796 l
0.8053 0.1985 l
0.8103 0.2012 l
0.8153 0.1931 l
0.8203 0.1904 l
0.8253 0.1823 l
0.8303 0.1877 l
0.8353 0.1823 l
0.8403 0.1850 l
0.8453 0.1931 l
0.8503 0.1850 l
0.8553 0.1931 l
0.8603 0.1877 l
0.8653 0.1958 l
0.8703 0.2092 l
0.8753 0.2065 l
0.8803 0.1985 l
0.8853 0.2038 l
0.8903 0.1769 l
0.8953 0.1904 l
0.9002 0.2119 l
0.9052 0.1850 l
0.9102 0.1877 l
0.9152 0.2065 l
0.9202 0.2146 l
0.9252 0.2335 l
0.9302 0.2281 l
0.9352 0.2308 l
0.9402 0.1904 l
0.9452 0.1850 l
0.9502 0.2012 l
0.9552 0.1877 l
0.9602 0.1796 l
0.9652 0.1850 l
0.9702 0.2038 l
0.9752 0.1796 l
0.9802 0.1850 l
0.9852 0.1877 l
0.9902 0.1958 l
0.9952 0.1796 l
1.0001 0.1823 l
1.0051 0.2092 l
1.0101 0.1796 l
1.0151 0.1850 l
1.0201 0.2065 l
1.0251 0.2119 l
1.0301 0.2065 l
1.0351 0.1823 l
1.0401 0.1850 l
1.0451 0.1958 l
1.0501 0.1823 l
1.0551 0.1877 l
1.0601 0.1985 l
1.0651 0.1796 l
1.0701 0.1823 l
1.0751 0.1769 l
1.0801 0.1850 l
1.0851 0.1958 l
1.0901 0.2012 l
1.0951 0.2012 l
1.1000 0.2254 l
1.1050 0.2442 l
1.1100 0.2173 l
1.1150 0.2200 l
1.1200 0.1958 l
1.1250 0.2146 l
1.1300 0.2388 l
1.1350 0.2200 l
1.1400 0.2119 l
1.1450 0.2254 l
1.1500 0.1877 l
1.1501 0.1880 l
s
[/DeviceRGB] SCS
Color3 SC
n
0.1510 0.7046 m
0.1560 0.6508 l
0.1610 0.6615 l
0.1660 0.6615 l
0.1710 0.6508 l
0.1760 0.6562 l
0.1810 0.7046 l
0.1860 0.6292 l
0.1910 0.6346 l
0.1960 0.6238 l
0.2009 0.6562 l
0.2059 0.6131 l
0.2109 0.6454 l
0.2159 0.6400 l
0.2209 0.6131 l
0.2259 0.6185 l
0.2309 0.6562 l
0.2359 0.6292 l
0.2409 0.5915 l
0.2459 0.6238 l
0.2509 0.6400 l
0.2559 0.6238 l
0.2609 0.6562 l
0.2659 0.6292 l
0.2709 0.6508 l
0.2759 0.6669 l
0.2809 0.6454 l
0.2859 0.6292 l
0.2909 0.6131 l
0.2959 0.6023 l
0.3008 0.6615 l
0.3058 0.6615 l
0.3108 0.6831 l
0.3158 0.6508 l
0.3208 0.6615 l
0.3258 0.6346 l
0.3308 0.6292 l
0.3358 0.6185 l
0.3408 0.6562 l
0.3458 0.6131 l
0.3508 0.6131 l
0.3558 0.6562 l
0.3608 0.6346 l
0.3658 0.6669 l
0.3708 0.6238 l
0.3758 0.6508 l
0.3808 0.6400 l
0.3858 0.6615 l
0.3908 0.6238 l
0.3958 0.6131 l
0.4007 0.6023 l
0.4057 0.6346 l
0.4107 0.6454 l
0.4157 0.6238 l
0.4207 0.6346 l
0.4257 0.5969 l
0.4307 0.5915 l
0.4357 0.6346 l
0.4407 0.5915 l
0.4457 0.6669 l
0.4507 0.6723 l
0.4557 0.6400 l
0.4607 0.6777 l
0.4657 0.6831 l
0.4707 0.6346 l
0.4757 0.6454 l
0.4807 0.6562 l
0.4857 0.6292 l
0.4907 0.6023 l
0.4957 0.6023 l
0.5006 0.6185 l
0.5056 0.6508 l
0.5106 0.5808 l
0.5156 0.6777 l
0.5206 0.6723 l
0.5256 0.6400 l
0.5306 0.6400 l
0.5356 0.6562 l
0.5406 0.6723 l
0.5456 0.6723 l
0.5506 0.6346 l
0.5556 0.6292 l
0.5606 0.6400 l
0.5656 0.6669 l
0.5706 0.6238 l
0.5756 0.6185 l
0.5806 0.6831 l
0.5856 0.6508 l
0.5906 0.6723 l
0.5956 0.6831 l
0.6005 0.6238 l
0.6055 0.6238 l
0.6105 0.6292 l
0.6155 0.6669 l
0.6205 0.6185 l
0.6255 0.6400 l
0.6305 0.6400 l
0.6355 0.6454 l
0.6405 0.6777 l
0.6455 0.6346 l
0.6505 0.6077 l
0.6555 0.6185 l
0.6605 0.6292 l
0.6655 0.6562 l
0.6705 0.6077 l
0.6755 0.6508 l
0.6805 0.6615 l
0.6855 0.6723 l
0.6905 0.6669 l
0.6955 0.6669 l
0.7004 0.6615 l
0.7054 0.6508 l
0.7104 0.6346 l
0.7154 0.6131 l
0.7204 0.6185 l
0.7254 0.6131 l
0.7304 0.6562 l
0.7354 0.6454 l
0.7404 0.6346 l
0.7454 0.6454 l
0.7504 0.6669 l
0.7554 0.6238 l
0.7604 0.6185 l
0.7654 0.6238 l
0.7704 0.6185 l
0.7754 0.6292 l
0.7804 0.6400 l
0.7854 0.6508 l
0.7904 0.6454 l
0.7954 0.6615 l
0.8003 0.6185 l
0.8053 0.6131 l
0.8103 0.6292 l
0.8153 0.6669 l
0.8203 0.6615 l
0.8253 0.6185 l
0.8303 0.6346 l
0.8353 0.6185 l
0.8403 0.6131 l
0.8453 0.6185 l
0.8503 0.6346 l
0.8553 0.6131 l
0.8603 0.6562 l
0.8653 0.6508 l
0.8703 0.6669 l
0.8753 0.6346 l
0.8803 0.6346 l
0.8853 0.6131 l
0.8903 0.6400 l
0.8953 0.6238 l
0.9002 0.6508 l
0.9052 0.6508 l
0.9102 0.6454 l
0.9152 0.5915 l
0.9202 0.6023 l
0.9252 0.6185 l
0.9302 0.6292 l
0.9352 0.6400 l
0.9402 0.6669 l
0.9452 0.6185 l
0.9502 0.6238 l
0.9552 0.6346 l
0.9602 0.6238 l
0.9652 0.6131 l
0.9702 0.5969 l
0.9752 0.6508 l
0.9802 0.6292 l
0.9852 0.6400 l
0.9902 0.6831 l
0.9952 0.6669 l
1.0001 0.6831 l
1.0051 0.6615 l
1.0101 0.6454 l
1.0151 0.6615 l
1.0201 0.6346 l
1.0251 0.6238 l
1.0301 0.6669 l
1.0351 0.6292 l
1.0401 0.6777 l
1.0451 0.6454 l
1.0501 0.6346 l
1.0551 0.6292 l
1.0601 0.6508 l
1.0651 0.6669 l
1.0701 0.6292 l
1.0751 0.6346 l
1.0801 0.6346 l
1.0851 0.6292 l
1.0901 0.6454 l
1.0951 0.6669 l
1.1000 0.6615 l
1.1050 0.6615 l
1.1100 0.6938 l
1.1150 0.6831 l
1.1200 0.6669 l
1.1250 0.6346 l
1.1300 0.6454 l
1.1350 0.6346 l
1.1400 0.6346 l
1.1450 0.6346 l
1.1500 0.6508 l
1.1501 0.6496 l
s
[/DeviceRGB] SCS
Color4 SC
n
0.1510 0.1823 m
0.1560 0.1904 l
0.1610 0.1931 l
0.1660 0.1931 l
0.1710 0.1904 l
0.1760 0.2065 l
0.1810 0.1823 l
0.1860 0.1931 l
0.1910 0.1958 l
0.1960 0.1985 l
0.2009 0.1904 l
0.2059 0.2012 l
0.2109 0.1904 l
0.2159 0.1823 l
0.2209 0.2146 l
0.2259 0.2012 l
0.2309 0.1823 l
0.2359 0.1796 l
0.2409 0.1958 l
0.2459 0.1850 l
0.2509 0.1850 l
0.2559 0.2038 l
0.2609 0.2092 l
0.2659 0.2065 l
0.2709 0.1823 l
0.2759 0.1931 l
0.2809 0.1769 l
0.2859 0.2227 l
0.2909 0.2227 l
0.2959 0.2200 l
0.3008 0.1796 l
0.3058 0.1904 l
0.3108 0.2119 l
0.3158 0.1877 l
0.3208 0.1823 l
0.3258 0.1958 l
0.3308 0.2119 l
0.3358 0.2335 l
0.3408 0.2200 l
0.3458 0.2092 l
0.3508 0.2146 l
0.3558 0.2254 l
0.3608 0.2496 l
0.3658 0.2281 l
0.3708 0.2119 l
0.3758 0.2254 l
0.3808 0.2146 l
0.3858 0.1931 l
0.3908 0.1958 l
0.3958 0.1958 l
0.4007 0.2012 l
0.4057 0.1796 l
0.4107 0.1985 l
0.4157 0.1931 l
0.4207 0.2092 l
0.4257 0.2415 l
0.4307 0.2469 l
0.4357 0.2227 l
0.4407 0.2362 l
0.4457 0.2119 l
0.4507 0.2065 l
0.4557 0.2200 l
0.4607 0.1877 l
0.4657 0.1823 l
0.4707 0.1904 l
0.4757 0.2065 l
0.4807 0.2173 l
0.4857 0.1985 l
0.4907 0.2119 l
0.4957 0.1769 l
0.5006 0.1796 l
0.5056 0.1904 l
0.5106 0.2119 l
0.5156 0.1877 l
0.5206 0.1904 l
0.5256 0.1985 l
0.5306 0.1877 l
0.5356 0.1904 l
0.5406 0.1823 l
0.5456 0.1823 l
0.5506 0.1958 l
0.5556 0.1850 l
0.5606 0.1985 l
0.5656 0.1985 l
0.5706 0.1877 l
0.5756 0.2227 l
0.5806 0.1904 l
0.5856 0.2173 l
0.5906 0.1958 l
0.5956 0.2038 l
0.6005 0.1850 l
0.6055 0.2012 l
0.6105 0.2308 l
0.6155 0.2146 l
0.6205 0.1958 l
0.6255 0.1985 l
0.6305 0.2065 l
0.6355 0.1904 l
0.6405 0.1985 l
0.6455 0.2281 l
0.6505 0.2442 l
0.6555 0.2227 l
0.6605 0.1904 l
0.6655 0.1877 l
0.6705 0.1796 l
0.6755 0.2012 l
0.6805 0.2012 l
0.6855 0.1931 l
0.6905 0.2092 l
0.6955 0.1958 l
0.7004 0.1958 l
0.7054 0.1985 l
0.7104 0.2092 l
0.7154 0.2146 l
0.7204 0.1877 l
0.7254 0.1850 l
0.7304 0.1796 l
0.7354 0.1850 l
0.7404 0.1877 l
0.7454 0.1850 l
0.7504 0.1823 l
0.7554 0.1904 l
0.7604 0.2092 l
0.7654 0.2254 l
0.7704 0.2254 l
0.7754 0.1904 l
0.7804 0.1958 l
0.7854 0.1985 l
0.7904 0.2038 l
0.7954 0.2012 l
0.8003 0.2146 l
0.8053 0.1904 l
0.8103 0.1985 l
0.8153 0.2065 l
0.8203 0.2092 l
0.8253 0.1985 l
0.8303 0.1904 l
0.8353 0.2012 l
0.8403 0.2012 l
0.8453 0.1877 l
0.8503 0.1850 l
0.8553 0.1796 l
0.8603 0.1904 l
0.8653 0.1877 l
0.8703 0.1985 l
0.8753 0.1877 l
0.8803 0.2119 l
0.8853 0.1985 l
0.8903 0.1958 l
0.8953 0.1877 l
0.9002 0.2065 l
0.9052 0.1931 l
0.9102 0.1985 l
0.9152 0.2065 l
0.9202 0.2012 l
0.9252 0.1877 l
0.9302 0.2012 l
0.9352 0.1904 l
0.9402 0.1958 l
0.9452 0.1904 l
0.9502 0.2146 l
0.9552 0.2065 l
0.9602 0.1985 l
0.9652 0.2200 l
0.9702 0.2604 l
0.9752 0.2227 l
0.9802 0.1985 l
0.9852 0.1958 l
0.9902 0.2038 l
0.9952 0.1877 l
1.0001 0.1904 l
1.0051 0.1958 l
1.0101 0.2146 l
1.0151 0.2038 l
1.0201 0.1877 l
1.0251 0.1958 l
1.0301 0.2012 l
1.0351 0.1823 l
1.0401 0.1904 l
1.0451 0.1850 l
1.0501 0.1823 l
1.0551 0.1904 l
1.0601 0.1985 l
1.0651 0.1958 l
1.0701 0.1985 l
1.0751 0.1958 l
1.0801 0.1904 l
1.0851 0.2065 l
1.0901 0.1823 l
1.0951 0.1877 l
1.1000 0.1823 l
1.1050 0.1931 l
1.1100 0.1931 l
1.1150 0.1796 l
1.1200 0.1985 l
1.1250 0.1823 l
1.1300 0.1850 l
1.1350 0.1877 l
1.1400 0.1823 l
1.1450 0.1958 l
1.1500 0.1877 l
1.1501 0.1884 l
s
[/DeviceRGB] SCS
Color1 SC
[] 0 SD
0.0015 SLW
n
0.1500 0.1769 m
1.1500 0.1769 l
s
n
0.1500 0.1769 m
1.1500 0.1769 l
s
n
0.1843 0.1769 m
0.1843 0.1669 l
s
n
0.1843 0.1769 m
0.1843 0.1869 l
s
n
0.2176 0.1769 m
0.2176 0.1669 l
s
n
0.2176 0.1769 m
0.2176 0.1869 l
s
n
0.2842 0.1769 m
0.2842 0.1669 l
s
n
0.2842 0.1769 m
0.2842 0.1869 l
s
n
0.3175 0.1769 m
0.3175 0.1669 l
s
n
0.3175 0.1769 m
0.3175 0.1869 l
s
n
0.3841 0.1769 m
0.3841 0.1669 l
s
n
0.3841 0.1769 m
0.3841 0.1869 l
s
n
0.4174 0.1769 m
0.4174 0.1669 l
s
n
0.4174 0.1769 m
0.4174 0.1869 l
s
n
0.4840 0.1769 m
0.4840 0.1669 l
s
n
0.4840 0.1769 m
0.4840 0.1869 l
s
n
0.5173 0.1769 m
0.5173 0.1669 l
s
n
0.5173 0.1769 m
0.5173 0.1869 l
s
n
0.5839 0.1769 m
0.5839 0.1669 l
s
n
0.5839 0.1769 m
0.5839 0.1869 l
s
n
0.6172 0.1769 m
0.6172 0.1669 l
s
n
0.6172 0.1769 m
0.6172 0.1869 l
s
n
0.6838 0.1769 m
0.6838 0.1669 l
s
n
0.6838 0.1769 m
0.6838 0.1869 l
s
n
0.7171 0.1769 m
0.7171 0.1669 l
s
n
0.7171 0.1769 m
0.7171 0.1869 l
s
n
0.7837 0.1769 m
0.7837 0.1669 l
s
n
0.7837 0.1769 m
0.7837 0.1869 l
s
n
0.8170 0.1769 m
0.8170 0.1669 l
s
n
0.8170 0.1769 m
0.8170 0.1869 l
s
n
0.8836 0.1769 m
0.8836 0.1669 l
s
n
0.8836 0.1769 m
0.8836 0.1869 l
s
n
0.9169 0.1769 m
0.9169 0.1669 l
s
n
0.9169 0.1769 m
0.9169 0.1869 l
s
n
0.9835 0.1769 m
0.9835 0.1669 l
s
n
0.9835 0.1769 m
0.9835 0.1869 l
s
n
1.0168 0.1769 m
1.0168 0.1669 l
s
n
1.0168 0.1769 m
1.0168 0.1869 l
s
n
1.0834 0.1769 m
1.0834 0.1669 l
s
n
1.0834 0.1769 m
1.0834 0.1869 l
s
n
1.1167 0.1769 m
1.1167 0.1669 l
s
n
1.1167 0.1769 m
1.1167 0.1869 l
s
n
0.1510 0.1769 m
0.1510 0.1569 l
s
n
0.1510 0.1769 m
0.1510 0.1969 l
s
n
0.2509 0.1769 m
0.2509 0.1569 l
s
n
0.2509 0.1769 m
0.2509 0.1969 l
s
n
0.3508 0.1769 m
0.3508 0.1569 l
s
n
0.3508 0.1769 m
0.3508 0.1969 l
s
n
0.4507 0.1769 m
0.4507 0.1569 l
s
n
0.4507 0.1769 m
0.4507 0.1969 l
s
n
0.5506 0.1769 m
0.5506 0.1569 l
s
n
0.5506 0.1769 m
0.5506 0.1969 l
s
n
0.6505 0.1769 m
0.6505 0.1569 l
s
n
0.6505 0.1769 m
0.6505 0.1969 l
s
n
0.7504 0.1769 m
0.7504 0.1569 l
s
n
0.7504 0.1769 m
0.7504 0.1969 l
s
n
0.8503 0.1769 m
0.8503 0.1569 l
s
n
0.8503 0.1769 m
0.8503 0.1969 l
s
n
0.9502 0.1769 m
0.9502 0.1569 l
s
n
0.9502 0.1769 m
0.9502 0.1969 l
s
n
1.0501 0.1769 m
1.0501 0.1569 l
s
n
1.0501 0.1769 m
1.0501 0.1969 l
s
n
1.1500 0.1769 m
1.1500 0.1569 l
s
n
1.1500 0.1769 m
1.1500 0.1969 l
s
/Times-Roman findfont
dup length dict begin
 {1 index /FID ne {def} {pop pop} ifelse} forall
 /Encoding DefEncoding def
 currentdict
end
/Font41 exch definefont pop
/Font41 FFSF
0.1443 0.1281 m
GS
[0.0280 0.0000 0.0000 0.0280 0 0] CC
(0) show
GR
/Font41 FFSF
0.2372 0.1281 m
GS
[0.0280 0.0000 0.0000 0.0280 0 0] CC
(20) show
GR
/Font41 FFSF
0.3371 0.1281 m
GS
[0.0280 0.0000 0.0000 0.0280 0 0] CC
(40) show
GR
/Font41 FFSF
0.4370 0.1277 m
GS
[0.0280 0.0000 0.0000 0.0280 0 0] CC
(60) show
GR
/Font41 FFSF
0.5369 0.1281 m
GS
[0.0280 0.0000 0.0000 0.0280 0 0] CC
(80) show
GR
/Font41 FFSF
0.6299 0.1281 m
GS
[0.0280 0.0000 0.0000 0.0280 0 0] CC
(100) show
GR
/Font41 FFSF
0.7298 0.1281 m
GS
[0.0280 0.0000 0.0000 0.0280 0 0] CC
(120) show
GR
/Font41 FFSF
0.8297 0.1281 m
GS
[0.0280 0.0000 0.0000 0.0280 0 0] CC
(140) show
GR
/Font41 FFSF
0.9296 0.1277 m
GS
[0.0280 0.0000 0.0000 0.0280 0 0] CC
(160) show
GR
/Font41 FFSF
1.0295 0.1281 m
GS
[0.0280 0.0000 0.0000 0.0280 0 0] CC
(180) show
GR
/Font41 FFSF
1.1294 0.1281 m
GS
[0.0280 0.0000 0.0000 0.0280 0 0] CC
(200) show
GR
/Times-Bold findfont
dup length dict begin
 {1 index /FID ne {def} {pop pop} ifelse} forall
 /Encoding DefEncoding def
 currentdict
end
/Font38 exch definefont pop
/Font38 FFSF
0.3916 0.0883 m
GS
[0.0420 0.0000 0.0000 0.0420 0 0] CC
(Pasos de Metropolis por sitio) show
GR
n
0.1500 0.1500 m
0.1500 0.8500 l
s
n
1.1500 0.1500 m
1.1500 0.8500 l
s
n
0.1500 0.2442 m
0.1600 0.2442 l
s
n
1.1500 0.2442 m
1.1400 0.2442 l
s
n
0.1500 0.3788 m
0.1600 0.3788 l
s
n
1.1500 0.3788 m
1.1400 0.3788 l
s
n
0.1500 0.5135 m
0.1600 0.5135 l
s
n
1.1500 0.5135 m
1.1400 0.5135 l
s
n
0.1500 0.6481 m
0.1600 0.6481 l
s
n
1.1500 0.6481 m
1.1400 0.6481 l
s
n
0.1500 0.7827 m
0.1600 0.7827 l
s
n
1.1500 0.7827 m
1.1400 0.7827 l
s
n
0.1500 0.1769 m
0.1700 0.1769 l
s
n
1.1500 0.1769 m
1.1300 0.1769 l
s
n
0.1500 0.3115 m
0.1700 0.3115 l
s
n
1.1500 0.3115 m
1.1300 0.3115 l
s
n
0.1500 0.4462 m
0.1700 0.4462 l
s
n
1.1500 0.4462 m
1.1300 0.4462 l
s
n
0.1500 0.5808 m
0.1700 0.5808 l
s
n
1.1500 0.5808 m
1.1300 0.5808 l
s
n
0.1500 0.7154 m
0.1700 0.7154 l
s
n
1.1500 0.7154 m
1.1300 0.7154 l
s
n
0.1500 0.8500 m
0.1700 0.8500 l
s
n
1.1500 0.8500 m
1.1300 0.8500 l
s
/Font41 FFSF
0.1267 0.1677 m
GS
[0.0280 0.0000 0.0000 0.0280 0 0] CC
(0) show
GR
/Font41 FFSF
0.1290 0.3021 m
GS
[0.0280 0.0000 0.0000 0.0280 0 0] CC
(1) show
GR
/Font41 FFSF
0.1267 0.4367 m
GS
[0.0280 0.0000 0.0000 0.0280 0 0] CC
(2) show
GR
/Font41 FFSF
0.1278 0.5716 m
GS
[0.0280 0.0000 0.0000 0.0280 0 0] CC
(3) show
GR
/Font41 FFSF
0.1267 0.7060 m
GS
[0.0280 0.0000 0.0000 0.0280 0 0] CC
(4) show
GR
/Font41 FFSF
0.1278 0.8406 m
GS
[0.0280 0.0000 0.0000 0.0280 0 0] CC
(5) show
GR
n
0.1500 0.1500 m
0.1500 0.8500 l
1.1500 0.8500 l
1.1500 0.1500 l
0.1500 0.1500 l
c
s
n
0.5000 0.5000 m
0.5000 0.2967 l
1.0827 0.2967 l
1.0827 0.5000 l
c
[/DeviceRGB] SCS
Color0 SC
fill
[/DeviceRGB] SCS
Color1 SC
n
0.5000 0.5000 m
0.5000 0.2967 l
1.0827 0.2967 l
1.0827 0.5000 l
0.5000 0.5000 l
c
s
/Font41 FFSF
0.5715 0.4661 m
GS
[0.0350 0.0000 0.0000 0.0350 0 0] CC
(Energía por sitio \(T) show
GR
/Font41 FFSF
0.8468 0.4521 m
GS
[0.0247 0.0000 0.0000 0.0247 0 0] CC
(incial) show
GR
/Font41 FFSF
0.9017 0.4661 m
GS
[0.0350 0.0000 0.0000 0.0350 0 0] CC
( = 0\)) show
GR
[] 0 SD
0.0030 SLW
n
0.5115 0.4708 m
0.5515 0.4708 l
s
/Font41 FFSF
0.5715 0.4178 m
GS
[0.0350 0.0000 0.0000 0.0350 0 0] CC
(Magnetización por sitio \(T) show
GR
/Font41 FFSF
0.9456 0.4038 m
GS
[0.0247 0.0000 0.0000 0.0247 0 0] CC
(incial) show
GR
/Font41 FFSF
1.0005 0.4178 m
GS
[0.0350 0.0000 0.0000 0.0350 0 0] CC
( = 0\)) show
GR
[/DeviceRGB] SCS
Color2 SC
n
0.5115 0.4225 m
0.5515 0.4225 l
s
/Font41 FFSF
[/DeviceRGB] SCS
Color1 SC
0.5715 0.3695 m
GS
[0.0350 0.0000 0.0000 0.0350 0 0] CC
(Energía por sitio \(T) show
GR
/Font41 FFSF
0.8468 0.3555 m
GS
[0.0247 0.0000 0.0000 0.0247 0 0] CC
(incial) show
GR
/Font41 FFSF
0.9017 0.3695 m
GS
[0.0350 0.0000 0.0000 0.0350 0 0] CC
( = ) show
GR
/Symbol findfont
/Font37 exch definefont pop
/Font37 FFSF
0.9390 0.3695 m
GS
[0.0350 0.0000 0.0000 0.0350 0 0] CC
(¥ \)) show
GR
[/DeviceRGB] SCS
Color3 SC
n
0.5115 0.3742 m
0.5515 0.3742 l
s
/Font41 FFSF
[/DeviceRGB] SCS
Color1 SC
0.5715 0.3211 m
GS
[0.0350 0.0000 0.0000 0.0350 0 0] CC
(Magnetización por sitio \(T) show
GR
/Font41 FFSF
0.9456 0.3071 m
GS
[0.0247 0.0000 0.0000 0.0247 0 0] CC
(incial) show
GR
/Font41 FFSF
1.0005 0.3211 m
GS
[0.0350 0.0000 0.0000 0.0350 0 0] CC
( = ) show
GR
/Font37 FFSF
1.0378 0.3211 m
GS
[0.0350 0.0000 0.0000 0.0350 0 0] CC
(¥\)) show
GR
[/DeviceRGB] SCS
Color4 SC
n
0.5115 0.3259 m
0.5515 0.3259 l
s
/Font41 FFSF
[/DeviceRGB] SCS
Color1 SC
0.3775 0.9108 m
GS
[0.0560 0.0000 0.0000 0.0560 0 0] CC
(Termalización KBT=4.1) show
GR
/Font41 FFSF
0.3965 0.8763 m
GS
[0.0280 0.0000 0.0000 0.0280 0 0] CC
(Magnetización prácticamente nula, Teq  ) show
GR
/Font37 FFSF
0.8537 0.8763 m
GS
[0.0280 0.0000 0.0000 0.0280 0 0] CC
(» 40) show
GR
%%Trailer
%%BoundingBox: 76 47 718 582
%%DocumentNeededResources: font Symbol
%%+ font Times-Bold
%%+ font Times-Roman
%%EOF
