%!PS-Adobe-3.0 EPSF-3.0
%%BoundingBox: (atend)
%%LanguageLevel: 2
%%Creator: Grace-5.1.24
%%CreationDate: Tue Nov 29 06:13:38 2016
%%DocumentData: Clean8Bit
%%Orientation: Portrait
%%Title: /home/juanchoflo/Escritorio/UNAL2016-2/HerramientasComputacionales/ProyectoFinal/simulacion/ModeloIsing/Datos/VariablesTermodinamicas/Xs0.agr
%%For: juanchoflo
%%DocumentNeededResources: (atend)
%%EndComments
%%BeginProlog
/m {moveto} def
/l {lineto} def
/s {stroke} def
/n {newpath} def
/c {closepath} def
/RL {rlineto} def
/SLW {setlinewidth} def
/GS {gsave} def
/GR {grestore} def
/SC {setcolor} def
/SGRY {setgray} def
/SRGB {setrgbcolor} def
/SD {setdash} def
/SLC {setlinecap} def
/SLJ {setlinejoin} def
/SCS {setcolorspace} def
/FFSF {findfont setfont} def
/CC {concat} def
/PXL {n m 0 0 RL s} def
/Color0 {1.0000 1.0000 1.0000} def
/Color1 {0.0000 0.0000 0.0000} def
/Color2 {1.0000 0.0000 0.0000} def
/Color3 {0.0000 1.0000 0.0000} def
/Color4 {0.0000 0.0000 1.0000} def
/Color5 {1.0000 1.0000 0.0000} def
/Color6 {0.7373 0.5608 0.5608} def
/Color7 {0.8627 0.8627 0.8627} def
/Color8 {0.5804 0.0000 0.8275} def
/Color9 {0.0000 1.0000 1.0000} def
/Color10 {1.0000 0.0000 1.0000} def
/Color11 {1.0000 0.6471 0.0000} def
/Color12 {0.4471 0.1294 0.7373} def
/Color13 {0.4039 0.0275 0.2824} def
/Color14 {0.2510 0.8784 0.8157} def
/Color15 {0.0000 0.5451 0.0000} def
/Color16 {0.7529 0.7529 0.7529} def
/Color17 {0.5059 0.5059 0.5059} def
/Color18 {0.2588 0.2588 0.2588} def
/PTRN {
 /pat_bits exch def 
 <<
  /PaintType 2
  /PatternType 1 /TilingType 1
  /BBox[0 0 16 16]
  /XStep 16 /YStep 16
  /PaintProc {
   pop
   16 16 true [-1 0 0 -1 16 16] pat_bits imagemask
  }
 >>
 [0.0016 0 0 0.0016 0 0]
 makepattern
} def
/Pattern0 {<0000000000000000000000000000000000000000000000000000000000000000> PTRN} bind def
/Pattern1 {<ffffffffffffffffffffffffffffffffffffffffffffffffffffffffffffffff> PTRN} bind def
/Pattern2 {<eeeeffffbbbbffffeeeeffffbbbbffffeeeeffffbbbbffffeeeeffffbbbbffff> PTRN} bind def
/Pattern3 {<eeeebbbbeeeebbbbeeeebbbbeeeebbbbeeeebbbbeeeebbbbeeeebbbbeeeebbbb> PTRN} bind def
/Pattern4 {<5555aaaa5555aaaa5555aaaa5555aaaa5555aaaa5555aaaa5555aaaa5555aaaa> PTRN} bind def
/Pattern5 {<1111444411114444111144441111444411114444111144441111444411114444> PTRN} bind def
/Pattern6 {<1111000044440000111100004444000011110000444400001111000044440000> PTRN} bind def
/Pattern7 {<1010000000000000010100000000000010100000000000000101000000000000> PTRN} bind def
/Pattern8 {<0000000000000000000000000000000000000000000000000000000000000000> PTRN} bind def
/Pattern9 {<1e1e0f0f8787c3c3e1e1f0f078783c3c1e1e0f0f8787c3c3e1e1f0f078783c3c> PTRN} bind def
/Pattern10 {<7878f0f0e1e1c3c387870f0f1e1e3c3c7878f0f0e1e1c3c387870f0f1e1e3c3c> PTRN} bind def
/Pattern11 {<3333333333333333333333333333333333333333333333333333333333333333> PTRN} bind def
/Pattern12 {<ffffffff00000000ffffffff00000000ffffffff00000000ffffffff00000000> PTRN} bind def
/Pattern13 {<8181424224241818181824244242818181814242242418181818242442428181> PTRN} bind def
/Pattern14 {<8080404020201010080804040202010180804040202010100808040402020101> PTRN} bind def
/Pattern15 {<0101020204040808101020204040808001010202040408081010202040408080> PTRN} bind def
/Pattern16 {<2222222222222222222222222222222222222222222222222222222222222222> PTRN} bind def
/Pattern17 {<0000ffff000000000000ffff000000000000ffff000000000000ffff00000000> PTRN} bind def
/Pattern18 {<2222ffff222222222222ffff222222222222ffff222222222222ffff22222222> PTRN} bind def
/Pattern19 {<ffffffff33333333ffffffff33333333ffffffff33333333ffffffff33333333> PTRN} bind def
/Pattern20 {<0f0f0f0f0f0f0f0ff0f0f0f0f0f0f0f00f0f0f0f0f0f0f0ff0f0f0f0f0f0f0f0> PTRN} bind def
/Pattern21 {<ff00ff00ff00ff00ff00ff00ff00ff0000ff00ff00ff00ff00ff00ff00ff00ff> PTRN} bind def
/Pattern22 {<8001800180018001800180018001ffffffff8001800180018001800180018001> PTRN} bind def
/Pattern23 {<c003c003c003c003c003c003ffffffffffffffffc003c003c003c003c003c003> PTRN} bind def
/Pattern24 {<040404040404ffff404040404040ffff040404040404ffff404040404040ffff> PTRN} bind def
/Pattern25 {<180018001800180018001800ffffffff001800180018001800180018ffffffff> PTRN} bind def
/Pattern26 {<1111b8b87c7c3a3a1111a3a3c7c78b8b1111b8b87c7c3a3a1111a3a3c7c78b8b> PTRN} bind def
/Pattern27 {<101010102828c7c70101010182827c7c101010102828c7c70101010182827c7c> PTRN} bind def
/Pattern28 {<1c1c121211112121c1c12121111112121c1c121211112121c1c1212111111212> PTRN} bind def
/Pattern29 {<3e3e414180808080e3e31414080808083e3e414180808080e3e3141408080808> PTRN} bind def
/Pattern30 {<4848888884848383848488884848383848488888848483838484888848483838> PTRN} bind def
/Pattern31 {<03030404080808080c0c12122121c0c003030404080808080c0c12122121c0c0> PTRN} bind def
/ellipsedict 8 dict def
ellipsedict /mtrx matrix put
/EARC {
 ellipsedict begin
  /endangle exch def
  /startangle exch def
  /yrad exch def
  /xrad exch def
  /y exch def
  /x exch def
  /savematrix mtrx currentmatrix def
  x y translate
  xrad yrad scale
  0 0 1 startangle endangle arc
  savematrix setmatrix
 end
} def
/TL {
  /kcomp exch def
  /linewidth exch def
  /offset exch def
  GS
  0 offset rmoveto
  linewidth SLW
  dup stringwidth exch kcomp add exch RL s
  GR
} def
/KINIT
{
 /kvector exch def
 /kid 0 def
} def
/KPROC
{
 pop pop
 kvector kid get
 0 rmoveto
 /kid 1 kid add def
} def
/DefEncoding [
 /.notdef
 /.notdef
 /.notdef
 /.notdef
 /.notdef
 /.notdef
 /.notdef
 /.notdef
 /.notdef
 /.notdef
 /.notdef
 /.notdef
 /.notdef
 /.notdef
 /.notdef
 /.notdef
 /.notdef
 /.notdef
 /.notdef
 /.notdef
 /.notdef
 /.notdef
 /.notdef
 /.notdef
 /.notdef
 /.notdef
 /.notdef
 /.notdef
 /.notdef
 /.notdef
 /.notdef
 /.notdef
 /space
 /exclam
 /quotedbl
 /numbersign
 /dollar
 /percent
 /ampersand
 /quoteright
 /parenleft
 /parenright
 /asterisk
 /plus
 /comma
 /hyphen
 /period
 /slash
 /zero
 /one
 /two
 /three
 /four
 /five
 /six
 /seven
 /eight
 /nine
 /colon
 /semicolon
 /less
 /equal
 /greater
 /question
 /at
 /A
 /B
 /C
 /D
 /E
 /F
 /G
 /H
 /I
 /J
 /K
 /L
 /M
 /N
 /O
 /P
 /Q
 /R
 /S
 /T
 /U
 /V
 /W
 /X
 /Y
 /Z
 /bracketleft
 /backslash
 /bracketright
 /asciicircum
 /underscore
 /grave
 /a
 /b
 /c
 /d
 /e
 /f
 /g
 /h
 /i
 /j
 /k
 /l
 /m
 /n
 /o
 /p
 /q
 /r
 /s
 /t
 /u
 /v
 /w
 /x
 /y
 /z
 /braceleft
 /bar
 /braceright
 /asciitilde
 /.notdef
 /.notdef
 /.notdef
 /.notdef
 /.notdef
 /.notdef
 /.notdef
 /.notdef
 /.notdef
 /.notdef
 /.notdef
 /.notdef
 /.notdef
 /.notdef
 /.notdef
 /.notdef
 /.notdef
 /.notdef
 /.notdef
 /.notdef
 /.notdef
 /.notdef
 /.notdef
 /.notdef
 /.notdef
 /.notdef
 /.notdef
 /.notdef
 /.notdef
 /.notdef
 /.notdef
 /.notdef
 /.notdef
 /space
 /exclamdown
 /cent
 /sterling
 /currency
 /yen
 /brokenbar
 /section
 /dieresis
 /copyright
 /ordfeminine
 /guillemotleft
 /logicalnot
 /hyphen
 /registered
 /macron
 /degree
 /plusminus
 /twosuperior
 /threesuperior
 /acute
 /mu
 /paragraph
 /periodcentered
 /cedilla
 /onesuperior
 /ordmasculine
 /guillemotright
 /onequarter
 /onehalf
 /threequarters
 /questiondown
 /Agrave
 /Aacute
 /Acircumflex
 /Atilde
 /Adieresis
 /Aring
 /AE
 /Ccedilla
 /Egrave
 /Eacute
 /Ecircumflex
 /Edieresis
 /Igrave
 /Iacute
 /Icircumflex
 /Idieresis
 /Eth
 /Ntilde
 /Ograve
 /Oacute
 /Ocircumflex
 /Otilde
 /Odieresis
 /multiply
 /Oslash
 /Ugrave
 /Uacute
 /Ucircumflex
 /Udieresis
 /Yacute
 /Thorn
 /germandbls
 /agrave
 /aacute
 /acircumflex
 /atilde
 /adieresis
 /aring
 /ae
 /ccedilla
 /egrave
 /eacute
 /ecircumflex
 /edieresis
 /igrave
 /iacute
 /icircumflex
 /idieresis
 /eth
 /ntilde
 /ograve
 /oacute
 /ocircumflex
 /otilde
 /odieresis
 /divide
 /oslash
 /ugrave
 /uacute
 /ucircumflex
 /udieresis
 /yacute
 /thorn
 /ydieresis
] def
%%EndProlog
%%BeginSetup
%%EndSetup
612.00 612.00 scale
n
0.0000 0.0000 m
0.0000 1.0000 l
1.2941 1.0000 l
1.2941 0.0000 l
c
[/DeviceRGB] SCS
Color0 SC
fill
[/DeviceRGB] SCS
Color4 SC
[] 0 SD
0.0015 SLW
0 SLC
0 SLJ
n
0.1900 0.1975 m
0.2100 0.1975 l
0.2300 0.1975 l
0.2500 0.1975 l
0.2700 0.1975 l
0.2900 0.1975 l
0.3100 0.1975 l
0.3300 0.1976 l
0.3500 0.1978 l
0.3700 0.1981 l
0.3900 0.1991 l
0.4100 0.1997 l
0.4300 0.2010 l
0.4500 0.2039 l
0.4700 0.2063 l
0.4900 0.2159 l
0.5100 0.2286 l
0.5300 0.2572 l
0.5500 0.2859 l
0.5700 0.3320 l
0.5900 0.5127 l
0.6100 0.6824 l
0.6300 0.7533 l
0.6500 0.7984 l
0.6700 0.7732 l
0.6900 0.6741 l
0.7100 0.5912 l
0.7300 0.5417 l
0.7500 0.4998 l
0.7700 0.4454 l
0.7900 0.4070 l
0.8100 0.3757 l
0.8300 0.3582 l
0.8500 0.3365 l
0.8700 0.3231 l
0.8900 0.3184 l
0.9100 0.2996 l
0.9300 0.2983 l
0.9500 0.2881 l
0.9700 0.2686 l
0.9900 0.2780 l
1.0100 0.2708 l
1.0300 0.2552 l
1.0500 0.2552 l
1.0700 0.2588 l
1.0900 0.2500 l
1.1100 0.2480 l
1.1300 0.2487 l
1.1500 0.2494 l
s
n
0.2900 0.1975 m
0.2900 0.1975 l
s
[] 0 SD
0.0023 SLW
n
0.2800 0.1975 m
0.3000 0.1975 l
s
[] 0 SD
0.0015 SLW
n
0.2900 0.1975 m
0.2900 0.1975 l
s
[] 0 SD
0.0023 SLW
n
0.3000 0.1975 m
0.2800 0.1975 l
s
[] 0 SD
0.0015 SLW
n
0.3100 0.1975 m
0.3100 0.1976 l
s
[] 0 SD
0.0023 SLW
n
0.3000 0.1976 m
0.3200 0.1976 l
s
[] 0 SD
0.0015 SLW
n
0.3100 0.1975 m
0.3100 0.1975 l
s
[] 0 SD
0.0023 SLW
n
0.3200 0.1975 m
0.3000 0.1975 l
s
[] 0 SD
0.0015 SLW
n
0.3300 0.1976 m
0.3300 0.1976 l
s
[] 0 SD
0.0023 SLW
n
0.3200 0.1976 m
0.3400 0.1976 l
s
[] 0 SD
0.0015 SLW
n
0.3300 0.1976 m
0.3300 0.1976 l
s
[] 0 SD
0.0023 SLW
n
0.3400 0.1976 m
0.3200 0.1976 l
s
[] 0 SD
0.0015 SLW
n
0.3500 0.1978 m
0.3500 0.1978 l
s
[] 0 SD
0.0023 SLW
n
0.3400 0.1978 m
0.3600 0.1978 l
s
[] 0 SD
0.0015 SLW
n
0.3500 0.1978 m
0.3500 0.1977 l
s
[] 0 SD
0.0023 SLW
n
0.3600 0.1977 m
0.3400 0.1977 l
s
[] 0 SD
0.0015 SLW
n
0.3700 0.1981 m
0.3700 0.1982 l
s
[] 0 SD
0.0023 SLW
n
0.3600 0.1982 m
0.3800 0.1982 l
s
[] 0 SD
0.0015 SLW
n
0.3700 0.1981 m
0.3700 0.1980 l
s
[] 0 SD
0.0023 SLW
n
0.3800 0.1980 m
0.3600 0.1980 l
s
[] 0 SD
0.0015 SLW
n
0.3900 0.1991 m
0.3900 0.1993 l
s
[] 0 SD
0.0023 SLW
n
0.3800 0.1993 m
0.4000 0.1993 l
s
[] 0 SD
0.0015 SLW
n
0.3900 0.1991 m
0.3900 0.1989 l
s
[] 0 SD
0.0023 SLW
n
0.4000 0.1989 m
0.3800 0.1989 l
s
[] 0 SD
0.0015 SLW
n
0.4100 0.1997 m
0.4100 0.1999 l
s
[] 0 SD
0.0023 SLW
n
0.4000 0.1999 m
0.4200 0.1999 l
s
[] 0 SD
0.0015 SLW
n
0.4100 0.1997 m
0.4100 0.1994 l
s
[] 0 SD
0.0023 SLW
n
0.4200 0.1994 m
0.4000 0.1994 l
s
[] 0 SD
0.0015 SLW
n
0.4300 0.2010 m
0.4300 0.2013 l
s
[] 0 SD
0.0023 SLW
n
0.4200 0.2013 m
0.4400 0.2013 l
s
[] 0 SD
0.0015 SLW
n
0.4300 0.2010 m
0.4300 0.2007 l
s
[] 0 SD
0.0023 SLW
n
0.4400 0.2007 m
0.4200 0.2007 l
s
[] 0 SD
0.0015 SLW
n
0.4500 0.2039 m
0.4500 0.2047 l
s
[] 0 SD
0.0023 SLW
n
0.4400 0.2047 m
0.4600 0.2047 l
s
[] 0 SD
0.0015 SLW
n
0.4500 0.2039 m
0.4500 0.2032 l
s
[] 0 SD
0.0023 SLW
n
0.4600 0.2032 m
0.4400 0.2032 l
s
[] 0 SD
0.0015 SLW
n
0.4700 0.2063 m
0.4700 0.2070 l
s
[] 0 SD
0.0023 SLW
n
0.4600 0.2070 m
0.4800 0.2070 l
s
[] 0 SD
0.0015 SLW
n
0.4700 0.2063 m
0.4700 0.2056 l
s
[] 0 SD
0.0023 SLW
n
0.4800 0.2056 m
0.4600 0.2056 l
s
[] 0 SD
0.0015 SLW
n
0.4900 0.2159 m
0.4900 0.2177 l
s
[] 0 SD
0.0023 SLW
n
0.4800 0.2177 m
0.5000 0.2177 l
s
[] 0 SD
0.0015 SLW
n
0.4900 0.2159 m
0.4900 0.2140 l
s
[] 0 SD
0.0023 SLW
n
0.5000 0.2140 m
0.4800 0.2140 l
s
[] 0 SD
0.0015 SLW
n
0.5100 0.2286 m
0.5100 0.2320 l
s
[] 0 SD
0.0023 SLW
n
0.5000 0.2320 m
0.5200 0.2320 l
s
[] 0 SD
0.0015 SLW
n
0.5100 0.2286 m
0.5100 0.2253 l
s
[] 0 SD
0.0023 SLW
n
0.5200 0.2253 m
0.5000 0.2253 l
s
[] 0 SD
0.0015 SLW
n
0.5300 0.2572 m
0.5300 0.2655 l
s
[] 0 SD
0.0023 SLW
n
0.5200 0.2655 m
0.5400 0.2655 l
s
[] 0 SD
0.0015 SLW
n
0.5300 0.2572 m
0.5300 0.2489 l
s
[] 0 SD
0.0023 SLW
n
0.5400 0.2489 m
0.5200 0.2489 l
s
[] 0 SD
0.0015 SLW
n
0.5500 0.2859 m
0.5500 0.2984 l
s
[] 0 SD
0.0023 SLW
n
0.5400 0.2984 m
0.5600 0.2984 l
s
[] 0 SD
0.0015 SLW
n
0.5500 0.2859 m
0.5500 0.2734 l
s
[] 0 SD
0.0023 SLW
n
0.5600 0.2734 m
0.5400 0.2734 l
s
[] 0 SD
0.0015 SLW
n
0.5700 0.3320 m
0.5700 0.3481 l
s
[] 0 SD
0.0023 SLW
n
0.5600 0.3481 m
0.5800 0.3481 l
s
[] 0 SD
0.0015 SLW
n
0.5700 0.3320 m
0.5700 0.3158 l
s
[] 0 SD
0.0023 SLW
n
0.5800 0.3158 m
0.5600 0.3158 l
s
[] 0 SD
0.0015 SLW
n
0.5900 0.5127 m
0.5900 0.5399 l
s
[] 0 SD
0.0023 SLW
n
0.5800 0.5399 m
0.6000 0.5399 l
s
[] 0 SD
0.0015 SLW
n
0.5900 0.5127 m
0.5900 0.4855 l
s
[] 0 SD
0.0023 SLW
n
0.6000 0.4855 m
0.5800 0.4855 l
s
[] 0 SD
0.0015 SLW
n
0.6100 0.6824 m
0.6100 0.7101 l
s
[] 0 SD
0.0023 SLW
n
0.6000 0.7101 m
0.6200 0.7101 l
s
[] 0 SD
0.0015 SLW
n
0.6100 0.6824 m
0.6100 0.6547 l
s
[] 0 SD
0.0023 SLW
n
0.6200 0.6547 m
0.6000 0.6547 l
s
[] 0 SD
0.0015 SLW
n
0.6300 0.7533 m
0.6300 0.7780 l
s
[] 0 SD
0.0023 SLW
n
0.6200 0.7780 m
0.6400 0.7780 l
s
[] 0 SD
0.0015 SLW
n
0.6300 0.7533 m
0.6300 0.7286 l
s
[] 0 SD
0.0023 SLW
n
0.6400 0.7286 m
0.6200 0.7286 l
s
[] 0 SD
0.0015 SLW
n
0.6500 0.7984 m
0.6500 0.8182 l
s
[] 0 SD
0.0023 SLW
n
0.6400 0.8182 m
0.6600 0.8182 l
s
[] 0 SD
0.0015 SLW
n
0.6500 0.7984 m
0.6500 0.7787 l
s
[] 0 SD
0.0023 SLW
n
0.6600 0.7787 m
0.6400 0.7787 l
s
[] 0 SD
0.0015 SLW
n
0.6700 0.7732 m
0.6700 0.7908 l
s
[] 0 SD
0.0023 SLW
n
0.6600 0.7908 m
0.6800 0.7908 l
s
[] 0 SD
0.0015 SLW
n
0.6700 0.7732 m
0.6700 0.7556 l
s
[] 0 SD
0.0023 SLW
n
0.6800 0.7556 m
0.6600 0.7556 l
s
[] 0 SD
0.0015 SLW
n
0.6900 0.6741 m
0.6900 0.6899 l
s
[] 0 SD
0.0023 SLW
n
0.6800 0.6899 m
0.7000 0.6899 l
s
[] 0 SD
0.0015 SLW
n
0.6900 0.6741 m
0.6900 0.6584 l
s
[] 0 SD
0.0023 SLW
n
0.7000 0.6584 m
0.6800 0.6584 l
s
[] 0 SD
0.0015 SLW
n
0.7100 0.5912 m
0.7100 0.6053 l
s
[] 0 SD
0.0023 SLW
n
0.7000 0.6053 m
0.7200 0.6053 l
s
[] 0 SD
0.0015 SLW
n
0.7100 0.5912 m
0.7100 0.5771 l
s
[] 0 SD
0.0023 SLW
n
0.7200 0.5771 m
0.7000 0.5771 l
s
[] 0 SD
0.0015 SLW
n
0.7300 0.5417 m
0.7300 0.5550 l
s
[] 0 SD
0.0023 SLW
n
0.7200 0.5550 m
0.7400 0.5550 l
s
[] 0 SD
0.0015 SLW
n
0.7300 0.5417 m
0.7300 0.5285 l
s
[] 0 SD
0.0023 SLW
n
0.7400 0.5285 m
0.7200 0.5285 l
s
[] 0 SD
0.0015 SLW
n
0.7500 0.4998 m
0.7500 0.5112 l
s
[] 0 SD
0.0023 SLW
n
0.7400 0.5112 m
0.7600 0.5112 l
s
[] 0 SD
0.0015 SLW
n
0.7500 0.4998 m
0.7500 0.4885 l
s
[] 0 SD
0.0023 SLW
n
0.7600 0.4885 m
0.7400 0.4885 l
s
[] 0 SD
0.0015 SLW
n
0.7700 0.4454 m
0.7700 0.4553 l
s
[] 0 SD
0.0023 SLW
n
0.7600 0.4553 m
0.7800 0.4553 l
s
[] 0 SD
0.0015 SLW
n
0.7700 0.4454 m
0.7700 0.4355 l
s
[] 0 SD
0.0023 SLW
n
0.7800 0.4355 m
0.7600 0.4355 l
s
[] 0 SD
0.0015 SLW
n
0.7900 0.4070 m
0.7900 0.4163 l
s
[] 0 SD
0.0023 SLW
n
0.7800 0.4163 m
0.8000 0.4163 l
s
[] 0 SD
0.0015 SLW
n
0.7900 0.4070 m
0.7900 0.3976 l
s
[] 0 SD
0.0023 SLW
n
0.8000 0.3976 m
0.7800 0.3976 l
s
[] 0 SD
0.0015 SLW
n
0.8100 0.3757 m
0.8100 0.3836 l
s
[] 0 SD
0.0023 SLW
n
0.8000 0.3836 m
0.8200 0.3836 l
s
[] 0 SD
0.0015 SLW
n
0.8100 0.3757 m
0.8100 0.3678 l
s
[] 0 SD
0.0023 SLW
n
0.8200 0.3678 m
0.8000 0.3678 l
s
[] 0 SD
0.0015 SLW
n
0.8300 0.3582 m
0.8300 0.3650 l
s
[] 0 SD
0.0023 SLW
n
0.8200 0.3650 m
0.8400 0.3650 l
s
[] 0 SD
0.0015 SLW
n
0.8300 0.3582 m
0.8300 0.3513 l
s
[] 0 SD
0.0023 SLW
n
0.8400 0.3513 m
0.8200 0.3513 l
s
[] 0 SD
0.0015 SLW
n
0.8500 0.3365 m
0.8500 0.3430 l
s
[] 0 SD
0.0023 SLW
n
0.8400 0.3430 m
0.8600 0.3430 l
s
[] 0 SD
0.0015 SLW
n
0.8500 0.3365 m
0.8500 0.3300 l
s
[] 0 SD
0.0023 SLW
n
0.8600 0.3300 m
0.8400 0.3300 l
s
[] 0 SD
0.0015 SLW
n
0.8700 0.3231 m
0.8700 0.3290 l
s
[] 0 SD
0.0023 SLW
n
0.8600 0.3290 m
0.8800 0.3290 l
s
[] 0 SD
0.0015 SLW
n
0.8700 0.3231 m
0.8700 0.3172 l
s
[] 0 SD
0.0023 SLW
n
0.8800 0.3172 m
0.8600 0.3172 l
s
[] 0 SD
0.0015 SLW
n
0.8900 0.3184 m
0.8900 0.3244 l
s
[] 0 SD
0.0023 SLW
n
0.8800 0.3244 m
0.9000 0.3244 l
s
[] 0 SD
0.0015 SLW
n
0.8900 0.3184 m
0.8900 0.3124 l
s
[] 0 SD
0.0023 SLW
n
0.9000 0.3124 m
0.8800 0.3124 l
s
[] 0 SD
0.0015 SLW
n
0.9100 0.2996 m
0.9100 0.3042 l
s
[] 0 SD
0.0023 SLW
n
0.9000 0.3042 m
0.9200 0.3042 l
s
[] 0 SD
0.0015 SLW
n
0.9100 0.2996 m
0.9100 0.2950 l
s
[] 0 SD
0.0023 SLW
n
0.9200 0.2950 m
0.9000 0.2950 l
s
[] 0 SD
0.0015 SLW
n
0.9300 0.2983 m
0.9300 0.3036 l
s
[] 0 SD
0.0023 SLW
n
0.9200 0.3036 m
0.9400 0.3036 l
s
[] 0 SD
0.0015 SLW
n
0.9300 0.2983 m
0.9300 0.2930 l
s
[] 0 SD
0.0023 SLW
n
0.9400 0.2930 m
0.9200 0.2930 l
s
[] 0 SD
0.0015 SLW
n
0.9500 0.2881 m
0.9500 0.2926 l
s
[] 0 SD
0.0023 SLW
n
0.9400 0.2926 m
0.9600 0.2926 l
s
[] 0 SD
0.0015 SLW
n
0.9500 0.2881 m
0.9500 0.2836 l
s
[] 0 SD
0.0023 SLW
n
0.9600 0.2836 m
0.9400 0.2836 l
s
[] 0 SD
0.0015 SLW
n
0.9700 0.2686 m
0.9700 0.2723 l
s
[] 0 SD
0.0023 SLW
n
0.9600 0.2723 m
0.9800 0.2723 l
s
[] 0 SD
0.0015 SLW
n
0.9700 0.2686 m
0.9700 0.2648 l
s
[] 0 SD
0.0023 SLW
n
0.9800 0.2648 m
0.9600 0.2648 l
s
[] 0 SD
0.0015 SLW
n
0.9900 0.2780 m
0.9900 0.2816 l
s
[] 0 SD
0.0023 SLW
n
0.9800 0.2816 m
1.0000 0.2816 l
s
[] 0 SD
0.0015 SLW
n
0.9900 0.2780 m
0.9900 0.2744 l
s
[] 0 SD
0.0023 SLW
n
1.0000 0.2744 m
0.9800 0.2744 l
s
[] 0 SD
0.0015 SLW
n
1.0100 0.2708 m
1.0100 0.2745 l
s
[] 0 SD
0.0023 SLW
n
1.0000 0.2745 m
1.0200 0.2745 l
s
[] 0 SD
0.0015 SLW
n
1.0100 0.2708 m
1.0100 0.2670 l
s
[] 0 SD
0.0023 SLW
n
1.0200 0.2670 m
1.0000 0.2670 l
s
[] 0 SD
0.0015 SLW
n
1.0300 0.2552 m
1.0300 0.2580 l
s
[] 0 SD
0.0023 SLW
n
1.0200 0.2580 m
1.0400 0.2580 l
s
[] 0 SD
0.0015 SLW
n
1.0300 0.2552 m
1.0300 0.2525 l
s
[] 0 SD
0.0023 SLW
n
1.0400 0.2525 m
1.0200 0.2525 l
s
[] 0 SD
0.0015 SLW
n
1.0500 0.2552 m
1.0500 0.2580 l
s
[] 0 SD
0.0023 SLW
n
1.0400 0.2580 m
1.0600 0.2580 l
s
[] 0 SD
0.0015 SLW
n
1.0500 0.2552 m
1.0500 0.2525 l
s
[] 0 SD
0.0023 SLW
n
1.0600 0.2525 m
1.0400 0.2525 l
s
[] 0 SD
0.0015 SLW
n
1.0700 0.2588 m
1.0700 0.2620 l
s
[] 0 SD
0.0023 SLW
n
1.0600 0.2620 m
1.0800 0.2620 l
s
[] 0 SD
0.0015 SLW
n
1.0700 0.2588 m
1.0700 0.2556 l
s
[] 0 SD
0.0023 SLW
n
1.0800 0.2556 m
1.0600 0.2556 l
s
[] 0 SD
0.0015 SLW
n
1.0900 0.2500 m
1.0900 0.2526 l
s
[] 0 SD
0.0023 SLW
n
1.0800 0.2526 m
1.1000 0.2526 l
s
[] 0 SD
0.0015 SLW
n
1.0900 0.2500 m
1.0900 0.2473 l
s
[] 0 SD
0.0023 SLW
n
1.1000 0.2473 m
1.0800 0.2473 l
s
[] 0 SD
0.0015 SLW
n
1.1100 0.2480 m
1.1100 0.2502 l
s
[] 0 SD
0.0023 SLW
n
1.1000 0.2502 m
1.1200 0.2502 l
s
[] 0 SD
0.0015 SLW
n
1.1100 0.2480 m
1.1100 0.2457 l
s
[] 0 SD
0.0023 SLW
n
1.1200 0.2457 m
1.1000 0.2457 l
s
[] 0 SD
0.0015 SLW
n
1.1300 0.2487 m
1.1300 0.2514 l
s
[] 0 SD
0.0023 SLW
n
1.1200 0.2514 m
1.1400 0.2514 l
s
[] 0 SD
0.0015 SLW
n
1.1300 0.2487 m
1.1300 0.2459 l
s
[] 0 SD
0.0023 SLW
n
1.1400 0.2459 m
1.1200 0.2459 l
s
[] 0 SD
0.0015 SLW
n
1.1500 0.2494 m
1.1500 0.2519 l
s
[] 0 SD
0.0023 SLW
n
1.1400 0.2519 m
1.1501 0.2519 l
s
[] 0 SD
0.0015 SLW
n
1.1500 0.2494 m
1.1500 0.2468 l
s
[] 0 SD
0.0023 SLW
n
1.1501 0.2468 m
1.1400 0.2468 l
s
n
0.1900 0.2016 m
0.1859 0.1975 l
0.1900 0.1934 l
0.1941 0.1975 l
c
fill
[] 0 SD
0.0015 SLW
n
0.1900 0.2016 m
0.1859 0.1975 l
0.1900 0.1934 l
0.1941 0.1975 l
0.1900 0.2016 l
c
s
n
0.2100 0.2016 m
0.2059 0.1975 l
0.2100 0.1934 l
0.2141 0.1975 l
c
fill
n
0.2100 0.2016 m
0.2059 0.1975 l
0.2100 0.1934 l
0.2141 0.1975 l
0.2100 0.2016 l
c
s
n
0.2300 0.2016 m
0.2259 0.1975 l
0.2300 0.1934 l
0.2341 0.1975 l
c
fill
n
0.2300 0.2016 m
0.2259 0.1975 l
0.2300 0.1934 l
0.2341 0.1975 l
0.2300 0.2016 l
c
s
n
0.2500 0.2016 m
0.2459 0.1975 l
0.2500 0.1934 l
0.2541 0.1975 l
c
fill
n
0.2500 0.2016 m
0.2459 0.1975 l
0.2500 0.1934 l
0.2541 0.1975 l
0.2500 0.2016 l
c
s
n
0.2700 0.2016 m
0.2659 0.1975 l
0.2700 0.1934 l
0.2741 0.1975 l
c
fill
n
0.2700 0.2016 m
0.2659 0.1975 l
0.2700 0.1934 l
0.2741 0.1975 l
0.2700 0.2016 l
c
s
n
0.2900 0.2016 m
0.2859 0.1975 l
0.2900 0.1934 l
0.2941 0.1975 l
c
fill
n
0.2900 0.2016 m
0.2859 0.1975 l
0.2900 0.1934 l
0.2941 0.1975 l
0.2900 0.2016 l
c
s
n
0.3100 0.2016 m
0.3059 0.1975 l
0.3100 0.1934 l
0.3141 0.1975 l
c
fill
n
0.3100 0.2016 m
0.3059 0.1975 l
0.3100 0.1934 l
0.3141 0.1975 l
0.3100 0.2016 l
c
s
n
0.3300 0.2017 m
0.3259 0.1976 l
0.3300 0.1935 l
0.3341 0.1976 l
c
fill
n
0.3300 0.2017 m
0.3259 0.1976 l
0.3300 0.1935 l
0.3341 0.1976 l
0.3300 0.2017 l
c
s
n
0.3500 0.2019 m
0.3459 0.1978 l
0.3500 0.1937 l
0.3541 0.1978 l
c
fill
n
0.3500 0.2019 m
0.3459 0.1978 l
0.3500 0.1937 l
0.3541 0.1978 l
0.3500 0.2019 l
c
s
n
0.3700 0.2022 m
0.3659 0.1981 l
0.3700 0.1940 l
0.3741 0.1981 l
c
fill
n
0.3700 0.2022 m
0.3659 0.1981 l
0.3700 0.1940 l
0.3741 0.1981 l
0.3700 0.2022 l
c
s
n
0.3900 0.2032 m
0.3859 0.1991 l
0.3900 0.1950 l
0.3941 0.1991 l
c
fill
n
0.3900 0.2032 m
0.3859 0.1991 l
0.3900 0.1950 l
0.3941 0.1991 l
0.3900 0.2032 l
c
s
n
0.4100 0.2038 m
0.4059 0.1997 l
0.4100 0.1956 l
0.4141 0.1997 l
c
fill
n
0.4100 0.2038 m
0.4059 0.1997 l
0.4100 0.1956 l
0.4141 0.1997 l
0.4100 0.2038 l
c
s
n
0.4300 0.2051 m
0.4259 0.2010 l
0.4300 0.1969 l
0.4341 0.2010 l
c
fill
n
0.4300 0.2051 m
0.4259 0.2010 l
0.4300 0.1969 l
0.4341 0.2010 l
0.4300 0.2051 l
c
s
n
0.4500 0.2080 m
0.4459 0.2039 l
0.4500 0.1998 l
0.4541 0.2039 l
c
fill
n
0.4500 0.2080 m
0.4459 0.2039 l
0.4500 0.1998 l
0.4541 0.2039 l
0.4500 0.2080 l
c
s
n
0.4700 0.2104 m
0.4659 0.2063 l
0.4700 0.2022 l
0.4741 0.2063 l
c
fill
n
0.4700 0.2104 m
0.4659 0.2063 l
0.4700 0.2022 l
0.4741 0.2063 l
0.4700 0.2104 l
c
s
n
0.4900 0.2200 m
0.4859 0.2159 l
0.4900 0.2118 l
0.4941 0.2159 l
c
fill
n
0.4900 0.2200 m
0.4859 0.2159 l
0.4900 0.2118 l
0.4941 0.2159 l
0.4900 0.2200 l
c
s
n
0.5100 0.2327 m
0.5059 0.2286 l
0.5100 0.2245 l
0.5141 0.2286 l
c
fill
n
0.5100 0.2327 m
0.5059 0.2286 l
0.5100 0.2245 l
0.5141 0.2286 l
0.5100 0.2327 l
c
s
n
0.5300 0.2613 m
0.5259 0.2572 l
0.5300 0.2531 l
0.5341 0.2572 l
c
fill
n
0.5300 0.2613 m
0.5259 0.2572 l
0.5300 0.2531 l
0.5341 0.2572 l
0.5300 0.2613 l
c
s
n
0.5500 0.2900 m
0.5459 0.2859 l
0.5500 0.2818 l
0.5541 0.2859 l
c
fill
n
0.5500 0.2900 m
0.5459 0.2859 l
0.5500 0.2818 l
0.5541 0.2859 l
0.5500 0.2900 l
c
s
n
0.5700 0.3361 m
0.5659 0.3320 l
0.5700 0.3279 l
0.5741 0.3320 l
c
fill
n
0.5700 0.3361 m
0.5659 0.3320 l
0.5700 0.3279 l
0.5741 0.3320 l
0.5700 0.3361 l
c
s
n
0.5900 0.5168 m
0.5859 0.5127 l
0.5900 0.5086 l
0.5941 0.5127 l
c
fill
n
0.5900 0.5168 m
0.5859 0.5127 l
0.5900 0.5086 l
0.5941 0.5127 l
0.5900 0.5168 l
c
s
n
0.6100 0.6865 m
0.6059 0.6824 l
0.6100 0.6783 l
0.6141 0.6824 l
c
fill
n
0.6100 0.6865 m
0.6059 0.6824 l
0.6100 0.6783 l
0.6141 0.6824 l
0.6100 0.6865 l
c
s
n
0.6300 0.7574 m
0.6259 0.7533 l
0.6300 0.7492 l
0.6341 0.7533 l
c
fill
n
0.6300 0.7574 m
0.6259 0.7533 l
0.6300 0.7492 l
0.6341 0.7533 l
0.6300 0.7574 l
c
s
n
0.6500 0.8025 m
0.6459 0.7984 l
0.6500 0.7943 l
0.6541 0.7984 l
c
fill
n
0.6500 0.8025 m
0.6459 0.7984 l
0.6500 0.7943 l
0.6541 0.7984 l
0.6500 0.8025 l
c
s
n
0.6700 0.7773 m
0.6659 0.7732 l
0.6700 0.7691 l
0.6741 0.7732 l
c
fill
n
0.6700 0.7773 m
0.6659 0.7732 l
0.6700 0.7691 l
0.6741 0.7732 l
0.6700 0.7773 l
c
s
n
0.6900 0.6782 m
0.6859 0.6741 l
0.6900 0.6700 l
0.6941 0.6741 l
c
fill
n
0.6900 0.6782 m
0.6859 0.6741 l
0.6900 0.6700 l
0.6941 0.6741 l
0.6900 0.6782 l
c
s
n
0.7100 0.5953 m
0.7059 0.5912 l
0.7100 0.5871 l
0.7141 0.5912 l
c
fill
n
0.7100 0.5953 m
0.7059 0.5912 l
0.7100 0.5871 l
0.7141 0.5912 l
0.7100 0.5953 l
c
s
n
0.7300 0.5458 m
0.7259 0.5417 l
0.7300 0.5376 l
0.7341 0.5417 l
c
fill
n
0.7300 0.5458 m
0.7259 0.5417 l
0.7300 0.5376 l
0.7341 0.5417 l
0.7300 0.5458 l
c
s
n
0.7500 0.5039 m
0.7459 0.4998 l
0.7500 0.4957 l
0.7541 0.4998 l
c
fill
n
0.7500 0.5039 m
0.7459 0.4998 l
0.7500 0.4957 l
0.7541 0.4998 l
0.7500 0.5039 l
c
s
n
0.7700 0.4495 m
0.7659 0.4454 l
0.7700 0.4413 l
0.7741 0.4454 l
c
fill
n
0.7700 0.4495 m
0.7659 0.4454 l
0.7700 0.4413 l
0.7741 0.4454 l
0.7700 0.4495 l
c
s
n
0.7900 0.4111 m
0.7859 0.4070 l
0.7900 0.4029 l
0.7941 0.4070 l
c
fill
n
0.7900 0.4111 m
0.7859 0.4070 l
0.7900 0.4029 l
0.7941 0.4070 l
0.7900 0.4111 l
c
s
n
0.8100 0.3798 m
0.8059 0.3757 l
0.8100 0.3716 l
0.8141 0.3757 l
c
fill
n
0.8100 0.3798 m
0.8059 0.3757 l
0.8100 0.3716 l
0.8141 0.3757 l
0.8100 0.3798 l
c
s
n
0.8300 0.3623 m
0.8259 0.3582 l
0.8300 0.3541 l
0.8341 0.3582 l
c
fill
n
0.8300 0.3623 m
0.8259 0.3582 l
0.8300 0.3541 l
0.8341 0.3582 l
0.8300 0.3623 l
c
s
n
0.8500 0.3406 m
0.8459 0.3365 l
0.8500 0.3324 l
0.8541 0.3365 l
c
fill
n
0.8500 0.3406 m
0.8459 0.3365 l
0.8500 0.3324 l
0.8541 0.3365 l
0.8500 0.3406 l
c
s
n
0.8700 0.3272 m
0.8659 0.3231 l
0.8700 0.3190 l
0.8741 0.3231 l
c
fill
n
0.8700 0.3272 m
0.8659 0.3231 l
0.8700 0.3190 l
0.8741 0.3231 l
0.8700 0.3272 l
c
s
n
0.8900 0.3225 m
0.8859 0.3184 l
0.8900 0.3143 l
0.8941 0.3184 l
c
fill
n
0.8900 0.3225 m
0.8859 0.3184 l
0.8900 0.3143 l
0.8941 0.3184 l
0.8900 0.3225 l
c
s
n
0.9100 0.3037 m
0.9059 0.2996 l
0.9100 0.2955 l
0.9141 0.2996 l
c
fill
n
0.9100 0.3037 m
0.9059 0.2996 l
0.9100 0.2955 l
0.9141 0.2996 l
0.9100 0.3037 l
c
s
n
0.9300 0.3024 m
0.9259 0.2983 l
0.9300 0.2942 l
0.9341 0.2983 l
c
fill
n
0.9300 0.3024 m
0.9259 0.2983 l
0.9300 0.2942 l
0.9341 0.2983 l
0.9300 0.3024 l
c
s
n
0.9500 0.2922 m
0.9459 0.2881 l
0.9500 0.2840 l
0.9541 0.2881 l
c
fill
n
0.9500 0.2922 m
0.9459 0.2881 l
0.9500 0.2840 l
0.9541 0.2881 l
0.9500 0.2922 l
c
s
n
0.9700 0.2727 m
0.9659 0.2686 l
0.9700 0.2645 l
0.9741 0.2686 l
c
fill
n
0.9700 0.2727 m
0.9659 0.2686 l
0.9700 0.2645 l
0.9741 0.2686 l
0.9700 0.2727 l
c
s
n
0.9900 0.2821 m
0.9859 0.2780 l
0.9900 0.2739 l
0.9941 0.2780 l
c
fill
n
0.9900 0.2821 m
0.9859 0.2780 l
0.9900 0.2739 l
0.9941 0.2780 l
0.9900 0.2821 l
c
s
n
1.0100 0.2749 m
1.0059 0.2708 l
1.0100 0.2667 l
1.0141 0.2708 l
c
fill
n
1.0100 0.2749 m
1.0059 0.2708 l
1.0100 0.2667 l
1.0141 0.2708 l
1.0100 0.2749 l
c
s
n
1.0300 0.2593 m
1.0259 0.2552 l
1.0300 0.2511 l
1.0341 0.2552 l
c
fill
n
1.0300 0.2593 m
1.0259 0.2552 l
1.0300 0.2511 l
1.0341 0.2552 l
1.0300 0.2593 l
c
s
n
1.0500 0.2593 m
1.0459 0.2552 l
1.0500 0.2511 l
1.0541 0.2552 l
c
fill
n
1.0500 0.2593 m
1.0459 0.2552 l
1.0500 0.2511 l
1.0541 0.2552 l
1.0500 0.2593 l
c
s
n
1.0700 0.2629 m
1.0659 0.2588 l
1.0700 0.2547 l
1.0741 0.2588 l
c
fill
n
1.0700 0.2629 m
1.0659 0.2588 l
1.0700 0.2547 l
1.0741 0.2588 l
1.0700 0.2629 l
c
s
n
1.0900 0.2541 m
1.0859 0.2500 l
1.0900 0.2459 l
1.0941 0.2500 l
c
fill
n
1.0900 0.2541 m
1.0859 0.2500 l
1.0900 0.2459 l
1.0941 0.2500 l
1.0900 0.2541 l
c
s
n
1.1100 0.2521 m
1.1059 0.2480 l
1.1100 0.2439 l
1.1141 0.2480 l
c
fill
n
1.1100 0.2521 m
1.1059 0.2480 l
1.1100 0.2439 l
1.1141 0.2480 l
1.1100 0.2521 l
c
s
n
1.1300 0.2528 m
1.1259 0.2487 l
1.1300 0.2446 l
1.1341 0.2487 l
c
fill
n
1.1300 0.2528 m
1.1259 0.2487 l
1.1300 0.2446 l
1.1341 0.2487 l
1.1300 0.2528 l
c
s
n
1.1500 0.2535 m
1.1459 0.2494 l
1.1500 0.2453 l
1.1541 0.2494 l
c
fill
n
1.1500 0.2535 m
1.1459 0.2494 l
1.1500 0.2453 l
1.1541 0.2494 l
1.1500 0.2535 l
c
s
[/DeviceRGB] SCS
Color1 SC
n
0.1500 0.1975 m
1.1500 0.1975 l
s
n
0.1500 0.1975 m
1.1500 0.1975 l
s
n
0.2500 0.1975 m
0.2500 0.1875 l
s
n
0.2500 0.1975 m
0.2500 0.2075 l
s
n
0.4500 0.1975 m
0.4500 0.1875 l
s
n
0.4500 0.1975 m
0.4500 0.2075 l
s
n
0.6500 0.1975 m
0.6500 0.1875 l
s
n
0.6500 0.1975 m
0.6500 0.2075 l
s
n
0.8500 0.1975 m
0.8500 0.1875 l
s
n
0.8500 0.1975 m
0.8500 0.2075 l
s
n
1.0500 0.1975 m
1.0500 0.1875 l
s
n
1.0500 0.1975 m
1.0500 0.2075 l
s
n
0.1500 0.1975 m
0.1500 0.1775 l
s
n
0.1500 0.1975 m
0.1500 0.2175 l
s
n
0.3500 0.1975 m
0.3500 0.1775 l
s
n
0.3500 0.1975 m
0.3500 0.2175 l
s
n
0.5500 0.1975 m
0.5500 0.1775 l
s
n
0.5500 0.1975 m
0.5500 0.2175 l
s
n
0.7500 0.1975 m
0.7500 0.1775 l
s
n
0.7500 0.1975 m
0.7500 0.2175 l
s
n
0.9500 0.1975 m
0.9500 0.1775 l
s
n
0.9500 0.1975 m
0.9500 0.2175 l
s
n
1.1500 0.1975 m
1.1500 0.1775 l
s
n
1.1500 0.1975 m
1.1500 0.2175 l
s
/Times-Roman findfont
dup length dict begin
 {1 index /FID ne {def} {pop pop} ifelse} forall
 /Encoding DefEncoding def
 currentdict
end
/Font41 exch definefont pop
/Font41 FFSF
0.1433 0.1486 m
GS
[0.0280 0.0000 0.0000 0.0280 0 0] CC
(0) show
GR
/Font41 FFSF
0.3445 0.1486 m
GS
[0.0280 0.0000 0.0000 0.0280 0 0] CC
(1) show
GR
/Font41 FFSF
0.5433 0.1486 m
GS
[0.0280 0.0000 0.0000 0.0280 0 0] CC
(2) show
GR
/Font41 FFSF
0.7439 0.1486 m
GS
[0.0280 0.0000 0.0000 0.0280 0 0] CC
(3) show
GR
/Font41 FFSF
0.9433 0.1486 m
GS
[0.0280 0.0000 0.0000 0.0280 0 0] CC
(4) show
GR
/Font41 FFSF
1.1439 0.1482 m
GS
[0.0280 0.0000 0.0000 0.0280 0 0] CC
(5) show
GR
/Font41 FFSF
0.5869 0.1096 m
GS
[0.0420 0.0000 0.0000 0.0420 0 0] CC
(KBT\(J\)) show
GR
n
0.1500 0.1500 m
0.1500 0.8500 l
s
n
1.1500 0.1500 m
1.1500 0.8500 l
s
n
0.1500 0.2568 m
0.1600 0.2568 l
s
n
1.1500 0.2568 m
1.1400 0.2568 l
s
n
0.1500 0.3754 m
0.1600 0.3754 l
s
n
1.1500 0.3754 m
1.1400 0.3754 l
s
n
0.1500 0.4941 m
0.1600 0.4941 l
s
n
1.1500 0.4941 m
1.1400 0.4941 l
s
n
0.1500 0.6127 m
0.1600 0.6127 l
s
n
1.1500 0.6127 m
1.1400 0.6127 l
s
n
0.1500 0.7314 m
0.1600 0.7314 l
s
n
1.1500 0.7314 m
1.1400 0.7314 l
s
n
0.1500 0.8500 m
0.1600 0.8500 l
s
n
1.1500 0.8500 m
1.1400 0.8500 l
s
n
0.1500 0.1975 m
0.1700 0.1975 l
s
n
1.1500 0.1975 m
1.1300 0.1975 l
s
n
0.1500 0.3161 m
0.1700 0.3161 l
s
n
1.1500 0.3161 m
1.1300 0.3161 l
s
n
0.1500 0.4347 m
0.1700 0.4347 l
s
n
1.1500 0.4347 m
1.1300 0.4347 l
s
n
0.1500 0.5534 m
0.1700 0.5534 l
s
n
1.1500 0.5534 m
1.1300 0.5534 l
s
n
0.1500 0.6720 m
0.1700 0.6720 l
s
n
1.1500 0.6720 m
1.1300 0.6720 l
s
n
0.1500 0.7907 m
0.1700 0.7907 l
s
n
1.1500 0.7907 m
1.1300 0.7907 l
s
/Font41 FFSF
0.1267 0.1882 m
GS
[0.0280 0.0000 0.0000 0.0280 0 0] CC
(0) show
GR
/Font41 FFSF
0.0788 0.3085 m
GS
[0.0280 0.0000 0.0000 0.0280 0 0] CC
(0,005) show
GR
/Font41 FFSF
0.0941 0.4273 m
GS
[0.0280 0.0000 0.0000 0.0280 0 0] CC
(0,01) show
GR
/Font41 FFSF
0.0788 0.5457 m
GS
[0.0280 0.0000 0.0000 0.0280 0 0] CC
(0,015) show
GR
/Font41 FFSF
0.0918 0.6646 m
GS
[0.0280 0.0000 0.0000 0.0280 0 0] CC
(0,02) show
GR
/Font41 FFSF
0.0788 0.7830 m
GS
[0.0280 0.0000 0.0000 0.0280 0 0] CC
(0,025) show
GR
/Font41 FFSF
0.0598 0.2790 m
GS
[0.0000 0.0420 -0.0420 0.0000 0 0] CC
(Susceptibilidad magnetica) show
GR
n
0.1500 0.1500 m
0.1500 0.8500 l
1.1500 0.8500 l
1.1500 0.1500 l
0.1500 0.1500 l
c
s
n
0.7500 0.8000 m
0.7500 0.7192 l
1.0372 0.7192 l
1.0372 0.8000 l
c
[/DeviceRGB] SCS
Color0 SC
fill
[/DeviceRGB] SCS
Color1 SC
n
0.7500 0.8000 m
0.7500 0.7192 l
1.0372 0.7192 l
1.0372 0.8000 l
0.7500 0.8000 l
c
s
/Font41 FFSF
0.8190 0.7520 m
GS
[0.0560 0.0000 0.0000 0.0560 0 0] CC
(T) show
GR
/Font41 FFSF
0.8531 0.7296 m
GS
[0.0396 0.0000 0.0000 0.0396 0 0] CC
(incial) show
GR
/Font41 FFSF
0.9409 0.7520 m
GS
[0.0560 0.0000 0.0000 0.0560 0 0] CC
( = 0) show
GR
[/DeviceRGB] SCS
Color4 SC
n
0.7649 0.7596 m
0.8049 0.7596 l
s
n
0.7649 0.7637 m
0.7608 0.7596 l
0.7649 0.7555 l
0.7690 0.7596 l
c
fill
n
0.7649 0.7637 m
0.7608 0.7596 l
0.7649 0.7555 l
0.7690 0.7596 l
0.7649 0.7637 l
c
s
n
0.8049 0.7637 m
0.8008 0.7596 l
0.8049 0.7555 l
0.8090 0.7596 l
c
fill
n
0.8049 0.7637 m
0.8008 0.7596 l
0.8049 0.7555 l
0.8090 0.7596 l
0.8049 0.7637 l
c
s
%%Trailer
%%BoundingBox: 18 61 709 522
%%DocumentNeededResources: font Times-Roman
%%EOF
